<?xml version="1.0" encoding="UTF-8" standalone="no"?>
<!DOCTYPE svg PUBLIC "-//W3C//DTD SVG 1.1//EN"
 "http://www.w3.org/Graphics/SVG/1.1/DTD/svg11.dtd">
<!-- Generated by graphviz version 2.43.0 (0)
 -->
<!-- Title: diagram Pages: 1 -->
<svg width="383pt" height="114pt"
 viewBox="0.00 0.00 383.00 113.50" xmlns="http://www.w3.org/2000/svg" xmlns:xlink="http://www.w3.org/1999/xlink">
<g id="graph0" class="graph" transform="scale(1 1) rotate(0) translate(4 109.5)">
<title>diagram</title>
<polygon fill="white" stroke="transparent" points="-4,4 -4,-109.5 379,-109.5 379,4 -4,4"/>
<!-- Phys -->
<g id="node1" class="node">
<title>Phys</title>
<polygon fill="#cccccc" stroke="black" points="72,-63.5 0,-63.5 0,-27.5 72,-27.5 72,-63.5"/>
<text text-anchor="middle" x="36" y="-41.8" font-family="Times,serif" font-size="14.00">Phys</text>
</g>
<!-- Frame -->
<g id="node2" class="node">
<title>Frame</title>
<polygon fill="#cccccc" stroke="black" points="375,-63.5 303,-63.5 303,-27.5 375,-27.5 375,-63.5"/>
<text text-anchor="middle" x="339" y="-41.8" font-family="Times,serif" font-size="14.00">Frame</text>
</g>
<!-- Phys&#45;&gt;Frame -->
<g id="edge1" class="edge">
<title>Phys:ne&#45;&gt;Frame:nw</title>
<path fill="none" stroke="black" d="M71,-63.5C105.25,-97.75 247.73,-99.82 295.08,-69.72"/>
<polygon fill="black" stroke="black" points="303,-63.5 297.92,-73.22 299.07,-66.59 295.14,-69.68 295.14,-69.68 295.14,-69.68 299.07,-66.59 292.36,-66.14 303,-63.5 303,-63.5"/>
<text text-anchor="middle" x="187.5" y="-94.3" font-family="Times,serif" font-size="14.00">Frame::new()</text>
</g>
<!-- Frame&#45;&gt;Phys -->
<g id="edge2" class="edge">
<title>Frame:sw&#45;&gt;Phys:se</title>
<path fill="none" stroke="black" d="M304,-27.5C269.75,6.75 127.27,8.82 79.92,-21.28"/>
<polygon fill="black" stroke="black" points="72,-27.5 77.08,-17.78 75.93,-24.41 79.86,-21.32 79.86,-21.32 79.86,-21.32 75.93,-24.41 82.64,-24.86 72,-27.5 72,-27.5"/>
<text text-anchor="middle" x="187.5" y="-9.3" font-family="Times,serif" font-size="14.00">Frame::address()</text>
</g>
</g>
</svg>
