<?xml version="1.0" encoding="UTF-8"?>
<svg xmlns="http://www.w3.org/2000/svg" xmlns:xlink="http://www.w3.org/1999/xlink" width="588.448pt" height="243.343pt" viewBox="0 0 588.448 243.343" version="1.1">
<defs>
<g>
<symbol overflow="visible" id="glyph0-0">
<path style="stroke:none;" d=""/>
</symbol>
<symbol overflow="visible" id="glyph0-1">
<path style="stroke:none;" d="M 5.28125 -3.1875 C 5.28125 -4.140625 5.265625 -6.53125 2.859375 -6.53125 C 0.453125 -6.53125 0.453125 -4.15625 0.453125 -3.1875 C 0.453125 -2.1875 0.453125 0.109375 2.859375 0.109375 C 5.25 0.109375 5.28125 -2.1875 5.28125 -3.1875 Z M 2.859375 -0.25 C 2.5 -0.25 1.9375 -0.46875 1.8125 -1.203125 C 1.71875 -1.71875 1.71875 -2.75 1.71875 -3.296875 C 1.71875 -4.015625 1.71875 -4.671875 1.796875 -5.1875 C 1.921875 -6.078125 2.625 -6.171875 2.859375 -6.171875 C 3.234375 -6.171875 3.640625 -5.984375 3.828125 -5.546875 C 4 -5.171875 4 -4.109375 4 -3.296875 C 4 -2.734375 4 -1.828125 3.921875 -1.3125 C 3.78125 -0.390625 3.15625 -0.25 2.859375 -0.25 Z M 2.859375 -0.25 "/>
</symbol>
<symbol overflow="visible" id="glyph0-2">
<path style="stroke:none;" d="M 3.515625 -3.515625 C 4.203125 -3.71875 4.921875 -4.28125 4.921875 -5.140625 C 4.921875 -5.90625 4.171875 -6.53125 2.765625 -6.53125 C 1.578125 -6.53125 0.796875 -5.890625 0.796875 -5.09375 C 0.796875 -4.671875 1.109375 -4.390625 1.484375 -4.390625 C 1.9375 -4.390625 2.1875 -4.71875 2.1875 -5.078125 C 2.1875 -5.65625 1.640625 -5.765625 1.609375 -5.78125 C 1.953125 -6.0625 2.390625 -6.140625 2.703125 -6.140625 C 3.53125 -6.140625 3.5625 -5.5 3.5625 -5.171875 C 3.5625 -5.046875 3.546875 -3.734375 2.515625 -3.671875 C 2.109375 -3.65625 2.078125 -3.65625 2.03125 -3.640625 C 1.9375 -3.625 1.90625 -3.53125 1.90625 -3.46875 C 1.90625 -3.296875 2.015625 -3.296875 2.1875 -3.296875 L 2.625 -3.296875 C 3.71875 -3.296875 3.71875 -2.3125 3.71875 -1.796875 C 3.71875 -1.328125 3.71875 -0.3125 2.6875 -0.3125 C 2.421875 -0.3125 1.90625 -0.359375 1.421875 -0.65625 C 1.75 -0.75 2 -1 2 -1.40625 C 2 -1.859375 1.6875 -2.15625 1.25 -2.15625 C 0.828125 -2.15625 0.484375 -1.890625 0.484375 -1.390625 C 0.484375 -0.484375 1.453125 0.109375 2.734375 0.109375 C 4.515625 0.109375 5.25 -0.890625 5.25 -1.796875 C 5.25 -2.34375 4.953125 -3.203125 3.515625 -3.515625 Z M 3.515625 -3.515625 "/>
</symbol>
<symbol overflow="visible" id="glyph0-3">
<path style="stroke:none;" d="M 3.53125 -6.203125 C 3.53125 -6.4375 3.53125 -6.53125 3.265625 -6.53125 C 3.15625 -6.53125 3.140625 -6.53125 3.046875 -6.453125 C 2.28125 -5.890625 1.25 -5.890625 1.046875 -5.890625 L 0.84375 -5.890625 L 0.84375 -5.421875 L 1.046875 -5.421875 C 1.203125 -5.421875 1.75 -5.4375 2.34375 -5.625 L 2.34375 -0.46875 L 0.953125 -0.46875 L 0.953125 0 C 1.390625 -0.03125 2.453125 -0.03125 2.9375 -0.03125 C 3.421875 -0.03125 4.484375 -0.03125 4.921875 0 L 4.921875 -0.46875 L 3.53125 -0.46875 Z M 3.53125 -6.203125 "/>
</symbol>
<symbol overflow="visible" id="glyph0-4">
<path style="stroke:none;" d="M 1.828125 -3.40625 L 1.828125 -3.59375 C 1.828125 -4.734375 2.046875 -5.15625 2.109375 -5.3125 C 2.359375 -5.78125 2.890625 -6.140625 3.5 -6.140625 C 3.671875 -6.140625 4.015625 -6.109375 4.25 -5.875 C 3.890625 -5.828125 3.703125 -5.5625 3.703125 -5.265625 C 3.703125 -4.921875 3.9375 -4.640625 4.328125 -4.640625 C 4.71875 -4.640625 4.953125 -4.90625 4.953125 -5.28125 C 4.953125 -5.90625 4.53125 -6.53125 3.484375 -6.53125 C 2.125 -6.53125 0.484375 -5.671875 0.484375 -3.15625 C 0.484375 -2.375 0.5625 -1.578125 0.984375 -0.890625 C 1.453125 -0.125 2.203125 0.109375 2.90625 0.109375 C 4.28125 0.109375 5.25 -0.703125 5.25 -2.046875 C 5.25 -3.4375 4.234375 -4.171875 3.03125 -4.171875 C 2.8125 -4.171875 2.25 -4.171875 1.828125 -3.40625 Z M 2.875 -0.3125 C 2.359375 -0.3125 2.09375 -0.703125 2.015625 -0.875 C 1.859375 -1.1875 1.859375 -1.90625 1.859375 -2.09375 C 1.859375 -3.34375 2.390625 -3.8125 2.9375 -3.8125 C 3.890625 -3.8125 3.890625 -3.0625 3.890625 -2.0625 C 3.890625 -1.0625 3.890625 -0.3125 2.875 -0.3125 Z M 2.875 -0.3125 "/>
</symbol>
<symbol overflow="visible" id="glyph0-5">
<path style="stroke:none;" d="M 1.984375 -4.78125 C 1.828125 -4.859375 1.546875 -5.03125 1.546875 -5.375 C 1.546875 -6.078125 2.4375 -6.140625 2.84375 -6.140625 C 3.671875 -6.140625 4.171875 -5.734375 4.171875 -5.046875 C 4.171875 -4.5625 3.921875 -4.234375 3.484375 -3.9375 Z M 3.921875 -3.6875 C 4.609375 -4.046875 4.921875 -4.484375 4.921875 -5.0625 C 4.921875 -6.078125 4.015625 -6.53125 2.875 -6.53125 C 1.5 -6.53125 0.796875 -5.734375 0.796875 -4.78125 C 0.796875 -4.34375 0.984375 -3.71875 1.75 -3.28125 C 0.921875 -2.90625 0.484375 -2.34375 0.484375 -1.609375 C 0.484375 -0.40625 1.5625 0.109375 2.84375 0.109375 C 4.4375 0.109375 5.25 -0.765625 5.25 -1.859375 C 5.25 -2.9375 4.40625 -3.40625 3.921875 -3.6875 Z M 2.21875 -3.015625 C 2.5625 -2.828125 3.03125 -2.5625 3.578125 -2.25 C 4.015625 -2 4.390625 -1.796875 4.390625 -1.3125 C 4.390625 -0.484375 3.453125 -0.3125 2.875 -0.3125 C 1.90625 -0.3125 1.328125 -0.828125 1.328125 -1.609375 C 1.328125 -2.375 1.859375 -2.8125 2.21875 -3.015625 Z M 2.21875 -3.015625 "/>
</symbol>
<symbol overflow="visible" id="glyph0-6">
<path style="stroke:none;" d="M 5.15625 -2.21875 L 4.6875 -2.21875 C 4.65625 -2.015625 4.5625 -1.375 4.421875 -1.3125 C 4.3125 -1.25 3.5625 -1.25 3.40625 -1.25 L 1.9375 -1.25 C 2.40625 -1.640625 2.9375 -2.0625 3.375 -2.390625 C 4.515625 -3.234375 5.15625 -3.703125 5.15625 -4.640625 C 5.15625 -5.796875 4.109375 -6.53125 2.71875 -6.53125 C 1.5 -6.53125 0.5625 -5.90625 0.5625 -5.015625 C 0.5625 -4.421875 1.046875 -4.28125 1.28125 -4.28125 C 1.609375 -4.28125 2 -4.5 2 -5 C 2 -5.515625 1.578125 -5.671875 1.4375 -5.71875 C 1.71875 -5.953125 2.109375 -6.0625 2.46875 -6.0625 C 3.3125 -6.0625 3.78125 -5.390625 3.78125 -4.640625 C 3.78125 -3.953125 3.40625 -3.265625 2.703125 -2.5625 L 0.703125 -0.515625 C 0.5625 -0.40625 0.5625 -0.375 0.5625 -0.171875 L 0.5625 0 L 4.84375 0 Z M 5.15625 -2.21875 "/>
</symbol>
<symbol overflow="visible" id="glyph0-7">
<path style="stroke:none;" d="M 4.4375 -1.5625 L 5.40625 -1.5625 L 5.40625 -2.03125 L 4.4375 -2.03125 L 4.4375 -6.21875 C 4.4375 -6.484375 4.421875 -6.546875 4.140625 -6.546875 C 3.921875 -6.546875 3.921875 -6.53125 3.796875 -6.375 L 0.3125 -2.03125 L 0.3125 -1.5625 L 3.1875 -1.5625 L 3.1875 -0.46875 L 2.078125 -0.46875 L 2.078125 0 C 2.453125 -0.03125 3.359375 -0.03125 3.78125 -0.03125 C 4.1875 -0.03125 5.046875 -0.03125 5.40625 0 L 5.40625 -0.46875 L 4.4375 -0.46875 Z M 3.296875 -2.03125 L 0.84375 -2.03125 L 3.296875 -5.109375 Z M 3.296875 -2.03125 "/>
</symbol>
<symbol overflow="visible" id="glyph0-8">
<path style="stroke:none;" d="M 5.15625 -2 C 5.15625 -3.15625 4.359375 -4.078125 2.890625 -4.078125 C 2.609375 -4.078125 2.078125 -4.046875 1.609375 -3.734375 L 1.609375 -5.046875 C 1.890625 -5 2 -4.96875 2.328125 -4.96875 C 3.78125 -4.96875 4.703125 -6.09375 4.703125 -6.34375 C 4.703125 -6.421875 4.6875 -6.53125 4.5625 -6.53125 C 4.53125 -6.53125 4.53125 -6.53125 4.421875 -6.484375 C 3.84375 -6.265625 3.3125 -6.203125 2.890625 -6.203125 C 2.140625 -6.203125 1.609375 -6.40625 1.34375 -6.484375 C 1.25 -6.515625 1.25 -6.53125 1.21875 -6.53125 C 1.078125 -6.53125 1.078125 -6.421875 1.078125 -6.265625 L 1.078125 -3.34375 C 1.078125 -3.171875 1.078125 -3.046875 1.296875 -3.046875 C 1.421875 -3.046875 1.453125 -3.078125 1.515625 -3.15625 C 1.90625 -3.625 2.4375 -3.71875 2.84375 -3.71875 C 3.734375 -3.71875 3.734375 -2.84375 3.734375 -2.046875 C 3.734375 -1.3125 3.734375 -0.3125 2.546875 -0.3125 C 2.296875 -0.3125 1.671875 -0.375 1.25 -0.9375 C 1.609375 -0.953125 1.90625 -1.203125 1.90625 -1.609375 C 1.90625 -2.140625 1.46875 -2.28125 1.234375 -2.28125 C 1.09375 -2.28125 0.5625 -2.1875 0.5625 -1.578125 C 0.5625 -0.734375 1.34375 0.109375 2.578125 0.109375 C 4.171875 0.109375 5.15625 -0.78125 5.15625 -2 Z M 5.15625 -2 "/>
</symbol>
<symbol overflow="visible" id="glyph1-0">
<path style="stroke:none;" d=""/>
</symbol>
<symbol overflow="visible" id="glyph1-1">
<path style="stroke:none;" d="M 2.484375 -2.6875 C 2.484375 -3.078125 2.5625 -4.984375 3.96875 -4.984375 C 3.796875 -4.859375 3.71875 -4.65625 3.71875 -4.4375 C 3.71875 -3.9375 4.109375 -3.734375 4.40625 -3.734375 C 4.703125 -3.734375 5.109375 -3.9375 5.109375 -4.4375 C 5.109375 -5.046875 4.484375 -5.375 3.90625 -5.375 C 2.96875 -5.375 2.5625 -4.546875 2.390625 -4.046875 L 2.375 -4.046875 L 2.375 -5.375 L 0.421875 -5.28125 L 0.421875 -4.765625 C 1.15625 -4.765625 1.25 -4.765625 1.25 -4.296875 L 1.25 -0.515625 L 0.421875 -0.515625 L 0.421875 0 C 0.6875 -0.03125 1.59375 -0.03125 1.921875 -0.03125 C 2.265625 -0.03125 3.234375 -0.03125 3.53125 0 L 3.53125 -0.515625 L 2.484375 -0.515625 Z M 2.484375 -2.6875 "/>
</symbol>
<symbol overflow="visible" id="glyph1-2">
<path style="stroke:none;" d="M 5.40625 -2.640625 C 5.671875 -2.640625 5.75 -2.640625 5.75 -2.9375 C 5.75 -3.296875 5.671875 -4.203125 5.109375 -4.75 C 4.609375 -5.265625 3.9375 -5.421875 3.25 -5.421875 C 1.390625 -5.421875 0.375 -4.203125 0.375 -2.6875 C 0.375 -1.015625 1.609375 0.078125 3.40625 0.078125 C 5.21875 0.078125 5.75 -1.1875 5.75 -1.40625 C 5.75 -1.578125 5.5625 -1.578125 5.5 -1.578125 C 5.3125 -1.578125 5.296875 -1.546875 5.21875 -1.390625 C 4.90625 -0.609375 4.125 -0.359375 3.546875 -0.359375 C 1.8125 -0.359375 1.8125 -1.96875 1.8125 -2.640625 Z M 1.8125 -2.984375 C 1.828125 -3.484375 1.84375 -3.9375 2.09375 -4.375 C 2.3125 -4.75 2.734375 -5.015625 3.25 -5.015625 C 4.53125 -5.015625 4.640625 -3.578125 4.65625 -2.984375 Z M 1.8125 -2.984375 "/>
</symbol>
<symbol overflow="visible" id="glyph1-3">
<path style="stroke:none;" d="M 5.5 -3.578125 C 5.5 -4.671875 4.625 -5.421875 2.9375 -5.421875 C 2.265625 -5.421875 0.859375 -5.359375 0.859375 -4.34375 C 0.859375 -3.84375 1.25 -3.640625 1.5625 -3.640625 C 1.921875 -3.640625 2.265625 -3.890625 2.265625 -4.34375 C 2.265625 -4.5625 2.1875 -4.78125 1.984375 -4.90625 C 2.375 -5.015625 2.671875 -5.015625 2.890625 -5.015625 C 3.703125 -5.015625 4.203125 -4.5625 4.203125 -3.578125 L 4.203125 -3.109375 C 2.3125 -3.109375 0.40625 -2.578125 0.40625 -1.25 C 0.40625 -0.171875 1.796875 0.078125 2.625 0.078125 C 3.53125 0.078125 4.125 -0.4375 4.359375 -0.953125 C 4.359375 -0.515625 4.359375 0 5.5625 0 L 6.1875 0 C 6.4375 0 6.53125 0 6.53125 -0.265625 C 6.53125 -0.515625 6.421875 -0.515625 6.25 -0.515625 C 5.5 -0.53125 5.5 -0.71875 5.5 -0.984375 Z M 4.203125 -1.65625 C 4.203125 -0.53125 3.1875 -0.328125 2.8125 -0.328125 C 2.21875 -0.328125 1.734375 -0.71875 1.734375 -1.265625 C 1.734375 -2.359375 3.03125 -2.71875 4.203125 -2.78125 Z M 4.203125 -1.65625 "/>
</symbol>
<symbol overflow="visible" id="glyph1-4">
<path style="stroke:none;" d="M 4.140625 -8.203125 L 4.140625 -7.6875 C 4.890625 -7.6875 4.96875 -7.6875 4.96875 -7.21875 L 4.96875 -4.8125 C 4.703125 -5.03125 4.1875 -5.375 3.359375 -5.375 C 1.65625 -5.375 0.453125 -4.328125 0.453125 -2.65625 C 0.453125 -0.9375 1.640625 0.078125 3.234375 0.078125 C 3.890625 0.078125 4.453125 -0.15625 4.90625 -0.546875 L 4.90625 0.078125 L 7.046875 0 L 7.046875 -0.515625 C 6.296875 -0.515625 6.21875 -0.515625 6.21875 -0.984375 L 6.21875 -8.296875 Z M 4.90625 -1.203125 C 4.40625 -0.484375 3.796875 -0.328125 3.375 -0.328125 C 1.890625 -0.328125 1.890625 -1.84375 1.890625 -2.625 C 1.890625 -3.1875 1.890625 -3.796875 2.15625 -4.25 C 2.515625 -4.90625 3.234375 -4.984375 3.5 -4.984375 C 4 -4.984375 4.515625 -4.765625 4.90625 -4.25 Z M 4.90625 -1.203125 "/>
</symbol>
<symbol overflow="visible" id="glyph1-5">
<path style="stroke:none;" d="M 6.34375 -3.65625 C 6.34375 -4.796875 5.859375 -5.375 4.546875 -5.375 C 3.6875 -5.375 2.9375 -4.953125 2.53125 -4.0625 L 2.515625 -4.0625 L 2.515625 -5.375 L 0.5 -5.28125 L 0.5 -4.765625 C 1.25 -4.765625 1.328125 -4.765625 1.328125 -4.296875 L 1.328125 -0.515625 L 0.5 -0.515625 L 0.5 0 C 0.78125 -0.03125 1.640625 -0.03125 1.96875 -0.03125 C 2.3125 -0.03125 3.171875 -0.03125 3.453125 0 L 3.453125 -0.515625 L 2.625 -0.515625 L 2.625 -3.0625 C 2.625 -4.34375 3.578125 -4.984375 4.34375 -4.984375 C 4.796875 -4.984375 5.046875 -4.703125 5.046875 -3.796875 L 5.046875 -0.515625 L 4.21875 -0.515625 L 4.21875 0 C 4.5 -0.03125 5.359375 -0.03125 5.6875 -0.03125 C 6.03125 -0.03125 6.890625 -0.03125 7.171875 0 L 7.171875 -0.515625 L 6.34375 -0.515625 Z M 6.34375 -3.65625 "/>
</symbol>
<symbol overflow="visible" id="glyph1-6">
<path style="stroke:none;" d="M 8.609375 -4.5 C 8.6875 -4.703125 8.71875 -4.796875 9.421875 -4.796875 L 9.421875 -5.3125 C 9.078125 -5.28125 8.921875 -5.28125 8.484375 -5.28125 C 8 -5.28125 7.84375 -5.28125 7.40625 -5.3125 L 7.40625 -4.796875 C 7.515625 -4.796875 8.109375 -4.796875 8.109375 -4.640625 C 8.109375 -4.625 8.109375 -4.609375 8.0625 -4.5 L 6.796875 -1.390625 L 5.421875 -4.796875 L 6.109375 -4.796875 L 6.109375 -5.3125 C 5.828125 -5.28125 5.109375 -5.28125 4.796875 -5.28125 C 4.1875 -5.28125 4.15625 -5.28125 3.5625 -5.3125 L 3.5625 -4.796875 L 4.265625 -4.796875 C 4.296875 -4.703125 4.359375 -4.546875 4.40625 -4.4375 C 4.453125 -4.359375 4.5625 -4.078125 4.5625 -4.015625 C 4.5625 -4 4.53125 -3.90625 4.515625 -3.875 L 3.609375 -1.609375 L 2.3125 -4.796875 L 3 -4.796875 L 3 -5.3125 C 2.71875 -5.28125 1.90625 -5.28125 1.59375 -5.28125 C 1.203125 -5.28125 0.640625 -5.28125 0.28125 -5.3125 L 0.28125 -4.796875 L 0.984375 -4.796875 L 2.8125 -0.234375 C 2.890625 -0.03125 2.9375 0.0625 3.203125 0.0625 C 3.328125 0.0625 3.484375 0.0625 3.578125 -0.171875 L 4.84375 -3.34375 L 6.109375 -0.203125 C 6.21875 0.0625 6.34375 0.0625 6.484375 0.0625 C 6.75 0.0625 6.796875 -0.015625 6.875 -0.234375 Z M 8.609375 -4.5 "/>
</symbol>
<symbol overflow="visible" id="glyph1-7">
<path style="stroke:none;" d="M 2.671875 -7.453125 C 2.671875 -7.9375 2.265625 -8.3125 1.8125 -8.3125 C 1.3125 -8.3125 0.9375 -7.90625 0.9375 -7.453125 C 0.9375 -7 1.3125 -6.59375 1.8125 -6.59375 C 2.265625 -6.59375 2.671875 -6.953125 2.671875 -7.453125 Z M 0.5625 -5.28125 L 0.5625 -4.765625 C 1.265625 -4.765625 1.34375 -4.765625 1.34375 -4.296875 L 1.34375 -0.515625 L 0.53125 -0.515625 L 0.53125 0 C 0.796875 -0.03125 1.625 -0.03125 1.953125 -0.03125 C 2.28125 -0.03125 3.046875 -0.03125 3.328125 0 L 3.328125 -0.515625 L 2.59375 -0.515625 L 2.59375 -5.375 Z M 0.5625 -5.28125 "/>
</symbol>
<symbol overflow="visible" id="glyph1-8">
<path style="stroke:none;" d="M 2.515625 -4.796875 L 4.25 -4.796875 L 4.25 -5.3125 L 2.515625 -5.3125 L 2.515625 -7.59375 L 2.015625 -7.59375 C 2.015625 -6.40625 1.4375 -5.21875 0.25 -5.1875 L 0.25 -4.796875 L 1.21875 -4.796875 L 1.21875 -1.46875 C 1.21875 -0.203125 2.203125 0.078125 3.0625 0.078125 C 3.9375 0.078125 4.46875 -0.59375 4.46875 -1.484375 L 4.46875 -2.109375 L 3.96875 -2.109375 L 3.96875 -1.5 C 3.96875 -0.703125 3.609375 -0.359375 3.234375 -0.359375 C 2.515625 -0.359375 2.515625 -1.15625 2.515625 -1.4375 Z M 2.515625 -4.796875 "/>
</symbol>
<symbol overflow="visible" id="glyph1-9">
<path style="stroke:none;" d="M 6.34375 -3.65625 C 6.34375 -4.796875 5.859375 -5.375 4.546875 -5.375 C 3.328125 -5.375 2.75 -4.53125 2.578125 -4.171875 L 2.5625 -4.171875 L 2.5625 -8.296875 L 0.5 -8.203125 L 0.5 -7.6875 C 1.25 -7.6875 1.328125 -7.6875 1.328125 -7.21875 L 1.328125 -0.515625 L 0.5 -0.515625 L 0.5 0 C 0.78125 -0.03125 1.640625 -0.03125 1.96875 -0.03125 C 2.3125 -0.03125 3.171875 -0.03125 3.453125 0 L 3.453125 -0.515625 L 2.625 -0.515625 L 2.625 -3.0625 C 2.625 -4.34375 3.578125 -4.984375 4.34375 -4.984375 C 4.796875 -4.984375 5.046875 -4.703125 5.046875 -3.796875 L 5.046875 -0.515625 L 4.21875 -0.515625 L 4.21875 0 C 4.5 -0.03125 5.359375 -0.03125 5.6875 -0.03125 C 6.03125 -0.03125 6.890625 -0.03125 7.171875 0 L 7.171875 -0.515625 L 6.34375 -0.515625 Z M 6.34375 -3.65625 "/>
</symbol>
<symbol overflow="visible" id="glyph1-10">
<path style="stroke:none;" d="M 2.59375 -8.296875 L 0.53125 -8.203125 L 0.53125 -7.6875 C 1.265625 -7.6875 1.34375 -7.6875 1.34375 -7.21875 L 1.34375 -0.515625 L 0.53125 -0.515625 L 0.53125 0 C 0.796875 -0.03125 1.65625 -0.03125 1.96875 -0.03125 C 2.296875 -0.03125 3.140625 -0.03125 3.421875 0 L 3.421875 -0.515625 L 2.59375 -0.515625 Z M 2.59375 -8.296875 "/>
</symbol>
<symbol overflow="visible" id="glyph1-11">
<path style="stroke:none;" d="M 5.59375 -1.40625 C 5.59375 -1.546875 5.46875 -1.546875 5.34375 -1.546875 C 5.15625 -1.546875 5.140625 -1.53125 5.078125 -1.390625 C 5 -1.15625 4.671875 -0.359375 3.578125 -0.359375 C 1.890625 -0.359375 1.890625 -2.171875 1.890625 -2.71875 C 1.890625 -3.421875 1.90625 -4.984375 3.46875 -4.984375 C 3.546875 -4.984375 4.25 -4.953125 4.25 -4.90625 C 4.25 -4.890625 4.25 -4.875 4.21875 -4.859375 C 4.1875 -4.828125 4.03125 -4.65625 4.03125 -4.34375 C 4.03125 -3.84375 4.4375 -3.640625 4.734375 -3.640625 C 4.984375 -3.640625 5.4375 -3.796875 5.4375 -4.359375 C 5.4375 -5.34375 4.0625 -5.421875 3.421875 -5.421875 C 1.296875 -5.421875 0.453125 -4.03125 0.453125 -2.65625 C 0.453125 -1.03125 1.59375 0.078125 3.34375 0.078125 C 5.21875 0.078125 5.59375 -1.3125 5.59375 -1.40625 Z M 5.59375 -1.40625 "/>
</symbol>
<symbol overflow="visible" id="glyph1-12">
<path style="stroke:none;" d="M 6.328125 -2.625 C 6.328125 -4.234375 5.234375 -5.421875 3.359375 -5.421875 C 1.40625 -5.421875 0.375 -4.171875 0.375 -2.625 C 0.375 -1.046875 1.46875 0.078125 3.34375 0.078125 C 5.296875 0.078125 6.328125 -1.109375 6.328125 -2.625 Z M 3.359375 -0.359375 C 1.8125 -0.359375 1.8125 -1.75 1.8125 -2.734375 C 1.8125 -3.296875 1.8125 -3.890625 2.03125 -4.328125 C 2.296875 -4.8125 2.828125 -5.015625 3.34375 -5.015625 C 4.03125 -5.015625 4.453125 -4.703125 4.65625 -4.359375 C 4.90625 -3.9375 4.90625 -3.3125 4.90625 -2.734375 C 4.90625 -1.75 4.90625 -0.359375 3.359375 -0.359375 Z M 3.359375 -0.359375 "/>
</symbol>
<symbol overflow="visible" id="glyph1-13">
<path style="stroke:none;" d="M 10.09375 -3.65625 C 10.09375 -4.75 9.625 -5.375 8.28125 -5.375 C 7.078125 -5.375 6.515625 -4.5625 6.328125 -4.1875 C 6.125 -5.203125 5.3125 -5.375 4.546875 -5.375 C 3.40625 -5.375 2.78125 -4.640625 2.53125 -4.0625 L 2.515625 -4.0625 L 2.515625 -5.375 L 0.5 -5.28125 L 0.5 -4.765625 C 1.25 -4.765625 1.328125 -4.765625 1.328125 -4.296875 L 1.328125 -0.515625 L 0.5 -0.515625 L 0.5 0 C 0.78125 -0.03125 1.640625 -0.03125 1.96875 -0.03125 C 2.3125 -0.03125 3.171875 -0.03125 3.453125 0 L 3.453125 -0.515625 L 2.625 -0.515625 L 2.625 -3.0625 C 2.625 -4.359375 3.59375 -4.984375 4.34375 -4.984375 C 4.796875 -4.984375 5.0625 -4.71875 5.0625 -3.796875 L 5.0625 -0.515625 L 4.234375 -0.515625 L 4.234375 0 C 4.5 -0.03125 5.359375 -0.03125 5.703125 -0.03125 C 6.03125 -0.03125 6.90625 -0.03125 7.1875 0 L 7.1875 -0.515625 L 6.359375 -0.515625 L 6.359375 -3.0625 C 6.359375 -4.359375 7.328125 -4.984375 8.078125 -4.984375 C 8.515625 -4.984375 8.78125 -4.71875 8.78125 -3.796875 L 8.78125 -0.515625 L 7.953125 -0.515625 L 7.953125 0 C 8.234375 -0.03125 9.09375 -0.03125 9.4375 -0.03125 C 9.765625 -0.03125 10.640625 -0.03125 10.90625 0 L 10.90625 -0.515625 L 10.09375 -0.515625 Z M 10.09375 -3.65625 "/>
</symbol>
<symbol overflow="visible" id="glyph1-14">
<path style="stroke:none;" d="M 4.5 -5.109375 C 4.5 -5.328125 4.5 -5.421875 4.328125 -5.421875 C 4.25 -5.421875 4.234375 -5.421875 4.046875 -5.3125 C 4 -5.265625 3.875 -5.1875 3.8125 -5.15625 C 3.484375 -5.34375 3.03125 -5.421875 2.609375 -5.421875 C 2.25 -5.421875 0.453125 -5.421875 0.453125 -3.859375 C 0.453125 -2.609375 1.9375 -2.34375 2.3125 -2.28125 C 2.625 -2.21875 3.03125 -2.15625 3.078125 -2.15625 C 3.546875 -2.046875 4.03125 -1.75 4.03125 -1.25 C 4.03125 -0.328125 2.9375 -0.328125 2.6875 -0.328125 C 2.078125 -0.328125 1.328125 -0.515625 0.984375 -1.671875 C 0.921875 -1.90625 0.90625 -1.921875 0.703125 -1.921875 C 0.453125 -1.921875 0.453125 -1.890625 0.453125 -1.609375 L 0.453125 -0.234375 C 0.453125 -0.015625 0.453125 0.078125 0.640625 0.078125 C 0.71875 0.078125 0.734375 0.078125 0.984375 -0.125 L 1.296875 -0.34375 C 1.828125 0.078125 2.46875 0.078125 2.6875 0.078125 C 3.34375 0.078125 4.84375 -0.078125 4.84375 -1.65625 C 4.84375 -2.234375 4.53125 -2.625 4.296875 -2.84375 C 3.796875 -3.25 3.390625 -3.328125 2.75 -3.4375 C 1.984375 -3.578125 1.265625 -3.703125 1.265625 -4.28125 C 1.265625 -5.0625 2.328125 -5.0625 2.578125 -5.0625 C 3.90625 -5.0625 3.984375 -4.21875 4 -3.921875 C 4.015625 -3.765625 4.109375 -3.765625 4.25 -3.765625 C 4.5 -3.765625 4.5 -3.796875 4.5 -4.078125 Z M 4.5 -5.109375 "/>
</symbol>
<symbol overflow="visible" id="glyph1-15">
<path style="stroke:none;" d="M 3.375 1.8125 L 2.546875 1.8125 L 2.546875 -0.484375 C 2.84375 -0.234375 3.375 0.078125 4.09375 0.078125 C 5.71875 0.078125 7 -0.921875 7 -2.671875 C 7 -4.3125 5.890625 -5.375 4.28125 -5.375 C 3.578125 -5.375 2.96875 -5.140625 2.484375 -4.75 L 2.484375 -5.375 L 0.421875 -5.28125 L 0.421875 -4.765625 C 1.15625 -4.765625 1.25 -4.765625 1.25 -4.296875 L 1.25 1.8125 L 0.421875 1.8125 L 0.421875 2.3125 C 0.6875 2.296875 1.546875 2.296875 1.890625 2.296875 C 2.21875 2.296875 3.09375 2.296875 3.375 2.3125 Z M 2.546875 -4.1875 C 2.984375 -4.75 3.625 -4.953125 4.09375 -4.953125 C 4.859375 -4.953125 5.5625 -4.25 5.5625 -2.671875 C 5.5625 -0.9375 4.703125 -0.328125 3.9375 -0.328125 C 3.4375 -0.328125 2.921875 -0.578125 2.546875 -1.140625 Z M 2.546875 -4.1875 "/>
</symbol>
<symbol overflow="visible" id="glyph1-16">
<path style="stroke:none;" d="M 4.03125 -2.953125 L 5.421875 -4.546875 C 5.546875 -4.703125 5.65625 -4.796875 6.640625 -4.796875 L 6.640625 -5.3125 C 5.96875 -5.28125 5.953125 -5.28125 5.546875 -5.28125 C 5.203125 -5.28125 4.6875 -5.28125 4.34375 -5.3125 L 4.34375 -4.796875 C 4.578125 -4.796875 4.828125 -4.734375 4.828125 -4.65625 C 4.828125 -4.625 4.765625 -4.546875 4.75 -4.515625 L 3.703125 -3.34375 L 2.515625 -4.796875 L 3.03125 -4.796875 L 3.03125 -5.3125 C 2.75 -5.28125 1.9375 -5.28125 1.609375 -5.28125 C 1.25 -5.28125 0.609375 -5.28125 0.28125 -5.3125 L 0.28125 -4.796875 L 1.125 -4.796875 L 2.984375 -2.515625 L 1.4375 -0.765625 C 1.296875 -0.59375 1.203125 -0.515625 0.21875 -0.515625 L 0.21875 0 C 0.9375 -0.03125 0.953125 -0.03125 1.328125 -0.03125 C 1.671875 -0.03125 2.171875 -0.03125 2.515625 0 L 2.515625 -0.515625 C 2.28125 -0.515625 2.03125 -0.578125 2.03125 -0.65625 C 2.03125 -0.671875 2.03125 -0.6875 2.109375 -0.78125 L 3.3125 -2.125 L 4.640625 -0.515625 L 4.140625 -0.515625 L 4.140625 0 C 4.421875 -0.03125 5.21875 -0.03125 5.5625 -0.03125 C 5.921875 -0.03125 6.546875 -0.03125 6.890625 0 L 6.890625 -0.515625 L 6.046875 -0.515625 Z M 4.03125 -2.953125 "/>
</symbol>
<symbol overflow="visible" id="glyph2-0">
<path style="stroke:none;" d=""/>
</symbol>
<symbol overflow="visible" id="glyph2-1">
<path style="stroke:none;" d="M 3.640625 -6.3125 C 2.21875 -6.625 2.1875 -7.65625 2.1875 -7.859375 C 2.1875 -8.59375 2.65625 -9.4375 4.046875 -9.4375 C 5.4375 -9.4375 6.6875 -8.765625 6.984375 -6.890625 C 7.03125 -6.578125 7.03125 -6.5625 7.296875 -6.5625 C 7.609375 -6.5625 7.609375 -6.609375 7.609375 -6.9375 L 7.609375 -9.640625 C 7.609375 -9.90625 7.609375 -10.015625 7.390625 -10.015625 C 7.28125 -10.015625 7.25 -10 7.109375 -9.859375 L 6.5 -9.15625 C 6.140625 -9.453125 5.421875 -10.015625 4.03125 -10.015625 C 1.984375 -10.015625 0.890625 -8.71875 0.890625 -7.15625 C 0.890625 -6.203125 1.40625 -5.515625 1.609375 -5.328125 C 2.359375 -4.578125 2.75 -4.484375 4.25 -4.15625 C 5.6875 -3.84375 5.859375 -3.8125 6.171875 -3.515625 C 6.359375 -3.328125 6.765625 -2.921875 6.765625 -2.1875 C 6.765625 -1.578125 6.46875 -0.4375 4.859375 -0.4375 C 3.59375 -0.4375 1.609375 -0.875 1.484375 -2.96875 C 1.484375 -3.234375 1.484375 -3.265625 1.1875 -3.265625 C 0.890625 -3.265625 0.890625 -3.234375 0.890625 -2.890625 L 0.890625 -0.203125 C 0.890625 0.078125 0.890625 0.171875 1.109375 0.171875 C 1.203125 0.171875 1.21875 0.15625 1.359375 0.03125 C 1.515625 -0.125 1.65625 -0.3125 2.015625 -0.671875 C 2.84375 -0.015625 4.015625 0.171875 4.875 0.171875 C 7.109375 0.171875 8.0625 -1.34375 8.0625 -2.875 C 8.0625 -4.21875 7.171875 -5.515625 5.609375 -5.859375 Z M 3.640625 -6.3125 "/>
</symbol>
<symbol overflow="visible" id="glyph2-2">
<path style="stroke:none;" d="M 3.03125 -5.75 L 5.09375 -5.75 L 5.09375 -6.375 L 3.03125 -6.375 L 3.03125 -9.109375 L 2.421875 -9.109375 C 2.40625 -7.6875 1.71875 -6.265625 0.296875 -6.21875 L 0.296875 -5.75 L 1.46875 -5.75 L 1.46875 -1.765625 C 1.46875 -0.25 2.640625 0.09375 3.671875 0.09375 C 4.734375 0.09375 5.359375 -0.71875 5.359375 -1.78125 L 5.359375 -2.53125 L 4.765625 -2.53125 L 4.765625 -1.796875 C 4.765625 -0.84375 4.328125 -0.4375 3.890625 -0.4375 C 3.03125 -0.4375 3.03125 -1.390625 3.03125 -1.71875 Z M 3.03125 -5.75 "/>
</symbol>
<symbol overflow="visible" id="glyph2-3">
<path style="stroke:none;" d="M 6.59375 -4.28125 C 6.59375 -5.609375 5.546875 -6.5 3.53125 -6.5 C 2.71875 -6.5 1.03125 -6.421875 1.03125 -5.21875 C 1.03125 -4.625 1.484375 -4.359375 1.875 -4.359375 C 2.3125 -4.359375 2.71875 -4.65625 2.71875 -5.203125 C 2.71875 -5.484375 2.625 -5.734375 2.375 -5.890625 C 2.859375 -6.03125 3.203125 -6.03125 3.46875 -6.03125 C 4.453125 -6.03125 5.03125 -5.484375 5.03125 -4.296875 L 5.03125 -3.734375 C 2.765625 -3.734375 0.484375 -3.09375 0.484375 -1.5 C 0.484375 -0.203125 2.15625 0.09375 3.140625 0.09375 C 4.25 0.09375 4.953125 -0.515625 5.234375 -1.140625 C 5.234375 -0.609375 5.234375 0 6.6875 0 L 7.421875 0 C 7.71875 0 7.828125 0 7.828125 -0.3125 C 7.828125 -0.609375 7.703125 -0.609375 7.5 -0.609375 C 6.59375 -0.625 6.59375 -0.859375 6.59375 -1.1875 Z M 5.03125 -2 C 5.03125 -0.640625 3.828125 -0.390625 3.375 -0.390625 C 2.671875 -0.390625 2.078125 -0.859375 2.078125 -1.515625 C 2.078125 -2.828125 3.625 -3.265625 5.03125 -3.34375 Z M 5.03125 -2 "/>
</symbol>
<symbol overflow="visible" id="glyph2-4">
<path style="stroke:none;" d="M 5.40625 -6.125 C 5.40625 -6.390625 5.40625 -6.5 5.1875 -6.5 C 5.109375 -6.5 5.078125 -6.5 4.859375 -6.375 C 4.8125 -6.328125 4.640625 -6.21875 4.578125 -6.1875 C 4.171875 -6.40625 3.640625 -6.5 3.125 -6.5 C 2.703125 -6.5 0.546875 -6.5 0.546875 -4.640625 C 0.546875 -3.125 2.328125 -2.8125 2.765625 -2.734375 C 3.15625 -2.671875 3.625 -2.578125 3.6875 -2.578125 C 4.265625 -2.453125 4.828125 -2.09375 4.828125 -1.484375 C 4.828125 -0.390625 3.53125 -0.390625 3.234375 -0.390625 C 2.5 -0.390625 1.59375 -0.609375 1.1875 -2.015625 C 1.109375 -2.296875 1.09375 -2.3125 0.84375 -2.3125 C 0.546875 -2.3125 0.546875 -2.265625 0.546875 -1.9375 L 0.546875 -0.28125 C 0.546875 -0.015625 0.546875 0.09375 0.765625 0.09375 C 0.859375 0.09375 0.890625 0.09375 1.171875 -0.140625 L 1.546875 -0.421875 C 2.1875 0.09375 2.96875 0.09375 3.234375 0.09375 C 4.015625 0.09375 5.8125 -0.09375 5.8125 -2 C 5.8125 -2.6875 5.4375 -3.15625 5.15625 -3.40625 C 4.5625 -3.90625 4.078125 -3.984375 3.296875 -4.125 C 2.375 -4.28125 1.515625 -4.453125 1.515625 -5.140625 C 1.515625 -6.0625 2.796875 -6.0625 3.09375 -6.0625 C 4.6875 -6.0625 4.78125 -5.0625 4.8125 -4.703125 C 4.8125 -4.515625 4.9375 -4.515625 5.109375 -4.515625 C 5.40625 -4.515625 5.40625 -4.5625 5.40625 -4.890625 Z M 5.40625 -6.125 "/>
</symbol>
</g>
<clipPath id="clip1">
  <path d="M 352 154 L 453 154 L 453 243.34375 L 352 243.34375 Z M 352 154 "/>
</clipPath>
<clipPath id="clip2">
  <path d="M 414 154 L 515 154 L 515 243.34375 L 414 243.34375 Z M 414 154 "/>
</clipPath>
</defs>
<g id="surface1">
<path style="fill-rule:nonzero;fill:rgb(79.998779%,79.998779%,79.998779%);fill-opacity:1;stroke-width:1.59404;stroke-linecap:butt;stroke-linejoin:miter;stroke:rgb(0%,0%,0%);stroke-opacity:1;stroke-miterlimit:10;" d="M -9.922375 -9.920813 L 9.921375 -9.920813 L 9.921375 9.922937 L -9.922375 9.922937 Z M -9.922375 -9.920813 " transform="matrix(1,0,0,-1,36.313,119.212)"/>
<path style="fill-rule:nonzero;fill:rgb(79.998779%,79.998779%,79.998779%);fill-opacity:1;stroke-width:1.59404;stroke-linecap:butt;stroke-linejoin:miter;stroke:rgb(0%,0%,0%);stroke-opacity:1;stroke-miterlimit:10;" d="M 9.921375 -9.920813 L 29.765125 -9.920813 L 29.765125 9.922937 L 9.921375 9.922937 Z M 9.921375 -9.920813 " transform="matrix(1,0,0,-1,36.313,119.212)"/>
<path style="fill-rule:nonzero;fill:rgb(79.998779%,79.998779%,79.998779%);fill-opacity:1;stroke-width:1.59404;stroke-linecap:butt;stroke-linejoin:miter;stroke:rgb(0%,0%,0%);stroke-opacity:1;stroke-miterlimit:10;" d="M 29.765125 -9.920813 L 49.604969 -9.920813 L 49.604969 9.922937 L 29.765125 9.922937 Z M 29.765125 -9.920813 " transform="matrix(1,0,0,-1,36.313,119.212)"/>
<path style="fill-rule:nonzero;fill:rgb(79.998779%,79.998779%,79.998779%);fill-opacity:1;stroke-width:1.59404;stroke-linecap:butt;stroke-linejoin:miter;stroke:rgb(0%,0%,0%);stroke-opacity:1;stroke-miterlimit:10;" d="M 49.608875 -9.920813 L 69.448719 -9.920813 L 69.448719 9.922937 L 49.608875 9.922937 Z M 49.608875 -9.920813 " transform="matrix(1,0,0,-1,36.313,119.212)"/>
<path style="fill-rule:nonzero;fill:rgb(79.998779%,79.998779%,79.998779%);fill-opacity:1;stroke-width:1.59404;stroke-linecap:butt;stroke-linejoin:miter;stroke:rgb(0%,0%,0%);stroke-opacity:1;stroke-miterlimit:10;" d="M 69.448719 -9.920813 L 89.292469 -9.920813 L 89.292469 9.922937 L 69.448719 9.922937 Z M 69.448719 -9.920813 " transform="matrix(1,0,0,-1,36.313,119.212)"/>
<path style="fill-rule:nonzero;fill:rgb(79.998779%,79.998779%,79.998779%);fill-opacity:1;stroke-width:1.59404;stroke-linecap:butt;stroke-linejoin:miter;stroke:rgb(0%,0%,0%);stroke-opacity:1;stroke-miterlimit:10;" d="M 89.292469 -9.920813 L 109.136219 -9.920813 L 109.136219 9.922937 L 89.292469 9.922937 Z M 89.292469 -9.920813 " transform="matrix(1,0,0,-1,36.313,119.212)"/>
<path style="fill-rule:nonzero;fill:rgb(79.998779%,79.998779%,79.998779%);fill-opacity:1;stroke-width:1.59404;stroke-linecap:butt;stroke-linejoin:miter;stroke:rgb(0%,0%,0%);stroke-opacity:1;stroke-miterlimit:10;" d="M 109.136219 -9.920813 L 128.976063 -9.920813 L 128.976063 9.922937 L 109.136219 9.922937 Z M 109.136219 -9.920813 " transform="matrix(1,0,0,-1,36.313,119.212)"/>
<path style="fill-rule:nonzero;fill:rgb(79.998779%,79.998779%,79.998779%);fill-opacity:1;stroke-width:1.59404;stroke-linecap:butt;stroke-linejoin:miter;stroke:rgb(0%,0%,0%);stroke-opacity:1;stroke-miterlimit:10;" d="M 128.979969 -9.920813 L 148.819813 -9.920813 L 148.819813 9.922937 L 128.979969 9.922937 Z M 128.979969 -9.920813 " transform="matrix(1,0,0,-1,36.313,119.212)"/>
<path style="fill-rule:nonzero;fill:rgb(79.998779%,79.998779%,79.998779%);fill-opacity:1;stroke-width:1.59404;stroke-linecap:butt;stroke-linejoin:miter;stroke:rgb(0%,0%,0%);stroke-opacity:1;stroke-miterlimit:10;" d="M 148.819813 -9.920813 L 168.663563 -9.920813 L 168.663563 9.922937 L 148.819813 9.922937 Z M 148.819813 -9.920813 " transform="matrix(1,0,0,-1,36.313,119.212)"/>
<path style="fill-rule:nonzero;fill:rgb(79.998779%,79.998779%,79.998779%);fill-opacity:1;stroke-width:1.59404;stroke-linecap:butt;stroke-linejoin:miter;stroke:rgb(0%,0%,0%);stroke-opacity:1;stroke-miterlimit:10;" d="M 168.663563 -9.920813 L 188.507313 -9.920813 L 188.507313 9.922937 L 168.663563 9.922937 Z M 168.663563 -9.920813 " transform="matrix(1,0,0,-1,36.313,119.212)"/>
<path style="fill-rule:nonzero;fill:rgb(79.998779%,79.998779%,79.998779%);fill-opacity:1;stroke-width:1.59404;stroke-linecap:butt;stroke-linejoin:miter;stroke:rgb(0%,0%,0%);stroke-opacity:1;stroke-miterlimit:10;" d="M 188.507313 -9.920813 L 208.347156 -9.920813 L 208.347156 9.922937 L 188.507313 9.922937 Z M 188.507313 -9.920813 " transform="matrix(1,0,0,-1,36.313,119.212)"/>
<path style="fill-rule:nonzero;fill:rgb(79.998779%,79.998779%,79.998779%);fill-opacity:1;stroke-width:1.59404;stroke-linecap:butt;stroke-linejoin:miter;stroke:rgb(0%,0%,0%);stroke-opacity:1;stroke-miterlimit:10;" d="M 208.351063 -9.920813 L 228.190906 -9.920813 L 228.190906 9.922937 L 208.351063 9.922937 Z M 208.351063 -9.920813 " transform="matrix(1,0,0,-1,36.313,119.212)"/>
<path style="fill-rule:nonzero;fill:rgb(79.998779%,79.998779%,79.998779%);fill-opacity:1;stroke-width:1.59404;stroke-linecap:butt;stroke-linejoin:miter;stroke:rgb(0%,0%,0%);stroke-opacity:1;stroke-miterlimit:10;" d="M 228.190906 -9.920813 L 248.034656 -9.920813 L 248.034656 9.922937 L 228.190906 9.922937 Z M 228.190906 -9.920813 " transform="matrix(1,0,0,-1,36.313,119.212)"/>
<path style="fill-rule:nonzero;fill:rgb(79.998779%,79.998779%,79.998779%);fill-opacity:1;stroke-width:1.59404;stroke-linecap:butt;stroke-linejoin:miter;stroke:rgb(0%,0%,0%);stroke-opacity:1;stroke-miterlimit:10;" d="M 248.034656 -9.920813 L 267.878406 -9.920813 L 267.878406 9.922937 L 248.034656 9.922937 Z M 248.034656 -9.920813 " transform="matrix(1,0,0,-1,36.313,119.212)"/>
<path style="fill-rule:nonzero;fill:rgb(79.998779%,79.998779%,79.998779%);fill-opacity:1;stroke-width:1.59404;stroke-linecap:butt;stroke-linejoin:miter;stroke:rgb(0%,0%,0%);stroke-opacity:1;stroke-miterlimit:10;" d="M 267.878406 -9.920813 L 287.722156 -9.920813 L 287.722156 9.922937 L 267.878406 9.922937 Z M 267.878406 -9.920813 " transform="matrix(1,0,0,-1,36.313,119.212)"/>
<path style="fill-rule:nonzero;fill:rgb(79.998779%,79.998779%,79.998779%);fill-opacity:1;stroke-width:1.59404;stroke-linecap:butt;stroke-linejoin:miter;stroke:rgb(0%,0%,0%);stroke-opacity:1;stroke-miterlimit:10;" d="M 287.722156 -9.920813 L 307.562 -9.920813 L 307.562 9.922937 L 287.722156 9.922937 Z M 287.722156 -9.920813 " transform="matrix(1,0,0,-1,36.313,119.212)"/>
<path style="fill-rule:nonzero;fill:rgb(79.998779%,79.998779%,79.998779%);fill-opacity:1;stroke-width:1.59404;stroke-linecap:butt;stroke-linejoin:miter;stroke:rgb(0%,0%,0%);stroke-opacity:1;stroke-miterlimit:10;" d="M 307.562 -9.920813 L 327.40575 -9.920813 L 327.40575 9.922937 L 307.562 9.922937 Z M 307.562 -9.920813 " transform="matrix(1,0,0,-1,36.313,119.212)"/>
<path style="fill-rule:nonzero;fill:rgb(79.998779%,79.998779%,79.998779%);fill-opacity:1;stroke-width:1.59404;stroke-linecap:butt;stroke-linejoin:miter;stroke:rgb(0%,0%,0%);stroke-opacity:1;stroke-miterlimit:10;" d="M 327.40575 -9.920813 L 347.2495 -9.920813 L 347.2495 9.922937 L 327.40575 9.922937 Z M 327.40575 -9.920813 " transform="matrix(1,0,0,-1,36.313,119.212)"/>
<path style="fill-rule:nonzero;fill:rgb(79.998779%,79.998779%,79.998779%);fill-opacity:1;stroke-width:1.59404;stroke-linecap:butt;stroke-linejoin:miter;stroke:rgb(0%,0%,0%);stroke-opacity:1;stroke-miterlimit:10;" d="M 347.2495 -9.920813 L 367.09325 -9.920813 L 367.09325 9.922937 L 347.2495 9.922937 Z M 347.2495 -9.920813 " transform="matrix(1,0,0,-1,36.313,119.212)"/>
<path style="fill-rule:nonzero;fill:rgb(98.823547%,88.233948%,89.411926%);fill-opacity:1;stroke-width:1.59404;stroke-linecap:butt;stroke-linejoin:miter;stroke:rgb(0%,0%,0%);stroke-opacity:1;stroke-miterlimit:10;" d="M 367.09325 -9.920813 L 386.933094 -9.920813 L 386.933094 9.922937 L 367.09325 9.922937 Z M 367.09325 -9.920813 " transform="matrix(1,0,0,-1,36.313,119.212)"/>
<g style="fill:rgb(0%,0%,0%);fill-opacity:1;">
  <use xlink:href="#glyph0-1" x="407.592" y="121.603"/>
  <use xlink:href="#glyph0-2" x="413.320495" y="121.603"/>
</g>
<path style="fill-rule:nonzero;fill:rgb(79.998779%,79.998779%,79.998779%);fill-opacity:1;stroke-width:1.59404;stroke-linecap:butt;stroke-linejoin:miter;stroke:rgb(0%,0%,0%);stroke-opacity:1;stroke-miterlimit:10;" d="M 386.933094 -9.920813 L 406.776844 -9.920813 L 406.776844 9.922937 L 386.933094 9.922937 Z M 386.933094 -9.920813 " transform="matrix(1,0,0,-1,36.313,119.212)"/>
<path style="fill-rule:nonzero;fill:rgb(79.998779%,79.998779%,79.998779%);fill-opacity:1;stroke-width:1.59404;stroke-linecap:butt;stroke-linejoin:miter;stroke:rgb(0%,0%,0%);stroke-opacity:1;stroke-miterlimit:10;" d="M 406.776844 -9.920813 L 426.620594 -9.920813 L 426.620594 9.922937 L 406.776844 9.922937 Z M 406.776844 -9.920813 " transform="matrix(1,0,0,-1,36.313,119.212)"/>
<path style="fill-rule:nonzero;fill:rgb(79.998779%,79.998779%,79.998779%);fill-opacity:1;stroke-width:1.59404;stroke-linecap:butt;stroke-linejoin:miter;stroke:rgb(0%,0%,0%);stroke-opacity:1;stroke-miterlimit:10;" d="M 426.620594 -9.920813 L 446.464344 -9.920813 L 446.464344 9.922937 L 426.620594 9.922937 Z M 426.620594 -9.920813 " transform="matrix(1,0,0,-1,36.313,119.212)"/>
<path style="fill-rule:nonzero;fill:rgb(79.998779%,79.998779%,79.998779%);fill-opacity:1;stroke-width:1.59404;stroke-linecap:butt;stroke-linejoin:miter;stroke:rgb(0%,0%,0%);stroke-opacity:1;stroke-miterlimit:10;" d="M 446.464344 -9.920813 L 466.304188 -9.920813 L 466.304188 9.922937 L 446.464344 9.922937 Z M 446.464344 -9.920813 " transform="matrix(1,0,0,-1,36.313,119.212)"/>
<path style="fill-rule:nonzero;fill:rgb(79.998779%,79.998779%,79.998779%);fill-opacity:1;stroke-width:1.59404;stroke-linecap:butt;stroke-linejoin:miter;stroke:rgb(0%,0%,0%);stroke-opacity:1;stroke-miterlimit:10;" d="M 466.304188 -9.920813 L 486.147938 -9.920813 L 486.147938 9.922937 L 466.304188 9.922937 Z M 466.304188 -9.920813 " transform="matrix(1,0,0,-1,36.313,119.212)"/>
<path style="fill-rule:nonzero;fill:rgb(79.998779%,79.998779%,79.998779%);fill-opacity:1;stroke-width:1.59404;stroke-linecap:butt;stroke-linejoin:miter;stroke:rgb(0%,0%,0%);stroke-opacity:1;stroke-miterlimit:10;" d="M 486.147938 -9.920813 L 505.991688 -9.920813 L 505.991688 9.922937 L 486.147938 9.922937 Z M 486.147938 -9.920813 " transform="matrix(1,0,0,-1,36.313,119.212)"/>
<path style="fill-rule:nonzero;fill:rgb(79.998779%,79.998779%,79.998779%);fill-opacity:1;stroke-width:1.59404;stroke-linecap:butt;stroke-linejoin:miter;stroke:rgb(0%,0%,0%);stroke-opacity:1;stroke-miterlimit:10;" d="M 505.991688 -9.920813 L 525.835438 -9.920813 L 525.835438 9.922937 L 505.991688 9.922937 Z M 505.991688 -9.920813 " transform="matrix(1,0,0,-1,36.313,119.212)"/>
<path style="fill-rule:nonzero;fill:rgb(79.998779%,79.998779%,79.998779%);fill-opacity:1;stroke-width:1.59404;stroke-linecap:butt;stroke-linejoin:miter;stroke:rgb(0%,0%,0%);stroke-opacity:1;stroke-miterlimit:10;" d="M 525.835438 -9.920813 L 545.675281 -9.920813 L 545.675281 9.922937 L 525.835438 9.922937 Z M 525.835438 -9.920813 " transform="matrix(1,0,0,-1,36.313,119.212)"/>
<g clip-path="url(#clip1)" clip-rule="nonzero">
<path style="fill:none;stroke-width:1.59404;stroke-linecap:butt;stroke-linejoin:miter;stroke:rgb(0%,0%,0%);stroke-opacity:1;stroke-miterlimit:10;" d="M 393.604969 -63.205969 L 390.7495 -60.346594 L 387.890125 -57.491125 L 344.698719 -57.491125 L 341.839344 -60.346594 L 338.983875 -63.205969 L 338.983875 -111.952063 L 341.839344 -114.811438 L 344.698719 -117.666906 L 387.890125 -117.666906 L 390.7495 -114.811438 L 393.604969 -111.952063 Z M 393.604969 -63.205969 " transform="matrix(1,0,0,-1,36.313,119.212)"/>
</g>
<g style="fill:rgb(0%,0%,0%);fill-opacity:1;">
  <use xlink:href="#glyph1-1" x="389.783" y="191.247"/>
  <use xlink:href="#glyph1-2" x="395.276414" y="191.247"/>
  <use xlink:href="#glyph1-3" x="401.413019" y="191.247"/>
  <use xlink:href="#glyph1-4" x="407.951317" y="191.247"/>
</g>
<g style="fill:rgb(0%,0%,0%);fill-opacity:1;">
  <use xlink:href="#glyph1-3" x="391.862" y="203.202"/>
  <use xlink:href="#glyph1-5" x="398.400299" y="203.202"/>
  <use xlink:href="#glyph1-4" x="405.872299" y="203.202"/>
</g>
<g style="fill:rgb(0%,0%,0%);fill-opacity:1;">
  <use xlink:href="#glyph1-6" x="387.448" y="215.158"/>
  <use xlink:href="#glyph1-1" x="397.1616" y="215.158"/>
  <use xlink:href="#glyph1-7" x="402.655014" y="215.158"/>
  <use xlink:href="#glyph1-8" x="406.391014" y="215.158"/>
  <use xlink:href="#glyph1-2" x="411.621414" y="215.158"/>
</g>
<g style="fill:rgb(0%,0%,0%);fill-opacity:1;">
  <use xlink:href="#glyph1-9" x="388.793" y="227.113"/>
  <use xlink:href="#glyph1-2" x="396.265" y="227.113"/>
  <use xlink:href="#glyph1-3" x="402.401604" y="227.113"/>
  <use xlink:href="#glyph1-4" x="408.939903" y="227.113"/>
</g>
<g clip-path="url(#clip2)" clip-rule="nonzero">
<path style="fill:none;stroke-width:1.59404;stroke-linecap:butt;stroke-linejoin:miter;stroke:rgb(0%,0%,0%);stroke-opacity:1;stroke-miterlimit:10;" d="M 455.487781 -63.205969 L 452.632313 -60.346594 L 449.772938 -57.491125 L 406.581531 -57.491125 L 400.866688 -63.205969 L 400.866688 -111.952063 L 406.581531 -117.666906 L 449.772938 -117.666906 L 452.632313 -114.811438 L 455.487781 -111.952063 Z M 455.487781 -63.205969 " transform="matrix(1,0,0,-1,36.313,119.212)"/>
</g>
<g style="fill:rgb(0%,0%,0%);fill-opacity:1;">
  <use xlink:href="#glyph1-1" x="451.666" y="191.247"/>
  <use xlink:href="#glyph1-2" x="457.159414" y="191.247"/>
  <use xlink:href="#glyph1-3" x="463.296019" y="191.247"/>
  <use xlink:href="#glyph1-4" x="469.834317" y="191.247"/>
</g>
<g style="fill:rgb(0%,0%,0%);fill-opacity:1;">
  <use xlink:href="#glyph1-3" x="453.745" y="203.203"/>
  <use xlink:href="#glyph1-5" x="460.283299" y="203.203"/>
  <use xlink:href="#glyph1-4" x="467.755299" y="203.203"/>
</g>
<g style="fill:rgb(0%,0%,0%);fill-opacity:1;">
  <use xlink:href="#glyph1-6" x="449.331" y="215.158"/>
  <use xlink:href="#glyph1-1" x="459.0446" y="215.158"/>
  <use xlink:href="#glyph1-7" x="464.538014" y="215.158"/>
  <use xlink:href="#glyph1-8" x="468.274014" y="215.158"/>
  <use xlink:href="#glyph1-2" x="473.504414" y="215.158"/>
</g>
<g style="fill:rgb(0%,0%,0%);fill-opacity:1;">
  <use xlink:href="#glyph1-8" x="454.865" y="227.113"/>
  <use xlink:href="#glyph1-3" x="460.0954" y="227.113"/>
  <use xlink:href="#glyph1-7" x="466.633699" y="227.113"/>
  <use xlink:href="#glyph1-10" x="470.369699" y="227.113"/>
</g>
<path style="fill:none;stroke-width:1.59404;stroke-linecap:butt;stroke-linejoin:miter;stroke:rgb(0%,0%,0%);stroke-opacity:1;stroke-miterlimit:10;" d="M 366.292469 -56.69425 L 366.292469 -24.096594 " transform="matrix(1,0,0,-1,36.313,119.212)"/>
<path style="fill-rule:nonzero;fill:rgb(0%,0%,0%);fill-opacity:1;stroke-width:1.59404;stroke-linecap:butt;stroke-linejoin:miter;stroke:rgb(0%,0%,0%);stroke-opacity:1;stroke-miterlimit:10;" d="M 7.345822 0.00186125 C 6.443479 0.134674 2.478635 0.912017 -0.00183375 1.751861 L -0.00183375 -1.752045 C 2.478635 -0.908295 6.443479 -0.134858 7.345822 0.00186125 Z M 7.345822 0.00186125 " transform="matrix(0,-1,-1,0,402.60733,143.30676)"/>
<path style="fill:none;stroke-width:1.59404;stroke-linecap:butt;stroke-linejoin:miter;stroke:rgb(0%,0%,0%);stroke-opacity:1;stroke-miterlimit:10;" d="M 428.179188 -56.69425 L 377.03075 -18.69425 " transform="matrix(1,0,0,-1,36.313,119.212)"/>
<path style="fill-rule:nonzero;fill:rgb(0%,0%,0%);fill-opacity:1;stroke-width:1.59404;stroke-linecap:butt;stroke-linejoin:miter;stroke:rgb(0%,0%,0%);stroke-opacity:1;stroke-miterlimit:10;" d="M 7.344423 -0.000240629 C 6.44345 0.138233 2.478031 0.910184 -0.000292771 1.750384 L -0.00058322 -1.753676 C 2.477576 -0.910207 6.442208 -0.135211 7.344423 -0.000240629 Z M 7.344423 -0.000240629 " transform="matrix(-0.80269,-0.59634,-0.59634,0.80269,413.34437,137.90731)"/>
<path style="fill-rule:nonzero;fill:rgb(79.214478%,85.488892%,96.470642%);fill-opacity:1;stroke-width:1.59404;stroke-linecap:butt;stroke-linejoin:miter;stroke:rgb(0%,0%,0%);stroke-opacity:1;stroke-miterlimit:10;" d="M -33.208687 -6.743938 L 33.209281 -6.743938 L 33.209281 13.181844 L -33.208687 13.181844 Z M -33.208687 -6.743938 " transform="matrix(1,0,0,-1,146.154,22.967)"/>
<g style="fill:rgb(0%,0%,0%);fill-opacity:1;">
  <use xlink:href="#glyph2-1" x="116.266" y="22.967"/>
  <use xlink:href="#glyph2-2" x="125.232375" y="22.967"/>
  <use xlink:href="#glyph2-3" x="131.508837" y="22.967"/>
  <use xlink:href="#glyph2-2" x="139.354774" y="22.967"/>
  <use xlink:href="#glyph2-4" x="145.631237" y="22.967"/>
</g>
<path style="fill-rule:nonzero;fill:rgb(79.214478%,85.488892%,96.470642%);fill-opacity:1;stroke-width:1.59404;stroke-linecap:butt;stroke-linejoin:miter;stroke:rgb(0%,0%,0%);stroke-opacity:1;stroke-miterlimit:10;" d="M -33.207719 -6.743938 L 33.21025 -6.743938 L 33.21025 13.181844 L -33.207719 13.181844 Z M -33.207719 -6.743938 " transform="matrix(1,0,0,-1,212.571,22.967)"/>
<g style="fill:rgb(0%,0%,0%);fill-opacity:1;">
  <use xlink:href="#glyph1-11" x="182.683" y="22.967"/>
  <use xlink:href="#glyph1-12" x="188.6606" y="22.967"/>
  <use xlink:href="#glyph1-13" x="195.3854" y="22.967"/>
  <use xlink:href="#glyph1-13" x="206.5934" y="22.967"/>
  <use xlink:href="#glyph1-7" x="217.8014" y="22.967"/>
  <use xlink:href="#glyph1-8" x="221.5374" y="22.967"/>
  <use xlink:href="#glyph1-2" x="226.7678" y="22.967"/>
  <use xlink:href="#glyph1-4" x="232.904404" y="22.967"/>
</g>
<path style="fill-rule:nonzero;fill:rgb(79.214478%,85.488892%,96.470642%);fill-opacity:1;stroke-width:1.59404;stroke-linecap:butt;stroke-linejoin:miter;stroke:rgb(0%,0%,0%);stroke-opacity:1;stroke-miterlimit:10;" d="M -33.210656 -6.743938 L 33.207312 -6.743938 L 33.207312 13.181844 L -33.210656 13.181844 Z M -33.210656 -6.743938 " transform="matrix(1,0,0,-1,278.988,22.967)"/>
<g style="fill:rgb(0%,0%,0%);fill-opacity:1;">
  <use xlink:href="#glyph1-11" x="249.1" y="22.967"/>
  <use xlink:href="#glyph1-12" x="255.0776" y="22.967"/>
  <use xlink:href="#glyph1-13" x="261.8024" y="22.967"/>
  <use xlink:href="#glyph1-13" x="273.0104" y="22.967"/>
  <use xlink:href="#glyph1-7" x="284.2184" y="22.967"/>
  <use xlink:href="#glyph1-8" x="287.9544" y="22.967"/>
  <use xlink:href="#glyph1-14" x="293.1848" y="22.967"/>
</g>
<path style="fill-rule:nonzero;fill:rgb(79.214478%,85.488892%,96.470642%);fill-opacity:1;stroke-width:1.59404;stroke-linecap:butt;stroke-linejoin:miter;stroke:rgb(0%,0%,0%);stroke-opacity:1;stroke-miterlimit:10;" d="M -33.209688 -6.743938 L 33.208281 -6.743938 L 33.208281 13.181844 L -33.209688 13.181844 Z M -33.209688 -6.743938 " transform="matrix(1,0,0,-1,345.405,22.967)"/>
<g style="fill:rgb(0%,0%,0%);fill-opacity:1;">
  <use xlink:href="#glyph1-4" x="315.517" y="22.967"/>
  <use xlink:href="#glyph1-1" x="322.989" y="22.967"/>
  <use xlink:href="#glyph1-12" x="328.482414" y="22.967"/>
  <use xlink:href="#glyph1-15" x="335.207214" y="22.967"/>
  <use xlink:href="#glyph1-15" x="342.679214" y="22.967"/>
</g>
<g style="fill:rgb(0%,0%,0%);fill-opacity:1;">
  <use xlink:href="#glyph1-2" x="350.521826" y="22.967"/>
  <use xlink:href="#glyph1-4" x="356.65843" y="22.967"/>
</g>
<path style="fill-rule:nonzero;fill:rgb(79.214478%,85.488892%,96.470642%);fill-opacity:1;stroke-width:1.59404;stroke-linecap:butt;stroke-linejoin:miter;stroke:rgb(0%,0%,0%);stroke-opacity:1;stroke-miterlimit:10;" d="M -33.208719 -6.743938 L 33.20925 -6.743938 L 33.20925 13.181844 L -33.208719 13.181844 Z M -33.208719 -6.743938 " transform="matrix(1,0,0,-1,411.822,22.967)"/>
<g style="fill:rgb(0%,0%,0%);fill-opacity:1;">
  <use xlink:href="#glyph1-4" x="381.934" y="22.967"/>
  <use xlink:href="#glyph1-1" x="389.406" y="22.967"/>
  <use xlink:href="#glyph1-12" x="394.899414" y="22.967"/>
  <use xlink:href="#glyph1-15" x="401.624214" y="22.967"/>
  <use xlink:href="#glyph1-14" x="409.096214" y="22.967"/>
</g>
<path style="fill-rule:nonzero;fill:rgb(79.214478%,85.488892%,96.470642%);fill-opacity:1;stroke-width:1.59404;stroke-linecap:butt;stroke-linejoin:miter;stroke:rgb(0%,0%,0%);stroke-opacity:1;stroke-miterlimit:10;" d="M -33.20775 -6.743938 L 33.210219 -6.743938 L 33.210219 13.181844 L -33.20775 13.181844 Z M -33.20775 -6.743938 " transform="matrix(1,0,0,-1,478.239,22.967)"/>
<g style="fill:rgb(0%,0%,0%);fill-opacity:1;">
  <use xlink:href="#glyph1-2" x="448.351" y="22.967"/>
  <use xlink:href="#glyph1-1" x="454.487604" y="22.967"/>
  <use xlink:href="#glyph1-1" x="459.981019" y="22.967"/>
  <use xlink:href="#glyph1-12" x="465.474433" y="22.967"/>
  <use xlink:href="#glyph1-1" x="472.199233" y="22.967"/>
  <use xlink:href="#glyph1-14" x="477.692647" y="22.967"/>
</g>
<path style="fill-rule:nonzero;fill:rgb(79.214478%,85.488892%,96.470642%);fill-opacity:1;stroke-width:1.59404;stroke-linecap:butt;stroke-linejoin:miter;stroke:rgb(0%,0%,0%);stroke-opacity:1;stroke-miterlimit:10;" d="M -33.210688 -6.743938 L 33.207281 -6.743938 L 33.207281 13.181844 L -33.210688 13.181844 Z M -33.210688 -6.743938 " transform="matrix(1,0,0,-1,544.656,22.967)"/>
<g style="fill:rgb(0%,0%,0%);fill-opacity:1;">
  <use xlink:href="#glyph1-8" x="514.768" y="22.967"/>
  <use xlink:href="#glyph1-16" x="519.9984" y="22.967"/>
  <use xlink:href="#glyph1-14" x="527.096202" y="22.967"/>
</g>
<path style="fill-rule:nonzero;fill:rgb(79.214478%,85.488892%,96.470642%);fill-opacity:1;stroke-width:1.59404;stroke-linecap:butt;stroke-linejoin:miter;stroke:rgb(0%,0%,0%);stroke-opacity:1;stroke-miterlimit:10;" d="M -33.208688 -6.744719 L 33.209281 -6.744719 L 33.209281 13.181062 L -33.208688 13.181062 Z M -33.208688 -6.744719 " transform="matrix(1,0,0,-1,146.154,42.892)"/>
<g style="fill:rgb(0%,0%,0%);fill-opacity:1;">
  <use xlink:href="#glyph1-1" x="116.266" y="42.892"/>
  <use xlink:href="#glyph1-2" x="121.759414" y="42.892"/>
  <use xlink:href="#glyph1-3" x="127.896019" y="42.892"/>
  <use xlink:href="#glyph1-4" x="134.434317" y="42.892"/>
</g>
<path style="fill:none;stroke-width:1.59404;stroke-linecap:butt;stroke-linejoin:miter;stroke:rgb(0%,0%,0%);stroke-opacity:1;stroke-miterlimit:10;" d="M -33.207719 -6.744719 L 33.21025 -6.744719 L 33.21025 13.181062 L -33.207719 13.181062 Z M -33.207719 -6.744719 " transform="matrix(1,0,0,-1,212.571,42.892)"/>
<g style="fill:rgb(0%,0%,0%);fill-opacity:1;">
  <use xlink:href="#glyph0-3" x="182.683" y="42.892"/>
  <use xlink:href="#glyph0-4" x="188.411495" y="42.892"/>
  <use xlink:href="#glyph0-2" x="194.13999" y="42.892"/>
  <use xlink:href="#glyph0-5" x="199.868485" y="42.892"/>
  <use xlink:href="#glyph0-5" x="205.59698" y="42.892"/>
</g>
<path style="fill:none;stroke-width:1.59404;stroke-linecap:butt;stroke-linejoin:miter;stroke:rgb(0%,0%,0%);stroke-opacity:1;stroke-miterlimit:10;" d="M -33.210656 -6.744719 L 33.207312 -6.744719 L 33.207312 13.181062 L -33.210656 13.181062 Z M -33.210656 -6.744719 " transform="matrix(1,0,0,-1,278.988,42.892)"/>
<g style="fill:rgb(0%,0%,0%);fill-opacity:1;">
  <use xlink:href="#glyph0-6" x="249.1" y="42.892"/>
</g>
<path style="fill:none;stroke-width:1.59404;stroke-linecap:butt;stroke-linejoin:miter;stroke:rgb(0%,0%,0%);stroke-opacity:1;stroke-miterlimit:10;" d="M -33.209688 -6.744719 L 33.208281 -6.744719 L 33.208281 13.181062 L -33.209688 13.181062 Z M -33.209688 -6.744719 " transform="matrix(1,0,0,-1,345.405,42.892)"/>
<g style="fill:rgb(0%,0%,0%);fill-opacity:1;">
  <use xlink:href="#glyph0-3" x="315.517" y="42.892"/>
  <use xlink:href="#glyph0-3" x="321.245495" y="42.892"/>
</g>
<path style="fill:none;stroke-width:1.59404;stroke-linecap:butt;stroke-linejoin:miter;stroke:rgb(0%,0%,0%);stroke-opacity:1;stroke-miterlimit:10;" d="M -33.208719 -6.744719 L 33.20925 -6.744719 L 33.20925 13.181062 L -33.208719 13.181062 Z M -33.208719 -6.744719 " transform="matrix(1,0,0,-1,411.822,42.892)"/>
<g style="fill:rgb(0%,0%,0%);fill-opacity:1;">
  <use xlink:href="#glyph0-3" x="381.934" y="42.892"/>
</g>
<path style="fill:none;stroke-width:1.59404;stroke-linecap:butt;stroke-linejoin:miter;stroke:rgb(0%,0%,0%);stroke-opacity:1;stroke-miterlimit:10;" d="M -33.20775 -6.744719 L 33.210219 -6.744719 L 33.210219 13.181062 L -33.20775 13.181062 Z M -33.20775 -6.744719 " transform="matrix(1,0,0,-1,478.239,42.892)"/>
<g style="fill:rgb(0%,0%,0%);fill-opacity:1;">
  <use xlink:href="#glyph0-1" x="448.351" y="42.892"/>
</g>
<path style="fill:none;stroke-width:1.59404;stroke-linecap:butt;stroke-linejoin:miter;stroke:rgb(0%,0%,0%);stroke-opacity:1;stroke-miterlimit:10;" d="M -33.210688 -6.744719 L 33.207281 -6.744719 L 33.207281 13.181062 L -33.210688 13.181062 Z M -33.210688 -6.744719 " transform="matrix(1,0,0,-1,544.656,42.892)"/>
<g style="fill:rgb(0%,0%,0%);fill-opacity:1;">
  <use xlink:href="#glyph0-7" x="514.768" y="42.892"/>
</g>
<path style="fill-rule:nonzero;fill:rgb(79.214478%,85.488892%,96.470642%);fill-opacity:1;stroke-width:1.59404;stroke-linecap:butt;stroke-linejoin:miter;stroke:rgb(0%,0%,0%);stroke-opacity:1;stroke-miterlimit:10;" d="M -33.208688 -6.7455 L 33.209281 -6.7455 L 33.209281 13.180281 L -33.208688 13.180281 Z M -33.208688 -6.7455 " transform="matrix(1,0,0,-1,146.154,62.817)"/>
<g style="fill:rgb(0%,0%,0%);fill-opacity:1;">
  <use xlink:href="#glyph1-6" x="116.266" y="62.817"/>
  <use xlink:href="#glyph1-1" x="125.9796" y="62.817"/>
  <use xlink:href="#glyph1-7" x="131.473014" y="62.817"/>
  <use xlink:href="#glyph1-8" x="135.209014" y="62.817"/>
  <use xlink:href="#glyph1-2" x="140.439414" y="62.817"/>
</g>
<path style="fill:none;stroke-width:1.59404;stroke-linecap:butt;stroke-linejoin:miter;stroke:rgb(0%,0%,0%);stroke-opacity:1;stroke-miterlimit:10;" d="M -33.207719 -6.7455 L 33.21025 -6.7455 L 33.21025 13.180281 L -33.207719 13.180281 Z M -33.207719 -6.7455 " transform="matrix(1,0,0,-1,212.571,62.817)"/>
<g style="fill:rgb(0%,0%,0%);fill-opacity:1;">
  <use xlink:href="#glyph0-3" x="182.683" y="62.817"/>
  <use xlink:href="#glyph0-4" x="188.411495" y="62.817"/>
  <use xlink:href="#glyph0-2" x="194.13999" y="62.817"/>
  <use xlink:href="#glyph0-5" x="199.868485" y="62.817"/>
  <use xlink:href="#glyph0-5" x="205.59698" y="62.817"/>
</g>
<path style="fill:none;stroke-width:1.59404;stroke-linecap:butt;stroke-linejoin:miter;stroke:rgb(0%,0%,0%);stroke-opacity:1;stroke-miterlimit:10;" d="M -33.210656 -6.7455 L 33.207312 -6.7455 L 33.207312 13.180281 L -33.210656 13.180281 Z M -33.210656 -6.7455 " transform="matrix(1,0,0,-1,278.988,62.817)"/>
<g style="fill:rgb(0%,0%,0%);fill-opacity:1;">
  <use xlink:href="#glyph0-8" x="249.1" y="62.817"/>
</g>
<path style="fill:none;stroke-width:1.59404;stroke-linecap:butt;stroke-linejoin:miter;stroke:rgb(0%,0%,0%);stroke-opacity:1;stroke-miterlimit:10;" d="M -33.209688 -6.7455 L 33.208281 -6.7455 L 33.208281 13.180281 L -33.209688 13.180281 Z M -33.209688 -6.7455 " transform="matrix(1,0,0,-1,345.405,62.817)"/>
<g style="fill:rgb(0%,0%,0%);fill-opacity:1;">
  <use xlink:href="#glyph0-2" x="315.517" y="62.817"/>
</g>
<path style="fill:none;stroke-width:1.59404;stroke-linecap:butt;stroke-linejoin:miter;stroke:rgb(0%,0%,0%);stroke-opacity:1;stroke-miterlimit:10;" d="M -33.208719 -6.7455 L 33.20925 -6.7455 L 33.20925 13.180281 L -33.208719 13.180281 Z M -33.208719 -6.7455 " transform="matrix(1,0,0,-1,411.822,62.817)"/>
<g style="fill:rgb(0%,0%,0%);fill-opacity:1;">
  <use xlink:href="#glyph0-3" x="381.934" y="62.817"/>
</g>
<path style="fill:none;stroke-width:1.59404;stroke-linecap:butt;stroke-linejoin:miter;stroke:rgb(0%,0%,0%);stroke-opacity:1;stroke-miterlimit:10;" d="M -33.20775 -6.7455 L 33.210219 -6.7455 L 33.210219 13.180281 L -33.20775 13.180281 Z M -33.20775 -6.7455 " transform="matrix(1,0,0,-1,478.239,62.817)"/>
<g style="fill:rgb(0%,0%,0%);fill-opacity:1;">
  <use xlink:href="#glyph0-1" x="448.351" y="62.817"/>
</g>
<path style="fill:none;stroke-width:1.59404;stroke-linecap:butt;stroke-linejoin:miter;stroke:rgb(0%,0%,0%);stroke-opacity:1;stroke-miterlimit:10;" d="M -33.210688 -6.7455 L 33.207281 -6.7455 L 33.207281 13.180281 L -33.210688 13.180281 Z M -33.210688 -6.7455 " transform="matrix(1,0,0,-1,544.656,62.817)"/>
<g style="fill:rgb(0%,0%,0%);fill-opacity:1;">
  <use xlink:href="#glyph0-4" x="514.768" y="62.817"/>
</g>
</g>
</svg>
