<?xml version="1.0" encoding="UTF-8"?>
<svg xmlns="http://www.w3.org/2000/svg" xmlns:xlink="http://www.w3.org/1999/xlink" width="624.961pt" height="158.987pt" viewBox="0 0 624.961 158.987" version="1.1">
<defs>
<g>
<symbol overflow="visible" id="glyph0-0">
<path style="stroke:none;" d=""/>
</symbol>
<symbol overflow="visible" id="glyph0-1">
<path style="stroke:none;" d="M 5.28125 -3.1875 C 5.28125 -4.140625 5.265625 -6.53125 2.859375 -6.53125 C 0.453125 -6.53125 0.453125 -4.15625 0.453125 -3.1875 C 0.453125 -2.1875 0.453125 0.109375 2.859375 0.109375 C 5.25 0.109375 5.28125 -2.1875 5.28125 -3.1875 Z M 2.859375 -0.25 C 2.5 -0.25 1.9375 -0.46875 1.8125 -1.203125 C 1.71875 -1.71875 1.71875 -2.75 1.71875 -3.296875 C 1.71875 -4.015625 1.71875 -4.671875 1.796875 -5.1875 C 1.921875 -6.078125 2.625 -6.171875 2.859375 -6.171875 C 3.234375 -6.171875 3.640625 -5.984375 3.828125 -5.546875 C 4 -5.171875 4 -4.109375 4 -3.296875 C 4 -2.734375 4 -1.828125 3.921875 -1.3125 C 3.78125 -0.390625 3.15625 -0.25 2.859375 -0.25 Z M 2.859375 -0.25 "/>
</symbol>
<symbol overflow="visible" id="glyph0-2">
<path style="stroke:none;" d="M 3.53125 -6.203125 C 3.53125 -6.4375 3.53125 -6.53125 3.265625 -6.53125 C 3.15625 -6.53125 3.140625 -6.53125 3.046875 -6.453125 C 2.28125 -5.890625 1.25 -5.890625 1.046875 -5.890625 L 0.84375 -5.890625 L 0.84375 -5.421875 L 1.046875 -5.421875 C 1.203125 -5.421875 1.75 -5.4375 2.34375 -5.625 L 2.34375 -0.46875 L 0.953125 -0.46875 L 0.953125 0 C 1.390625 -0.03125 2.453125 -0.03125 2.9375 -0.03125 C 3.421875 -0.03125 4.484375 -0.03125 4.921875 0 L 4.921875 -0.46875 L 3.53125 -0.46875 Z M 3.53125 -6.203125 "/>
</symbol>
<symbol overflow="visible" id="glyph0-3">
<path style="stroke:none;" d="M 5.15625 -2 C 5.15625 -3.15625 4.359375 -4.078125 2.890625 -4.078125 C 2.609375 -4.078125 2.078125 -4.046875 1.609375 -3.734375 L 1.609375 -5.046875 C 1.890625 -5 2 -4.96875 2.328125 -4.96875 C 3.78125 -4.96875 4.703125 -6.09375 4.703125 -6.34375 C 4.703125 -6.421875 4.6875 -6.53125 4.5625 -6.53125 C 4.53125 -6.53125 4.53125 -6.53125 4.421875 -6.484375 C 3.84375 -6.265625 3.3125 -6.203125 2.890625 -6.203125 C 2.140625 -6.203125 1.609375 -6.40625 1.34375 -6.484375 C 1.25 -6.515625 1.25 -6.53125 1.21875 -6.53125 C 1.078125 -6.53125 1.078125 -6.421875 1.078125 -6.265625 L 1.078125 -3.34375 C 1.078125 -3.171875 1.078125 -3.046875 1.296875 -3.046875 C 1.421875 -3.046875 1.453125 -3.078125 1.515625 -3.15625 C 1.90625 -3.625 2.4375 -3.71875 2.84375 -3.71875 C 3.734375 -3.71875 3.734375 -2.84375 3.734375 -2.046875 C 3.734375 -1.3125 3.734375 -0.3125 2.546875 -0.3125 C 2.296875 -0.3125 1.671875 -0.375 1.25 -0.9375 C 1.609375 -0.953125 1.90625 -1.203125 1.90625 -1.609375 C 1.90625 -2.140625 1.46875 -2.28125 1.234375 -2.28125 C 1.09375 -2.28125 0.5625 -2.1875 0.5625 -1.578125 C 0.5625 -0.734375 1.34375 0.109375 2.578125 0.109375 C 4.171875 0.109375 5.15625 -0.78125 5.15625 -2 Z M 5.15625 -2 "/>
</symbol>
<symbol overflow="visible" id="glyph0-4">
<path style="stroke:none;" d="M 3 -6.703125 C 2.890625 -6.828125 2.875 -6.84375 2.671875 -6.84375 L 0.390625 -6.84375 L 0.390625 -6.375 L 1.46875 -6.375 L 1.46875 -0.75 C 1.46875 -0.53125 1.453125 -0.53125 1.171875 -0.5 C 0.9375 -0.46875 0.921875 -0.46875 0.640625 -0.46875 L 0.390625 -0.46875 L 0.390625 0 C 0.765625 -0.03125 1.328125 -0.03125 1.71875 -0.03125 C 2.140625 -0.03125 2.65625 -0.03125 3.078125 0 L 3.078125 -0.46875 L 2.828125 -0.46875 C 2.640625 -0.46875 2.46875 -0.484375 2.296875 -0.5 C 2 -0.53125 2 -0.53125 2 -0.75 L 2 -5.96875 L 6.953125 -0.125 C 7.0625 -0.015625 7.0625 0 7.234375 0 C 7.5 0 7.5 -0.09375 7.5 -0.3125 L 7.5 -6.078125 C 7.5 -6.296875 7.5 -6.3125 7.78125 -6.34375 C 8.03125 -6.375 8.046875 -6.375 8.328125 -6.375 L 8.578125 -6.375 L 8.578125 -6.84375 C 8.1875 -6.8125 7.625 -6.8125 7.234375 -6.8125 C 6.8125 -6.8125 6.296875 -6.8125 5.890625 -6.84375 L 5.890625 -6.375 L 6.140625 -6.375 C 6.3125 -6.375 6.484375 -6.359375 6.671875 -6.34375 C 6.953125 -6.3125 6.96875 -6.296875 6.96875 -6.078125 L 6.96875 -2.046875 Z M 3 -6.703125 "/>
</symbol>
<symbol overflow="visible" id="glyph0-5">
<path style="stroke:none;" d="M 2.234375 -4.484375 L 0.5 -4.40625 L 0.5 -3.9375 C 1.09375 -3.9375 1.15625 -3.9375 1.15625 -3.546875 L 1.15625 -0.46875 L 0.46875 -0.46875 L 0.46875 0 C 0.78125 -0.015625 1.265625 -0.03125 1.6875 -0.03125 C 1.984375 -0.03125 2.5 -0.015625 2.84375 0 L 2.84375 -0.46875 L 2.234375 -0.46875 Z M 2.328125 -6.15625 C 2.328125 -6.59375 1.96875 -6.921875 1.5625 -6.921875 C 1.125 -6.921875 0.78125 -6.578125 0.78125 -6.15625 C 0.78125 -5.71875 1.125 -5.375 1.5625 -5.375 C 1.96875 -5.375 2.328125 -5.71875 2.328125 -6.15625 Z M 2.328125 -6.15625 "/>
</symbol>
<symbol overflow="visible" id="glyph0-6">
<path style="stroke:none;" d="M 2.140625 -2.359375 L 2.140625 -6.921875 L 0.375 -6.84375 L 0.375 -6.375 C 0.984375 -6.375 1.0625 -6.375 1.0625 -5.984375 L 1.0625 -0.46875 L 0.375 -0.46875 L 0.375 0 C 0.734375 -0.015625 1.203125 -0.03125 1.5625 -0.03125 C 1.9375 -0.03125 2.40625 -0.015625 2.765625 0 L 2.765625 -0.46875 L 2.078125 -0.46875 L 2.078125 -1.734375 C 2.375 -1.96875 2.453125 -2.03125 2.65625 -2.15625 L 3.65625 -0.90625 C 3.75 -0.78125 3.90625 -0.59375 3.90625 -0.5625 C 3.90625 -0.46875 3.734375 -0.46875 3.59375 -0.46875 L 3.59375 0 C 3.890625 -0.015625 4.765625 -0.03125 4.8125 -0.03125 C 5.171875 -0.03125 5.515625 -0.015625 5.859375 0 L 5.859375 -0.46875 L 5.6875 -0.46875 C 5.25 -0.46875 5.21875 -0.515625 5.09375 -0.671875 L 3.40625 -2.765625 L 4.703125 -3.78125 C 4.84375 -3.890625 4.9375 -3.953125 5.609375 -3.953125 L 5.609375 -4.421875 C 5.328125 -4.390625 5.078125 -4.390625 4.828125 -4.390625 C 4.5625 -4.390625 3.90625 -4.421875 3.671875 -4.421875 L 3.671875 -3.953125 C 3.90625 -3.953125 3.9375 -3.921875 4.015625 -3.84375 Z M 2.140625 -2.359375 "/>
</symbol>
<symbol overflow="visible" id="glyph0-7">
<path style="stroke:none;" d="M 3.734375 -0.765625 C 3.734375 -0.453125 3.734375 0 4.765625 0 L 5.25 0 C 5.4375 0 5.5625 0 5.5625 -0.234375 C 5.5625 -0.46875 5.4375 -0.46875 5.296875 -0.46875 C 4.6875 -0.484375 4.6875 -0.609375 4.6875 -0.84375 L 4.6875 -2.984375 C 4.6875 -3.875 3.984375 -4.515625 2.5 -4.515625 C 1.9375 -4.515625 0.71875 -4.46875 0.71875 -3.59375 C 0.71875 -3.15625 1.0625 -2.96875 1.328125 -2.96875 C 1.640625 -2.96875 1.96875 -3.1875 1.96875 -3.59375 C 1.96875 -3.890625 1.78125 -4.0625 1.75 -4.09375 C 2.03125 -4.140625 2.34375 -4.15625 2.46875 -4.15625 C 3.203125 -4.15625 3.5625 -3.734375 3.5625 -2.984375 L 3.5625 -2.640625 C 2.84375 -2.609375 0.3125 -2.515625 0.3125 -1.078125 C 0.3125 -0.125 1.5625 0.0625 2.25 0.0625 C 3.046875 0.0625 3.515625 -0.34375 3.734375 -0.765625 Z M 3.5625 -2.328125 L 3.5625 -1.390625 C 3.5625 -0.421875 2.640625 -0.296875 2.390625 -0.296875 C 1.890625 -0.296875 1.484375 -0.640625 1.484375 -1.09375 C 1.484375 -2.15625 3.0625 -2.296875 3.5625 -2.328125 Z M 3.5625 -2.328125 "/>
</symbol>
<symbol overflow="visible" id="glyph0-8">
<path style="stroke:none;" d="M 2.03125 -3.359375 L 2.03125 -4.484375 L 0.375 -4.40625 L 0.375 -3.9375 C 0.984375 -3.9375 1.0625 -3.9375 1.0625 -3.546875 L 1.0625 -0.46875 L 0.375 -0.46875 L 0.375 0 C 0.71875 -0.015625 1.171875 -0.03125 1.625 -0.03125 C 2 -0.03125 2.640625 -0.03125 3 0 L 3 -0.46875 L 2.140625 -0.46875 L 2.140625 -2.21875 C 2.140625 -2.90625 2.375 -4.125 3.375 -4.125 C 3.375 -4.109375 3.1875 -3.953125 3.1875 -3.671875 C 3.1875 -3.265625 3.515625 -3.0625 3.796875 -3.0625 C 4.09375 -3.0625 4.40625 -3.265625 4.40625 -3.671875 C 4.40625 -4.203125 3.875 -4.484375 3.34375 -4.484375 C 2.65625 -4.484375 2.25 -3.984375 2.03125 -3.359375 Z M 2.03125 -3.359375 "/>
</symbol>
<symbol overflow="visible" id="glyph0-9">
<path style="stroke:none;" d="M 5.40625 -2.171875 C 5.40625 -3.515625 4.484375 -4.515625 2.859375 -4.515625 C 1.21875 -4.515625 0.3125 -3.5 0.3125 -2.171875 C 0.3125 -0.9375 1.203125 0.0625 2.859375 0.0625 C 4.53125 0.0625 5.40625 -0.953125 5.40625 -2.171875 Z M 2.859375 -0.34375 C 1.59375 -0.34375 1.59375 -1.421875 1.59375 -2.28125 C 1.59375 -2.734375 1.59375 -3.234375 1.765625 -3.578125 C 1.953125 -3.953125 2.375 -4.15625 2.859375 -4.15625 C 3.28125 -4.15625 3.703125 -4 3.921875 -3.65625 C 4.125 -3.3125 4.125 -2.765625 4.125 -2.28125 C 4.125 -1.421875 4.125 -0.34375 2.859375 -0.34375 Z M 2.859375 -0.34375 "/>
</symbol>
<symbol overflow="visible" id="glyph0-10">
<path style="stroke:none;" d="M 3.59375 -4.0625 C 3.40625 -3.890625 3.390625 -3.6875 3.390625 -3.59375 C 3.390625 -3.15625 3.734375 -2.96875 4 -2.96875 C 4.3125 -2.96875 4.640625 -3.1875 4.640625 -3.59375 C 4.640625 -4.453125 3.484375 -4.515625 2.90625 -4.515625 C 1.109375 -4.515625 0.375 -3.375 0.375 -2.21875 C 0.375 -0.890625 1.3125 0.0625 2.84375 0.0625 C 4.46875 0.0625 4.765625 -1.09375 4.765625 -1.171875 C 4.765625 -1.3125 4.625 -1.3125 4.53125 -1.3125 C 4.34375 -1.3125 4.34375 -1.28125 4.28125 -1.15625 C 4.03125 -0.53125 3.546875 -0.34375 3.046875 -0.34375 C 1.65625 -0.34375 1.65625 -1.796875 1.65625 -2.265625 C 1.65625 -2.828125 1.65625 -4.109375 2.9375 -4.109375 C 3.296875 -4.109375 3.453125 -4.09375 3.59375 -4.0625 Z M 3.59375 -4.0625 "/>
</symbol>
<symbol overflow="visible" id="glyph0-11">
<path style="stroke:none;" d="M 2.109375 -2.9375 C 1.734375 -3 1.09375 -3.109375 1.09375 -3.578125 C 1.09375 -4.203125 2.015625 -4.203125 2.203125 -4.203125 C 2.953125 -4.203125 3.328125 -3.90625 3.375 -3.359375 C 3.390625 -3.203125 3.40625 -3.15625 3.609375 -3.15625 C 3.84375 -3.15625 3.84375 -3.203125 3.84375 -3.4375 L 3.84375 -4.234375 C 3.84375 -4.421875 3.84375 -4.515625 3.671875 -4.515625 C 3.625 -4.515625 3.609375 -4.515625 3.21875 -4.328125 C 2.953125 -4.453125 2.609375 -4.515625 2.21875 -4.515625 C 1.90625 -4.515625 0.375 -4.515625 0.375 -3.203125 C 0.375 -2.8125 0.578125 -2.546875 0.78125 -2.375 C 1.171875 -2.03125 1.5625 -1.96875 2.328125 -1.828125 C 2.6875 -1.765625 3.421875 -1.640625 3.421875 -1.046875 C 3.421875 -0.296875 2.515625 -0.296875 2.296875 -0.296875 C 1.234375 -0.296875 0.984375 -1.03125 0.859375 -1.453125 C 0.8125 -1.59375 0.75 -1.59375 0.625 -1.59375 C 0.375 -1.59375 0.375 -1.53125 0.375 -1.3125 L 0.375 -0.21875 C 0.375 -0.03125 0.375 0.0625 0.5625 0.0625 C 0.625 0.0625 0.640625 0.0625 0.859375 -0.09375 C 0.875 -0.09375 1.09375 -0.234375 1.109375 -0.265625 C 1.578125 0.0625 2.09375 0.0625 2.296875 0.0625 C 2.609375 0.0625 4.140625 0.0625 4.140625 -1.390625 C 4.140625 -1.828125 3.9375 -2.171875 3.59375 -2.453125 C 3.203125 -2.734375 2.875 -2.796875 2.109375 -2.9375 Z M 2.109375 -2.9375 "/>
</symbol>
<symbol overflow="visible" id="glyph1-0">
<path style="stroke:none;" d=""/>
</symbol>
<symbol overflow="visible" id="glyph1-1">
<path style="stroke:none;" d="M 8.609375 -4.5 C 8.6875 -4.703125 8.71875 -4.796875 9.421875 -4.796875 L 9.421875 -5.3125 C 9.078125 -5.28125 8.921875 -5.28125 8.484375 -5.28125 C 8 -5.28125 7.84375 -5.28125 7.40625 -5.3125 L 7.40625 -4.796875 C 7.515625 -4.796875 8.109375 -4.796875 8.109375 -4.640625 C 8.109375 -4.625 8.109375 -4.609375 8.0625 -4.5 L 6.796875 -1.390625 L 5.421875 -4.796875 L 6.109375 -4.796875 L 6.109375 -5.3125 C 5.828125 -5.28125 5.109375 -5.28125 4.796875 -5.28125 C 4.1875 -5.28125 4.15625 -5.28125 3.5625 -5.3125 L 3.5625 -4.796875 L 4.265625 -4.796875 C 4.296875 -4.703125 4.359375 -4.546875 4.40625 -4.4375 C 4.453125 -4.359375 4.5625 -4.078125 4.5625 -4.015625 C 4.5625 -4 4.53125 -3.90625 4.515625 -3.875 L 3.609375 -1.609375 L 2.3125 -4.796875 L 3 -4.796875 L 3 -5.3125 C 2.71875 -5.28125 1.90625 -5.28125 1.59375 -5.28125 C 1.203125 -5.28125 0.640625 -5.28125 0.28125 -5.3125 L 0.28125 -4.796875 L 0.984375 -4.796875 L 2.8125 -0.234375 C 2.890625 -0.03125 2.9375 0.0625 3.203125 0.0625 C 3.328125 0.0625 3.484375 0.0625 3.578125 -0.171875 L 4.84375 -3.34375 L 6.109375 -0.203125 C 6.21875 0.0625 6.34375 0.0625 6.484375 0.0625 C 6.75 0.0625 6.796875 -0.015625 6.875 -0.234375 Z M 8.609375 -4.5 "/>
</symbol>
<symbol overflow="visible" id="glyph1-2">
<path style="stroke:none;" d="M 2.484375 -2.6875 C 2.484375 -3.078125 2.5625 -4.984375 3.96875 -4.984375 C 3.796875 -4.859375 3.71875 -4.65625 3.71875 -4.4375 C 3.71875 -3.9375 4.109375 -3.734375 4.40625 -3.734375 C 4.703125 -3.734375 5.109375 -3.9375 5.109375 -4.4375 C 5.109375 -5.046875 4.484375 -5.375 3.90625 -5.375 C 2.96875 -5.375 2.5625 -4.546875 2.390625 -4.046875 L 2.375 -4.046875 L 2.375 -5.375 L 0.421875 -5.28125 L 0.421875 -4.765625 C 1.15625 -4.765625 1.25 -4.765625 1.25 -4.296875 L 1.25 -0.515625 L 0.421875 -0.515625 L 0.421875 0 C 0.6875 -0.03125 1.59375 -0.03125 1.921875 -0.03125 C 2.265625 -0.03125 3.234375 -0.03125 3.53125 0 L 3.53125 -0.515625 L 2.484375 -0.515625 Z M 2.484375 -2.6875 "/>
</symbol>
<symbol overflow="visible" id="glyph1-3">
<path style="stroke:none;" d="M 2.671875 -7.453125 C 2.671875 -7.9375 2.265625 -8.3125 1.8125 -8.3125 C 1.3125 -8.3125 0.9375 -7.90625 0.9375 -7.453125 C 0.9375 -7 1.3125 -6.59375 1.8125 -6.59375 C 2.265625 -6.59375 2.671875 -6.953125 2.671875 -7.453125 Z M 0.5625 -5.28125 L 0.5625 -4.765625 C 1.265625 -4.765625 1.34375 -4.765625 1.34375 -4.296875 L 1.34375 -0.515625 L 0.53125 -0.515625 L 0.53125 0 C 0.796875 -0.03125 1.625 -0.03125 1.953125 -0.03125 C 2.28125 -0.03125 3.046875 -0.03125 3.328125 0 L 3.328125 -0.515625 L 2.59375 -0.515625 L 2.59375 -5.375 Z M 0.5625 -5.28125 "/>
</symbol>
<symbol overflow="visible" id="glyph1-4">
<path style="stroke:none;" d="M 2.515625 -4.796875 L 4.25 -4.796875 L 4.25 -5.3125 L 2.515625 -5.3125 L 2.515625 -7.59375 L 2.015625 -7.59375 C 2.015625 -6.40625 1.4375 -5.21875 0.25 -5.1875 L 0.25 -4.796875 L 1.21875 -4.796875 L 1.21875 -1.46875 C 1.21875 -0.203125 2.203125 0.078125 3.0625 0.078125 C 3.9375 0.078125 4.46875 -0.59375 4.46875 -1.484375 L 4.46875 -2.109375 L 3.96875 -2.109375 L 3.96875 -1.5 C 3.96875 -0.703125 3.609375 -0.359375 3.234375 -0.359375 C 2.515625 -0.359375 2.515625 -1.15625 2.515625 -1.4375 Z M 2.515625 -4.796875 "/>
</symbol>
<symbol overflow="visible" id="glyph1-5">
<path style="stroke:none;" d="M 5.40625 -2.640625 C 5.671875 -2.640625 5.75 -2.640625 5.75 -2.9375 C 5.75 -3.296875 5.671875 -4.203125 5.109375 -4.75 C 4.609375 -5.265625 3.9375 -5.421875 3.25 -5.421875 C 1.390625 -5.421875 0.375 -4.203125 0.375 -2.6875 C 0.375 -1.015625 1.609375 0.078125 3.40625 0.078125 C 5.21875 0.078125 5.75 -1.1875 5.75 -1.40625 C 5.75 -1.578125 5.5625 -1.578125 5.5 -1.578125 C 5.3125 -1.578125 5.296875 -1.546875 5.21875 -1.390625 C 4.90625 -0.609375 4.125 -0.359375 3.546875 -0.359375 C 1.8125 -0.359375 1.8125 -1.96875 1.8125 -2.640625 Z M 1.8125 -2.984375 C 1.828125 -3.484375 1.84375 -3.9375 2.09375 -4.375 C 2.3125 -4.75 2.734375 -5.015625 3.25 -5.015625 C 4.53125 -5.015625 4.640625 -3.578125 4.65625 -2.984375 Z M 1.8125 -2.984375 "/>
</symbol>
<symbol overflow="visible" id="glyph1-6">
<path style="stroke:none;" d="M 4.03125 -2.953125 L 5.421875 -4.546875 C 5.546875 -4.703125 5.65625 -4.796875 6.640625 -4.796875 L 6.640625 -5.3125 C 5.96875 -5.28125 5.953125 -5.28125 5.546875 -5.28125 C 5.203125 -5.28125 4.6875 -5.28125 4.34375 -5.3125 L 4.34375 -4.796875 C 4.578125 -4.796875 4.828125 -4.734375 4.828125 -4.65625 C 4.828125 -4.625 4.765625 -4.546875 4.75 -4.515625 L 3.703125 -3.34375 L 2.515625 -4.796875 L 3.03125 -4.796875 L 3.03125 -5.3125 C 2.75 -5.28125 1.9375 -5.28125 1.609375 -5.28125 C 1.25 -5.28125 0.609375 -5.28125 0.28125 -5.3125 L 0.28125 -4.796875 L 1.125 -4.796875 L 2.984375 -2.515625 L 1.4375 -0.765625 C 1.296875 -0.59375 1.203125 -0.515625 0.21875 -0.515625 L 0.21875 0 C 0.9375 -0.03125 0.953125 -0.03125 1.328125 -0.03125 C 1.671875 -0.03125 2.171875 -0.03125 2.515625 0 L 2.515625 -0.515625 C 2.28125 -0.515625 2.03125 -0.578125 2.03125 -0.65625 C 2.03125 -0.671875 2.03125 -0.6875 2.109375 -0.78125 L 3.3125 -2.125 L 4.640625 -0.515625 L 4.140625 -0.515625 L 4.140625 0 C 4.421875 -0.03125 5.21875 -0.03125 5.5625 -0.03125 C 5.921875 -0.03125 6.546875 -0.03125 6.890625 0 L 6.890625 -0.515625 L 6.046875 -0.515625 Z M 4.03125 -2.953125 "/>
</symbol>
<symbol overflow="visible" id="glyph1-7">
<path style="stroke:none;" d="M 6.34375 -3.65625 C 6.34375 -4.796875 5.859375 -5.375 4.546875 -5.375 C 3.328125 -5.375 2.75 -4.53125 2.578125 -4.171875 L 2.5625 -4.171875 L 2.5625 -8.296875 L 0.5 -8.203125 L 0.5 -7.6875 C 1.25 -7.6875 1.328125 -7.6875 1.328125 -7.21875 L 1.328125 -0.515625 L 0.5 -0.515625 L 0.5 0 C 0.78125 -0.03125 1.640625 -0.03125 1.96875 -0.03125 C 2.3125 -0.03125 3.171875 -0.03125 3.453125 0 L 3.453125 -0.515625 L 2.625 -0.515625 L 2.625 -3.0625 C 2.625 -4.34375 3.578125 -4.984375 4.34375 -4.984375 C 4.796875 -4.984375 5.046875 -4.703125 5.046875 -3.796875 L 5.046875 -0.515625 L 4.21875 -0.515625 L 4.21875 0 C 4.5 -0.03125 5.359375 -0.03125 5.6875 -0.03125 C 6.03125 -0.03125 6.890625 -0.03125 7.171875 0 L 7.171875 -0.515625 L 6.34375 -0.515625 Z M 6.34375 -3.65625 "/>
</symbol>
<symbol overflow="visible" id="glyph1-8">
<path style="stroke:none;" d="M 5.5 -3.578125 C 5.5 -4.671875 4.625 -5.421875 2.9375 -5.421875 C 2.265625 -5.421875 0.859375 -5.359375 0.859375 -4.34375 C 0.859375 -3.84375 1.25 -3.640625 1.5625 -3.640625 C 1.921875 -3.640625 2.265625 -3.890625 2.265625 -4.34375 C 2.265625 -4.5625 2.1875 -4.78125 1.984375 -4.90625 C 2.375 -5.015625 2.671875 -5.015625 2.890625 -5.015625 C 3.703125 -5.015625 4.203125 -4.5625 4.203125 -3.578125 L 4.203125 -3.109375 C 2.3125 -3.109375 0.40625 -2.578125 0.40625 -1.25 C 0.40625 -0.171875 1.796875 0.078125 2.625 0.078125 C 3.53125 0.078125 4.125 -0.4375 4.359375 -0.953125 C 4.359375 -0.515625 4.359375 0 5.5625 0 L 6.1875 0 C 6.4375 0 6.53125 0 6.53125 -0.265625 C 6.53125 -0.515625 6.421875 -0.515625 6.25 -0.515625 C 5.5 -0.53125 5.5 -0.71875 5.5 -0.984375 Z M 4.203125 -1.65625 C 4.203125 -0.53125 3.1875 -0.328125 2.8125 -0.328125 C 2.21875 -0.328125 1.734375 -0.71875 1.734375 -1.265625 C 1.734375 -2.359375 3.03125 -2.71875 4.203125 -2.78125 Z M 4.203125 -1.65625 "/>
</symbol>
<symbol overflow="visible" id="glyph1-9">
<path style="stroke:none;" d="M 4.140625 -8.203125 L 4.140625 -7.6875 C 4.890625 -7.6875 4.96875 -7.6875 4.96875 -7.21875 L 4.96875 -4.8125 C 4.703125 -5.03125 4.1875 -5.375 3.359375 -5.375 C 1.65625 -5.375 0.453125 -4.328125 0.453125 -2.65625 C 0.453125 -0.9375 1.640625 0.078125 3.234375 0.078125 C 3.890625 0.078125 4.453125 -0.15625 4.90625 -0.546875 L 4.90625 0.078125 L 7.046875 0 L 7.046875 -0.515625 C 6.296875 -0.515625 6.21875 -0.515625 6.21875 -0.984375 L 6.21875 -8.296875 Z M 4.90625 -1.203125 C 4.40625 -0.484375 3.796875 -0.328125 3.375 -0.328125 C 1.890625 -0.328125 1.890625 -1.84375 1.890625 -2.625 C 1.890625 -3.1875 1.890625 -3.796875 2.15625 -4.25 C 2.515625 -4.90625 3.234375 -4.984375 3.5 -4.984375 C 4 -4.984375 4.515625 -4.765625 4.90625 -4.25 Z M 4.90625 -1.203125 "/>
</symbol>
<symbol overflow="visible" id="glyph1-10">
<path style="stroke:none;" d="M 2.59375 -8.296875 L 0.53125 -8.203125 L 0.53125 -7.6875 C 1.265625 -7.6875 1.34375 -7.6875 1.34375 -7.21875 L 1.34375 -0.515625 L 0.53125 -0.515625 L 0.53125 0 C 0.796875 -0.03125 1.65625 -0.03125 1.96875 -0.03125 C 2.296875 -0.03125 3.140625 -0.03125 3.421875 0 L 3.421875 -0.515625 L 2.59375 -0.515625 Z M 2.59375 -8.296875 "/>
</symbol>
<symbol overflow="visible" id="glyph2-0">
<path style="stroke:none;" d=""/>
</symbol>
<symbol overflow="visible" id="glyph2-1">
<path style="stroke:none;" d="M 15 -8.875 C 15.109375 -9.140625 15.125 -9.21875 16.34375 -9.21875 L 16.34375 -9.84375 C 15.625 -9.8125 15.59375 -9.8125 14.78125 -9.8125 C 14.359375 -9.8125 13.3125 -9.8125 12.96875 -9.84375 L 12.96875 -9.21875 C 13.140625 -9.21875 14.40625 -9.21875 14.40625 -9.015625 C 14.40625 -9.015625 14.40625 -8.984375 14.34375 -8.84375 L 11.9375 -2.453125 L 9.359375 -9.21875 L 10.734375 -9.21875 L 10.734375 -9.84375 C 10.265625 -9.8125 8.9375 -9.8125 8.390625 -9.8125 C 7.953125 -9.8125 6.5625 -9.8125 6.203125 -9.84375 L 6.203125 -9.21875 L 7.421875 -9.21875 L 8 -7.671875 L 6.03125 -2.453125 L 3.484375 -9.21875 L 4.828125 -9.21875 L 4.828125 -9.84375 C 4.421875 -9.8125 3.015625 -9.8125 2.5 -9.8125 C 2.03125 -9.8125 0.671875 -9.8125 0.3125 -9.84375 L 0.3125 -9.21875 L 1.515625 -9.21875 L 4.9375 -0.21875 C 5.015625 0.03125 5.0625 0.125 5.375 0.125 C 5.6875 0.125 5.734375 0.03125 5.828125 -0.203125 L 8.3125 -6.8125 L 10.828125 -0.203125 C 10.921875 0.03125 10.953125 0.125 11.28125 0.125 C 11.546875 0.125 11.625 0.078125 11.71875 -0.203125 Z M 15 -8.875 "/>
</symbol>
<symbol overflow="visible" id="glyph2-2">
<path style="stroke:none;" d="M 2.984375 -3.234375 C 2.984375 -3.703125 3.078125 -5.984375 4.765625 -5.984375 C 4.5625 -5.828125 4.453125 -5.578125 4.453125 -5.328125 C 4.453125 -4.734375 4.9375 -4.484375 5.296875 -4.484375 C 5.65625 -4.484375 6.125 -4.734375 6.125 -5.328125 C 6.125 -6.046875 5.375 -6.453125 4.6875 -6.453125 C 3.5625 -6.453125 3.0625 -5.46875 2.875 -4.859375 L 2.859375 -4.859375 L 2.859375 -6.453125 L 0.5 -6.34375 L 0.5 -5.71875 C 1.390625 -5.71875 1.484375 -5.71875 1.484375 -5.15625 L 1.484375 -0.609375 L 0.5 -0.609375 L 0.5 0 C 0.828125 -0.03125 1.90625 -0.03125 2.3125 -0.03125 C 2.71875 -0.03125 3.890625 -0.03125 4.234375 0 L 4.234375 -0.609375 L 2.984375 -0.609375 Z M 2.984375 -3.234375 "/>
</symbol>
<symbol overflow="visible" id="glyph2-3">
<path style="stroke:none;" d="M 3.203125 -8.9375 C 3.203125 -9.53125 2.71875 -9.96875 2.171875 -9.96875 C 1.578125 -9.96875 1.140625 -9.484375 1.140625 -8.9375 C 1.140625 -8.390625 1.578125 -7.90625 2.171875 -7.90625 C 2.71875 -7.90625 3.203125 -8.34375 3.203125 -8.9375 Z M 0.671875 -6.34375 L 0.671875 -5.71875 C 1.515625 -5.71875 1.625 -5.71875 1.625 -5.15625 L 1.625 -0.609375 L 0.625 -0.609375 L 0.625 0 C 0.96875 -0.03125 1.953125 -0.03125 2.34375 -0.03125 C 2.734375 -0.03125 3.65625 -0.03125 4 0 L 4 -0.609375 L 3.109375 -0.609375 L 3.109375 -6.453125 Z M 0.671875 -6.34375 "/>
</symbol>
<symbol overflow="visible" id="glyph2-4">
<path style="stroke:none;" d="M 3.03125 -5.75 L 5.09375 -5.75 L 5.09375 -6.375 L 3.03125 -6.375 L 3.03125 -9.109375 L 2.421875 -9.109375 C 2.40625 -7.6875 1.71875 -6.265625 0.296875 -6.21875 L 0.296875 -5.75 L 1.46875 -5.75 L 1.46875 -1.765625 C 1.46875 -0.25 2.640625 0.09375 3.671875 0.09375 C 4.734375 0.09375 5.359375 -0.71875 5.359375 -1.78125 L 5.359375 -2.53125 L 4.765625 -2.53125 L 4.765625 -1.796875 C 4.765625 -0.84375 4.328125 -0.4375 3.890625 -0.4375 C 3.03125 -0.4375 3.03125 -1.390625 3.03125 -1.71875 Z M 3.03125 -5.75 "/>
</symbol>
<symbol overflow="visible" id="glyph2-5">
<path style="stroke:none;" d="M 6.484375 -3.171875 C 6.8125 -3.171875 6.90625 -3.171875 6.90625 -3.53125 C 6.90625 -3.953125 6.796875 -5.03125 6.140625 -5.703125 C 5.53125 -6.3125 4.734375 -6.5 3.90625 -6.5 C 1.65625 -6.5 0.4375 -5.03125 0.4375 -3.234375 C 0.4375 -1.21875 1.921875 0.09375 4.09375 0.09375 C 6.25 0.09375 6.90625 -1.4375 6.90625 -1.671875 C 6.90625 -1.890625 6.6875 -1.890625 6.59375 -1.890625 C 6.375 -1.890625 6.359375 -1.84375 6.265625 -1.65625 C 5.890625 -0.734375 4.953125 -0.4375 4.265625 -0.4375 C 2.1875 -0.4375 2.171875 -2.359375 2.171875 -3.171875 Z M 2.171875 -3.578125 C 2.1875 -4.171875 2.203125 -4.734375 2.515625 -5.25 C 2.78125 -5.703125 3.28125 -6.03125 3.90625 -6.03125 C 5.4375 -6.03125 5.5625 -4.296875 5.578125 -3.578125 Z M 2.171875 -3.578125 "/>
</symbol>
<symbol overflow="visible" id="glyph2-6">
<path style="stroke:none;" d="M 4.828125 -3.546875 L 6.5 -5.453125 C 6.65625 -5.640625 6.78125 -5.75 7.96875 -5.75 L 7.96875 -6.375 C 7.171875 -6.34375 7.140625 -6.34375 6.65625 -6.34375 C 6.234375 -6.34375 5.625 -6.34375 5.21875 -6.375 L 5.21875 -5.75 C 5.5 -5.75 5.796875 -5.6875 5.796875 -5.578125 C 5.796875 -5.546875 5.71875 -5.453125 5.6875 -5.421875 L 4.453125 -4.015625 L 3.03125 -5.75 L 3.625 -5.75 L 3.625 -6.375 C 3.296875 -6.34375 2.328125 -6.34375 1.9375 -6.34375 C 1.5 -6.34375 0.734375 -6.34375 0.328125 -6.375 L 0.328125 -5.75 L 1.34375 -5.75 L 3.578125 -3.03125 L 1.71875 -0.921875 C 1.546875 -0.71875 1.453125 -0.609375 0.265625 -0.609375 L 0.265625 0 C 1.125 -0.03125 1.140625 -0.03125 1.59375 -0.03125 C 2.015625 -0.03125 2.609375 -0.03125 3.015625 0 L 3.015625 -0.609375 C 2.734375 -0.609375 2.4375 -0.6875 2.4375 -0.78125 C 2.4375 -0.796875 2.4375 -0.8125 2.53125 -0.9375 L 3.96875 -2.546875 L 5.5625 -0.609375 L 4.96875 -0.609375 L 4.96875 0 C 5.3125 -0.03125 6.265625 -0.03125 6.671875 -0.03125 C 7.09375 -0.03125 7.859375 -0.03125 8.265625 0 L 8.265625 -0.609375 L 7.265625 -0.609375 Z M 4.828125 -3.546875 "/>
</symbol>
<symbol overflow="visible" id="glyph2-7">
<path style="stroke:none;" d="M 8.34375 -1.625 L 11.96875 -1.625 C 12.15625 -1.625 12.53125 -1.625 12.53125 -2.015625 C 12.53125 -2.40625 12.15625 -2.40625 11.953125 -2.40625 L 8.59375 -2.40625 L 9.296875 -4.75 L 11.953125 -4.75 C 12.15625 -4.75 12.53125 -4.75 12.53125 -5.15625 C 12.53125 -5.53125 12.15625 -5.53125 11.96875 -5.53125 L 9.546875 -5.53125 L 10.671875 -9.296875 C 10.75 -9.515625 10.75 -9.53125 10.75 -9.5625 C 10.75 -9.75 10.59375 -9.953125 10.34375 -9.953125 C 10.0625 -9.953125 10 -9.734375 9.9375 -9.546875 L 8.71875 -5.53125 L 5.90625 -5.53125 L 7.03125 -9.296875 C 7.09375 -9.515625 7.09375 -9.53125 7.09375 -9.5625 C 7.09375 -9.75 6.953125 -9.953125 6.703125 -9.953125 C 6.40625 -9.953125 6.359375 -9.734375 6.296875 -9.546875 L 5.078125 -5.53125 L 1.46875 -5.53125 C 1.28125 -5.53125 0.890625 -5.53125 0.890625 -5.15625 C 0.890625 -4.75 1.265625 -4.75 1.484375 -4.75 L 4.828125 -4.75 L 4.125 -2.40625 L 1.484375 -2.40625 C 1.265625 -2.40625 0.890625 -2.40625 0.890625 -2.015625 C 0.890625 -1.625 1.28125 -1.625 1.46875 -1.625 L 3.875 -1.625 L 2.75 2.125 C 2.6875 2.34375 2.6875 2.359375 2.6875 2.390625 C 2.6875 2.578125 2.828125 2.78125 3.078125 2.78125 C 3.375 2.78125 3.421875 2.5625 3.484375 2.375 L 4.703125 -1.625 L 7.515625 -1.625 L 6.390625 2.125 C 6.328125 2.34375 6.328125 2.359375 6.328125 2.390625 C 6.328125 2.578125 6.46875 2.78125 6.734375 2.78125 C 7.015625 2.78125 7.078125 2.5625 7.125 2.375 Z M 4.953125 -2.40625 L 5.65625 -4.75 L 8.484375 -4.75 L 7.78125 -2.40625 Z M 4.953125 -2.40625 "/>
</symbol>
<symbol overflow="visible" id="glyph2-8">
<path style="stroke:none;" d="M 4.96875 -9 C 4.96875 -9.40625 4.9375 -9.40625 4.46875 -9.40625 C 3.40625 -8.484375 1.828125 -8.484375 1.5 -8.484375 L 1.234375 -8.484375 L 1.234375 -7.875 L 1.5 -7.875 C 2.015625 -7.875 2.765625 -7.953125 3.34375 -8.140625 L 3.34375 -0.609375 L 1.34375 -0.609375 L 1.34375 0 C 1.953125 -0.03125 3.453125 -0.03125 4.125 -0.03125 C 4.8125 -0.03125 6.328125 -0.03125 6.921875 0 L 6.921875 -0.609375 L 4.96875 -0.609375 Z M 4.96875 -9 "/>
</symbol>
<symbol overflow="visible" id="glyph2-9">
<path style="stroke:none;" d="M 7.25 -3.078125 L 6.640625 -3.078125 C 6.59375 -2.78125 6.5 -1.9375 6.28125 -1.796875 C 6.171875 -1.6875 5.046875 -1.6875 4.828125 -1.6875 L 2.609375 -1.6875 C 3.15625 -2.15625 4.453125 -3.234375 4.671875 -3.40625 C 6.265625 -4.59375 7.25 -5.328125 7.25 -6.703125 C 7.25 -8.390625 5.703125 -9.40625 3.8125 -9.40625 C 2.1875 -9.40625 0.796875 -8.484375 0.796875 -7.125 C 0.796875 -6.375 1.421875 -6.15625 1.75 -6.15625 C 2.1875 -6.15625 2.71875 -6.453125 2.71875 -7.109375 C 2.71875 -7.71875 2.265625 -8.015625 1.828125 -8.078125 C 2.390625 -8.734375 3.15625 -8.796875 3.453125 -8.796875 C 4.78125 -8.796875 5.40625 -7.71875 5.40625 -6.6875 C 5.40625 -5.5625 4.640625 -4.53125 4.0625 -3.921875 L 0.953125 -0.65625 C 0.796875 -0.53125 0.796875 -0.5 0.796875 -0.25 L 0.796875 0 L 6.828125 0 Z M 7.25 -3.078125 "/>
</symbol>
<symbol overflow="visible" id="glyph2-10">
<path style="stroke:none;" d="M 3.75 -4.75 C 5.34375 -4.75 5.34375 -3.25 5.34375 -2.5625 C 5.34375 -1.921875 5.34375 -0.40625 3.796875 -0.40625 C 3.5 -0.40625 2.546875 -0.4375 1.859375 -0.9375 C 2.484375 -1.0625 2.703125 -1.5 2.703125 -1.9375 C 2.703125 -2.53125 2.28125 -2.9375 1.6875 -2.9375 C 1.09375 -2.9375 0.671875 -2.53125 0.671875 -1.921875 C 0.671875 -0.609375 2.109375 0.171875 3.875 0.171875 C 6.234375 0.171875 7.375 -1.140625 7.375 -2.5625 C 7.375 -3.265625 7.015625 -4.640625 4.796875 -5.015625 C 6.046875 -5.40625 6.921875 -6.296875 6.921875 -7.4375 C 6.921875 -8.5 5.890625 -9.40625 3.90625 -9.40625 C 2.296875 -9.40625 1.125 -8.5625 1.125 -7.40625 C 1.125 -6.6875 1.671875 -6.453125 2.046875 -6.453125 C 2.46875 -6.453125 2.96875 -6.734375 2.96875 -7.390625 C 2.96875 -7.71875 2.828125 -8.203125 2.15625 -8.3125 C 2.75 -8.890625 3.734375 -8.890625 3.8125 -8.890625 C 5.09375 -8.890625 5.09375 -7.90625 5.09375 -7.46875 C 5.09375 -7.046875 5.03125 -6.390625 4.578125 -5.796875 C 4.203125 -5.3125 3.828125 -5.28125 3.28125 -5.25 C 3.109375 -5.234375 2.828125 -5.21875 2.765625 -5.1875 C 2.6875 -5.15625 2.6875 -5.046875 2.6875 -4.984375 C 2.6875 -4.75 2.765625 -4.75 3.0625 -4.75 Z M 3.75 -4.75 "/>
</symbol>
</g>
<clipPath id="clip1">
  <path d="M 3 93 L 121 93 L 121 158.988281 L 3 158.988281 Z M 3 93 "/>
</clipPath>
<clipPath id="clip2">
  <path d="M 400 93 L 518 93 L 518 158.988281 L 400 158.988281 Z M 400 93 "/>
</clipPath>
</defs>
<g id="surface1">
<path style="fill-rule:nonzero;fill:rgb(86.66687%,99.215698%,91.764832%);fill-opacity:1;stroke-width:1.59404;stroke-linecap:butt;stroke-linejoin:miter;stroke:rgb(0%,0%,0%);stroke-opacity:1;stroke-miterlimit:10;" d="M -9.91975 -9.9215 L 9.920094 -9.9215 L 9.920094 9.92225 L -9.91975 9.92225 Z M -9.91975 -9.9215 " transform="matrix(1,0,0,-1,72.826,58.766)"/>
<g style="fill:rgb(0%,0%,0%);fill-opacity:1;">
  <use xlink:href="#glyph0-1" x="67.097" y="61.157"/>
  <use xlink:href="#glyph0-2" x="72.825495" y="61.157"/>
</g>
<path style="fill-rule:nonzero;fill:rgb(86.66687%,99.215698%,91.764832%);fill-opacity:1;stroke-width:1.59404;stroke-linecap:butt;stroke-linejoin:miter;stroke:rgb(0%,0%,0%);stroke-opacity:1;stroke-miterlimit:10;" d="M 9.920094 -9.9215 L 29.763844 -9.9215 L 29.763844 9.92225 L 9.920094 9.92225 Z M 9.920094 -9.9215 " transform="matrix(1,0,0,-1,72.826,58.766)"/>
<g style="fill:rgb(0%,0%,0%);fill-opacity:1;">
  <use xlink:href="#glyph0-1" x="86.94" y="61.157"/>
  <use xlink:href="#glyph0-1" x="92.668495" y="61.157"/>
</g>
<path style="fill-rule:nonzero;fill:rgb(86.66687%,99.215698%,91.764832%);fill-opacity:1;stroke-width:1.59404;stroke-linecap:butt;stroke-linejoin:miter;stroke:rgb(0%,0%,0%);stroke-opacity:1;stroke-miterlimit:10;" d="M 29.763844 -9.9215 L 49.607594 -9.9215 L 49.607594 9.92225 L 29.763844 9.92225 Z M 29.763844 -9.9215 " transform="matrix(1,0,0,-1,72.826,58.766)"/>
<g style="fill:rgb(0%,0%,0%);fill-opacity:1;">
  <use xlink:href="#glyph0-1" x="106.782" y="61.157"/>
  <use xlink:href="#glyph0-3" x="112.510495" y="61.157"/>
</g>
<path style="fill-rule:nonzero;fill:rgb(100%,100%,100%);fill-opacity:1;stroke-width:1.59404;stroke-linecap:butt;stroke-linejoin:miter;stroke:rgb(0%,0%,0%);stroke-opacity:1;stroke-miterlimit:10;" d="M 49.607594 -9.9215 L 69.451344 -9.9215 L 69.451344 9.92225 L 49.607594 9.92225 Z M 49.607594 -9.9215 " transform="matrix(1,0,0,-1,72.826,58.766)"/>
<g style="fill:rgb(0%,0%,0%);fill-opacity:1;">
  <use xlink:href="#glyph0-4" x="127.87" y="61.157"/>
</g>
<path style="fill-rule:nonzero;fill:rgb(100%,100%,100%);fill-opacity:1;stroke-width:1.59404;stroke-linecap:butt;stroke-linejoin:miter;stroke:rgb(0%,0%,0%);stroke-opacity:1;stroke-miterlimit:10;" d="M 69.451344 -9.9215 L 89.291188 -9.9215 L 89.291188 9.92225 L 69.451344 9.92225 Z M 69.451344 -9.9215 " transform="matrix(1,0,0,-1,72.826,58.766)"/>
<g style="fill:rgb(0%,0%,0%);fill-opacity:1;">
  <use xlink:href="#glyph0-5" x="150.604" y="61.157"/>
</g>
<path style="fill-rule:nonzero;fill:rgb(100%,100%,100%);fill-opacity:1;stroke-width:1.59404;stroke-linecap:butt;stroke-linejoin:miter;stroke:rgb(0%,0%,0%);stroke-opacity:1;stroke-miterlimit:10;" d="M 89.291188 -9.9215 L 109.134938 -9.9215 L 109.134938 9.92225 L 89.291188 9.92225 Z M 89.291188 -9.9215 " transform="matrix(1,0,0,-1,72.826,58.766)"/>
<g style="fill:rgb(0%,0%,0%);fill-opacity:1;">
  <use xlink:href="#glyph0-6" x="169.015" y="61.157"/>
</g>
<path style="fill-rule:nonzero;fill:rgb(100%,100%,100%);fill-opacity:1;stroke-width:1.59404;stroke-linecap:butt;stroke-linejoin:miter;stroke:rgb(0%,0%,0%);stroke-opacity:1;stroke-miterlimit:10;" d="M 109.134938 -9.9215 L 128.978688 -9.9215 L 128.978688 9.92225 L 109.134938 9.92225 Z M 109.134938 -9.9215 " transform="matrix(1,0,0,-1,72.826,58.766)"/>
<g style="fill:rgb(0%,0%,0%);fill-opacity:1;">
  <use xlink:href="#glyph0-6" x="188.857" y="61.157"/>
</g>
<path style="fill-rule:nonzero;fill:rgb(100%,100%,100%);fill-opacity:1;stroke-width:1.59404;stroke-linecap:butt;stroke-linejoin:miter;stroke:rgb(0%,0%,0%);stroke-opacity:1;stroke-miterlimit:10;" d="M 128.978688 -9.9215 L 148.822438 -9.9215 L 148.822438 9.92225 L 128.978688 9.92225 Z M 128.978688 -9.9215 " transform="matrix(1,0,0,-1,72.826,58.766)"/>
<g style="fill:rgb(0%,0%,0%);fill-opacity:1;">
  <use xlink:href="#glyph0-7" x="208.939" y="61.157"/>
</g>
<path style="fill-rule:nonzero;fill:rgb(86.66687%,99.215698%,91.764832%);fill-opacity:1;stroke-width:1.59404;stroke-linecap:butt;stroke-linejoin:miter;stroke:rgb(0%,0%,0%);stroke-opacity:1;stroke-miterlimit:10;" d="M 148.822438 -9.9215 L 168.662281 -9.9215 L 168.662281 9.92225 L 148.822438 9.92225 Z M 148.822438 -9.9215 " transform="matrix(1,0,0,-1,72.826,58.766)"/>
<g style="fill:rgb(0%,0%,0%);fill-opacity:1;">
  <use xlink:href="#glyph0-1" x="225.837" y="61.157"/>
  <use xlink:href="#glyph0-2" x="231.565495" y="61.157"/>
</g>
<path style="fill-rule:nonzero;fill:rgb(86.66687%,99.215698%,91.764832%);fill-opacity:1;stroke-width:1.59404;stroke-linecap:butt;stroke-linejoin:miter;stroke:rgb(0%,0%,0%);stroke-opacity:1;stroke-miterlimit:10;" d="M 168.662281 -9.9215 L 188.506031 -9.9215 L 188.506031 9.92225 L 168.662281 9.92225 Z M 168.662281 -9.9215 " transform="matrix(1,0,0,-1,72.826,58.766)"/>
<g style="fill:rgb(0%,0%,0%);fill-opacity:1;">
  <use xlink:href="#glyph0-1" x="245.68" y="61.157"/>
  <use xlink:href="#glyph0-1" x="251.408495" y="61.157"/>
</g>
<path style="fill-rule:nonzero;fill:rgb(86.66687%,99.215698%,91.764832%);fill-opacity:1;stroke-width:1.59404;stroke-linecap:butt;stroke-linejoin:miter;stroke:rgb(0%,0%,0%);stroke-opacity:1;stroke-miterlimit:10;" d="M 188.506031 -9.9215 L 208.349781 -9.9215 L 208.349781 9.92225 L 188.506031 9.92225 Z M 188.506031 -9.9215 " transform="matrix(1,0,0,-1,72.826,58.766)"/>
<g style="fill:rgb(0%,0%,0%);fill-opacity:1;">
  <use xlink:href="#glyph0-1" x="265.522" y="61.157"/>
  <use xlink:href="#glyph0-2" x="271.250495" y="61.157"/>
</g>
<path style="fill-rule:nonzero;fill:rgb(100%,100%,100%);fill-opacity:1;stroke-width:1.59404;stroke-linecap:butt;stroke-linejoin:miter;stroke:rgb(0%,0%,0%);stroke-opacity:1;stroke-miterlimit:10;" d="M 208.349781 -9.9215 L 228.193531 -9.9215 L 228.193531 9.92225 L 208.349781 9.92225 Z M 208.349781 -9.9215 " transform="matrix(1,0,0,-1,72.826,58.766)"/>
<path style="fill-rule:nonzero;fill:rgb(86.66687%,99.215698%,91.764832%);fill-opacity:1;stroke-width:1.59404;stroke-linecap:butt;stroke-linejoin:miter;stroke:rgb(0%,0%,0%);stroke-opacity:1;stroke-miterlimit:10;" d="M 228.193531 -9.9215 L 248.033375 -9.9215 L 248.033375 9.92225 L 228.193531 9.92225 Z M 228.193531 -9.9215 " transform="matrix(1,0,0,-1,72.826,58.766)"/>
<g style="fill:rgb(0%,0%,0%);fill-opacity:1;">
  <use xlink:href="#glyph0-1" x="305.207" y="61.157"/>
  <use xlink:href="#glyph0-2" x="310.935495" y="61.157"/>
</g>
<path style="fill-rule:nonzero;fill:rgb(86.66687%,99.215698%,91.764832%);fill-opacity:1;stroke-width:1.59404;stroke-linecap:butt;stroke-linejoin:miter;stroke:rgb(0%,0%,0%);stroke-opacity:1;stroke-miterlimit:10;" d="M 248.033375 -9.9215 L 267.877125 -9.9215 L 267.877125 9.92225 L 248.033375 9.92225 Z M 248.033375 -9.9215 " transform="matrix(1,0,0,-1,72.826,58.766)"/>
<g style="fill:rgb(0%,0%,0%);fill-opacity:1;">
  <use xlink:href="#glyph0-1" x="325.05" y="61.157"/>
  <use xlink:href="#glyph0-1" x="330.778495" y="61.157"/>
</g>
<path style="fill-rule:nonzero;fill:rgb(86.66687%,99.215698%,91.764832%);fill-opacity:1;stroke-width:1.59404;stroke-linecap:butt;stroke-linejoin:miter;stroke:rgb(0%,0%,0%);stroke-opacity:1;stroke-miterlimit:10;" d="M 267.877125 -9.9215 L 287.720875 -9.9215 L 287.720875 9.92225 L 267.877125 9.92225 Z M 267.877125 -9.9215 " transform="matrix(1,0,0,-1,72.826,58.766)"/>
<g style="fill:rgb(0%,0%,0%);fill-opacity:1;">
  <use xlink:href="#glyph0-1" x="344.892" y="61.157"/>
  <use xlink:href="#glyph0-3" x="350.620495" y="61.157"/>
</g>
<path style="fill-rule:nonzero;fill:rgb(100%,100%,100%);fill-opacity:1;stroke-width:1.59404;stroke-linecap:butt;stroke-linejoin:miter;stroke:rgb(0%,0%,0%);stroke-opacity:1;stroke-miterlimit:10;" d="M 287.720875 -9.9215 L 307.564625 -9.9215 L 307.564625 9.92225 L 287.720875 9.92225 Z M 287.720875 -9.9215 " transform="matrix(1,0,0,-1,72.826,58.766)"/>
<g style="fill:rgb(0%,0%,0%);fill-opacity:1;">
  <use xlink:href="#glyph0-8" x="368.104" y="61.157"/>
</g>
<path style="fill-rule:nonzero;fill:rgb(100%,100%,100%);fill-opacity:1;stroke-width:1.59404;stroke-linecap:butt;stroke-linejoin:miter;stroke:rgb(0%,0%,0%);stroke-opacity:1;stroke-miterlimit:10;" d="M 307.564625 -9.9215 L 327.404469 -9.9215 L 327.404469 9.92225 L 307.564625 9.92225 Z M 307.564625 -9.9215 " transform="matrix(1,0,0,-1,72.826,58.766)"/>
<g style="fill:rgb(0%,0%,0%);fill-opacity:1;">
  <use xlink:href="#glyph0-9" x="387.442" y="61.157"/>
</g>
<path style="fill-rule:nonzero;fill:rgb(100%,100%,100%);fill-opacity:1;stroke-width:1.59404;stroke-linecap:butt;stroke-linejoin:miter;stroke:rgb(0%,0%,0%);stroke-opacity:1;stroke-miterlimit:10;" d="M 327.404469 -9.9215 L 347.248219 -9.9215 L 347.248219 9.92225 L 327.404469 9.92225 Z M 327.404469 -9.9215 " transform="matrix(1,0,0,-1,72.826,58.766)"/>
<g style="fill:rgb(0%,0%,0%);fill-opacity:1;">
  <use xlink:href="#glyph0-10" x="407.602" y="61.157"/>
</g>
<path style="fill-rule:nonzero;fill:rgb(100%,100%,100%);fill-opacity:1;stroke-width:1.59404;stroke-linecap:butt;stroke-linejoin:miter;stroke:rgb(0%,0%,0%);stroke-opacity:1;stroke-miterlimit:10;" d="M 347.248219 -9.9215 L 367.091969 -9.9215 L 367.091969 9.92225 L 347.248219 9.92225 Z M 347.248219 -9.9215 " transform="matrix(1,0,0,-1,72.826,58.766)"/>
<g style="fill:rgb(0%,0%,0%);fill-opacity:1;">
  <use xlink:href="#glyph0-6" x="426.968" y="61.157"/>
</g>
<path style="fill-rule:nonzero;fill:rgb(100%,100%,100%);fill-opacity:1;stroke-width:1.59404;stroke-linecap:butt;stroke-linejoin:miter;stroke:rgb(0%,0%,0%);stroke-opacity:1;stroke-miterlimit:10;" d="M 367.091969 -9.9215 L 386.935719 -9.9215 L 386.935719 9.92225 L 367.091969 9.92225 Z M 367.091969 -9.9215 " transform="matrix(1,0,0,-1,72.826,58.766)"/>
<g style="fill:rgb(0%,0%,0%);fill-opacity:1;">
  <use xlink:href="#glyph0-11" x="447.574" y="61.157"/>
</g>
<path style="fill-rule:nonzero;fill:rgb(79.214478%,85.488892%,96.470642%);fill-opacity:1;stroke-width:1.59404;stroke-linecap:butt;stroke-linejoin:miter;stroke:rgb(0%,0%,0%);stroke-opacity:1;stroke-miterlimit:10;" d="M 386.935719 -9.9215 L 406.775562 -9.9215 L 406.775562 9.92225 L 386.935719 9.92225 Z M 386.935719 -9.9215 " transform="matrix(1,0,0,-1,72.826,58.766)"/>
<g style="fill:rgb(0%,0%,0%);fill-opacity:1;">
  <use xlink:href="#glyph0-1" x="463.948" y="61.157"/>
  <use xlink:href="#glyph0-1" x="469.676495" y="61.157"/>
</g>
<path style="fill-rule:nonzero;fill:rgb(79.998779%,79.998779%,79.998779%);fill-opacity:1;stroke-width:1.59404;stroke-linecap:butt;stroke-linejoin:miter;stroke:rgb(0%,0%,0%);stroke-opacity:1;stroke-miterlimit:10;" d="M 406.775562 -9.9215 L 426.619312 -9.9215 L 426.619312 9.92225 L 406.775562 9.92225 Z M 406.775562 -9.9215 " transform="matrix(1,0,0,-1,72.826,58.766)"/>
<path style="fill-rule:nonzero;fill:rgb(79.998779%,79.998779%,79.998779%);fill-opacity:1;stroke-width:1.59404;stroke-linecap:butt;stroke-linejoin:miter;stroke:rgb(0%,0%,0%);stroke-opacity:1;stroke-miterlimit:10;" d="M 426.619312 -9.9215 L 446.463062 -9.9215 L 446.463062 9.92225 L 426.619312 9.92225 Z M 426.619312 -9.9215 " transform="matrix(1,0,0,-1,72.826,58.766)"/>
<path style="fill-rule:nonzero;fill:rgb(79.998779%,79.998779%,79.998779%);fill-opacity:1;stroke-width:1.59404;stroke-linecap:butt;stroke-linejoin:miter;stroke:rgb(0%,0%,0%);stroke-opacity:1;stroke-miterlimit:10;" d="M 446.463062 -9.9215 L 466.306812 -9.9215 L 466.306812 9.92225 L 446.463062 9.92225 Z M 446.463062 -9.9215 " transform="matrix(1,0,0,-1,72.826,58.766)"/>
<path style="fill-rule:nonzero;fill:rgb(79.998779%,79.998779%,79.998779%);fill-opacity:1;stroke-width:1.59404;stroke-linecap:butt;stroke-linejoin:miter;stroke:rgb(0%,0%,0%);stroke-opacity:1;stroke-miterlimit:10;" d="M 466.306812 -9.9215 L 486.146656 -9.9215 L 486.146656 9.92225 L 466.306812 9.92225 Z M 466.306812 -9.9215 " transform="matrix(1,0,0,-1,72.826,58.766)"/>
<path style="fill-rule:nonzero;fill:rgb(79.998779%,79.998779%,79.998779%);fill-opacity:1;stroke-width:1.59404;stroke-linecap:butt;stroke-linejoin:miter;stroke:rgb(0%,0%,0%);stroke-opacity:1;stroke-miterlimit:10;" d="M 486.146656 -9.9215 L 505.990406 -9.9215 L 505.990406 9.92225 L 486.146656 9.92225 Z M 486.146656 -9.9215 " transform="matrix(1,0,0,-1,72.826,58.766)"/>
<path style="fill-rule:nonzero;fill:rgb(79.998779%,79.998779%,79.998779%);fill-opacity:1;stroke-width:1.59404;stroke-linecap:butt;stroke-linejoin:miter;stroke:rgb(0%,0%,0%);stroke-opacity:1;stroke-miterlimit:10;" d="M 505.990406 -9.9215 L 525.834156 -9.9215 L 525.834156 9.92225 L 505.990406 9.92225 Z M 505.990406 -9.9215 " transform="matrix(1,0,0,-1,72.826,58.766)"/>
<path style="fill-rule:nonzero;fill:rgb(79.998779%,79.998779%,79.998779%);fill-opacity:1;stroke-width:1.59404;stroke-linecap:butt;stroke-linejoin:miter;stroke:rgb(0%,0%,0%);stroke-opacity:1;stroke-miterlimit:10;" d="M 525.834156 -9.9215 L 545.677906 -9.9215 L 545.677906 9.92225 L 525.834156 9.92225 Z M 525.834156 -9.9215 " transform="matrix(1,0,0,-1,72.826,58.766)"/>
<g clip-path="url(#clip1)" clip-rule="nonzero">
<path style="fill:none;stroke-width:1.59404;stroke-linecap:butt;stroke-linejoin:miter;stroke:rgb(0%,0%,0%);stroke-opacity:1;stroke-miterlimit:10;" d="M 24.998219 -63.20275 L 22.14275 -60.347281 L 19.283375 -57.491812 L -40.720531 -57.491812 L -43.576 -60.347281 L -46.435375 -63.20275 L -46.435375 -88.042594 L -43.576 -90.898062 L -40.720531 -93.757437 L 19.283375 -93.757437 L 24.998219 -88.042594 Z M 24.998219 -63.20275 " transform="matrix(1,0,0,-1,72.826,58.766)"/>
</g>
<g style="fill:rgb(0%,0%,0%);fill-opacity:1;">
  <use xlink:href="#glyph1-1" x="38.547" y="130.802"/>
  <use xlink:href="#glyph1-2" x="48.2606" y="130.802"/>
  <use xlink:href="#glyph1-3" x="53.754014" y="130.802"/>
  <use xlink:href="#glyph1-4" x="57.490014" y="130.802"/>
  <use xlink:href="#glyph1-5" x="62.720414" y="130.802"/>
</g>
<g style="fill:rgb(0%,0%,0%);fill-opacity:1;">
  <use xlink:href="#glyph1-4" x="73.340219" y="130.802"/>
  <use xlink:href="#glyph1-6" x="78.570619" y="130.802"/>
</g>
<g style="fill:rgb(0%,0%,0%);fill-opacity:1;">
  <use xlink:href="#glyph1-7" x="48.298" y="142.757"/>
  <use xlink:href="#glyph1-5" x="55.77" y="142.757"/>
  <use xlink:href="#glyph1-8" x="61.906604" y="142.757"/>
  <use xlink:href="#glyph1-9" x="68.444903" y="142.757"/>
</g>
<g clip-path="url(#clip2)" clip-rule="nonzero">
<path style="fill:none;stroke-width:1.59404;stroke-linecap:butt;stroke-linejoin:miter;stroke:rgb(0%,0%,0%);stroke-opacity:1;stroke-miterlimit:10;" d="M 421.853687 -63.20275 L 418.998219 -60.347281 L 416.138844 -57.491812 L 356.134937 -57.491812 L 353.279469 -60.347281 L 350.420094 -63.20275 L 350.420094 -88.042594 L 353.279469 -90.898062 L 356.134937 -93.757437 L 416.138844 -93.757437 L 421.853687 -88.042594 Z M 421.853687 -63.20275 " transform="matrix(1,0,0,-1,72.826,58.766)"/>
</g>
<g style="fill:rgb(0%,0%,0%);fill-opacity:1;">
  <use xlink:href="#glyph1-1" x="435.397" y="130.802"/>
  <use xlink:href="#glyph1-2" x="445.1106" y="130.802"/>
  <use xlink:href="#glyph1-3" x="450.604014" y="130.802"/>
  <use xlink:href="#glyph1-4" x="454.340014" y="130.802"/>
  <use xlink:href="#glyph1-5" x="459.570414" y="130.802"/>
</g>
<g style="fill:rgb(0%,0%,0%);fill-opacity:1;">
  <use xlink:href="#glyph1-4" x="470.190219" y="130.802"/>
  <use xlink:href="#glyph1-6" x="475.420619" y="130.802"/>
</g>
<g style="fill:rgb(0%,0%,0%);fill-opacity:1;">
  <use xlink:href="#glyph1-4" x="449.338" y="142.757"/>
  <use xlink:href="#glyph1-8" x="454.5684" y="142.757"/>
  <use xlink:href="#glyph1-3" x="461.106699" y="142.757"/>
  <use xlink:href="#glyph1-10" x="464.842699" y="142.757"/>
</g>
<path style="fill:none;stroke-width:1.59404;stroke-linecap:butt;stroke-linejoin:miter;stroke:rgb(0%,0%,0%);stroke-opacity:1;stroke-miterlimit:10;" d="M -10.716625 -56.694937 L -10.716625 -24.093375 " transform="matrix(1,0,0,-1,72.826,58.766)"/>
<path style="fill-rule:nonzero;fill:rgb(0%,0%,0%);fill-opacity:1;stroke-width:1.59404;stroke-linecap:butt;stroke-linejoin:miter;stroke:rgb(0%,0%,0%);stroke-opacity:1;stroke-miterlimit:10;" d="M 7.345135 -0.001755 C 6.442791 0.134964 2.477948 0.908401 0.001385 1.752151 L 0.001385 -1.751755 C 2.477948 -0.911911 6.442791 -0.134568 7.345135 -0.001755 Z M 7.345135 -0.001755 " transform="matrix(0,-1,-1,0,62.10762,82.86076)"/>
<path style="fill:none;stroke-width:1.59404;stroke-linecap:butt;stroke-linejoin:miter;stroke:rgb(0%,0%,0%);stroke-opacity:1;stroke-miterlimit:10;" d="M 386.138844 -56.694937 L 386.138844 -24.093375 " transform="matrix(1,0,0,-1,72.826,58.766)"/>
<path style="fill-rule:nonzero;fill:rgb(0%,0%,0%);fill-opacity:1;stroke-width:1.59404;stroke-linecap:butt;stroke-linejoin:miter;stroke:rgb(0%,0%,0%);stroke-opacity:1;stroke-miterlimit:10;" d="M 7.345135 -0.00174375 C 6.442791 0.134975 2.477948 0.908412 0.001385 1.752162 L 0.001385 -1.751744 C 2.477948 -0.9119 6.442791 -0.134556 7.345135 -0.00174375 Z M 7.345135 -0.00174375 " transform="matrix(0,-1,-1,0,458.9631,82.86076)"/>
<path style=" stroke:none;fill-rule:nonzero;fill:rgb(0%,0%,0%);fill-opacity:1;" d="M 64.1875 43.246094 C 65.683594 40.253906 68.8125 38.882812 73.792969 38.882812 C 74.847656 38.882812 74.847656 37.289062 73.792969 37.289062 C 68.8125 37.289062 64.96875 39.898438 63.476562 42.886719 C 63.238281 43.359375 63.953125 43.714844 64.1875 43.246094 "/>
<path style=" stroke:none;fill-rule:nonzero;fill:rgb(0%,0%,0%);fill-opacity:1;" d="M 141.917969 32.925781 C 140.425781 35.914062 137.292969 37.289062 132.3125 37.289062 C 131.261719 37.289062 131.261719 38.882812 132.3125 38.882812 C 137.292969 38.882812 141.136719 36.269531 142.632812 33.28125 C 142.867188 32.8125 142.15625 32.453125 141.917969 32.925781 "/>
<path style="fill:none;stroke-width:1.59404;stroke-linecap:butt;stroke-linejoin:miter;stroke:rgb(0%,0%,0%);stroke-opacity:1;stroke-miterlimit:10;" d="M 0.966969 20.680063 L 59.4865 20.680063 " transform="matrix(1,0,0,-1,72.826,58.766)"/>
<path style=" stroke:none;fill-rule:nonzero;fill:rgb(0%,0%,0%);fill-opacity:1;" d="M 141.917969 33.28125 C 143.414062 36.269531 147.257812 38.882812 152.238281 38.882812 C 153.289062 38.882812 153.289062 37.289062 152.238281 37.289062 C 147.257812 37.289062 144.125 35.914062 142.632812 32.925781 C 142.398438 32.453125 141.683594 32.8125 141.917969 33.28125 "/>
<path style=" stroke:none;fill-rule:nonzero;fill:rgb(0%,0%,0%);fill-opacity:1;" d="M 221.078125 42.886719 C 219.582031 39.898438 215.738281 37.289062 210.757812 37.289062 C 209.703125 37.289062 209.703125 38.882812 210.757812 38.882812 C 215.738281 38.882812 218.867188 40.253906 220.363281 43.246094 C 220.597656 43.714844 221.3125 43.359375 221.078125 42.886719 "/>
<path style="fill:none;stroke-width:1.59404;stroke-linecap:butt;stroke-linejoin:miter;stroke:rgb(0%,0%,0%);stroke-opacity:1;stroke-miterlimit:10;" d="M 79.412281 20.680063 L 137.931813 20.680063 " transform="matrix(1,0,0,-1,72.826,58.766)"/>
<g style="fill:rgb(0%,0%,0%);fill-opacity:1;">
  <use xlink:href="#glyph2-1" x="98.717" y="21.542"/>
</g>
<g style="fill:rgb(0%,0%,0%);fill-opacity:1;">
  <use xlink:href="#glyph2-2" x="114.038742" y="21.542"/>
  <use xlink:href="#glyph2-3" x="120.63082" y="21.542"/>
  <use xlink:href="#glyph2-4" x="125.114008" y="21.542"/>
  <use xlink:href="#glyph2-5" x="131.39047" y="21.542"/>
</g>
<g style="fill:rgb(0%,0%,0%);fill-opacity:1;">
  <use xlink:href="#glyph2-4" x="144.1342" y="21.542"/>
  <use xlink:href="#glyph2-6" x="150.410662" y="21.542"/>
</g>
<g style="fill:rgb(0%,0%,0%);fill-opacity:1;">
  <use xlink:href="#glyph2-7" x="164.307826" y="21.542"/>
  <use xlink:href="#glyph2-8" x="177.757389" y="21.542"/>
</g>
<path style=" stroke:none;fill-rule:nonzero;fill:rgb(0%,0%,0%);fill-opacity:1;" d="M 222.929688 43.246094 C 224.425781 40.253906 227.554688 38.882812 232.535156 38.882812 C 233.589844 38.882812 233.589844 37.289062 232.535156 37.289062 C 227.554688 37.289062 223.710938 39.898438 222.21875 42.886719 C 221.980469 43.359375 222.695312 43.714844 222.929688 43.246094 "/>
<path style=" stroke:none;fill-rule:nonzero;fill:rgb(0%,0%,0%);fill-opacity:1;" d="M 260.976562 32.925781 C 259.480469 35.914062 256.351562 37.289062 251.371094 37.289062 C 250.316406 37.289062 250.316406 38.882812 251.371094 38.882812 C 256.351562 38.882812 260.195312 36.269531 261.6875 33.28125 C 261.925781 32.8125 261.210938 32.453125 260.976562 32.925781 "/>
<path style="fill:none;stroke-width:1.59404;stroke-linecap:butt;stroke-linejoin:miter;stroke:rgb(0%,0%,0%);stroke-opacity:1;stroke-miterlimit:10;" d="M 159.709156 20.680063 L 178.545094 20.680063 " transform="matrix(1,0,0,-1,72.826,58.766)"/>
<path style=" stroke:none;fill-rule:nonzero;fill:rgb(0%,0%,0%);fill-opacity:1;" d="M 260.976562 33.28125 C 262.46875 36.269531 266.3125 38.882812 271.296875 38.882812 C 272.347656 38.882812 272.347656 37.289062 271.296875 37.289062 C 266.3125 37.289062 263.183594 35.914062 261.6875 32.925781 C 261.453125 32.453125 260.742188 32.8125 260.976562 33.28125 "/>
<path style=" stroke:none;fill-rule:nonzero;fill:rgb(0%,0%,0%);fill-opacity:1;" d="M 300.449219 42.886719 C 298.953125 39.898438 295.109375 37.289062 290.128906 37.289062 C 289.074219 37.289062 289.074219 38.882812 290.128906 38.882812 C 295.109375 38.882812 298.238281 40.253906 299.734375 43.246094 C 299.96875 43.714844 300.683594 43.359375 300.449219 42.886719 "/>
<path style="fill:none;stroke-width:1.59404;stroke-linecap:butt;stroke-linejoin:miter;stroke:rgb(0%,0%,0%);stroke-opacity:1;stroke-miterlimit:10;" d="M 198.470875 20.680063 L 217.302906 20.680063 " transform="matrix(1,0,0,-1,72.826,58.766)"/>
<g style="fill:rgb(0%,0%,0%);fill-opacity:1;">
  <use xlink:href="#glyph2-1" x="217.772" y="21.542"/>
</g>
<g style="fill:rgb(0%,0%,0%);fill-opacity:1;">
  <use xlink:href="#glyph2-2" x="233.093742" y="21.542"/>
  <use xlink:href="#glyph2-3" x="239.685821" y="21.542"/>
  <use xlink:href="#glyph2-4" x="244.169008" y="21.542"/>
  <use xlink:href="#glyph2-5" x="250.445471" y="21.542"/>
</g>
<g style="fill:rgb(0%,0%,0%);fill-opacity:1;">
  <use xlink:href="#glyph2-4" x="263.1892" y="21.542"/>
  <use xlink:href="#glyph2-6" x="269.465662" y="21.542"/>
</g>
<g style="fill:rgb(0%,0%,0%);fill-opacity:1;">
  <use xlink:href="#glyph2-7" x="283.362826" y="21.542"/>
  <use xlink:href="#glyph2-9" x="296.812389" y="21.542"/>
</g>
<path style=" stroke:none;fill-rule:nonzero;fill:rgb(0%,0%,0%);fill-opacity:1;" d="M 302.300781 43.246094 C 303.796875 40.253906 306.925781 38.882812 311.90625 38.882812 C 312.960938 38.882812 312.960938 37.289062 311.90625 37.289062 C 306.925781 37.289062 303.082031 39.898438 301.589844 42.886719 C 301.351562 43.359375 302.066406 43.714844 302.300781 43.246094 "/>
<path style=" stroke:none;fill-rule:nonzero;fill:rgb(0%,0%,0%);fill-opacity:1;" d="M 380.03125 32.925781 C 378.539062 35.914062 375.40625 37.289062 370.425781 37.289062 C 369.375 37.289062 369.375 38.882812 370.425781 38.882812 C 375.40625 38.882812 379.25 36.269531 380.746094 33.28125 C 380.980469 32.8125 380.269531 32.453125 380.03125 32.925781 "/>
<path style="fill:none;stroke-width:1.59404;stroke-linecap:butt;stroke-linejoin:miter;stroke:rgb(0%,0%,0%);stroke-opacity:1;stroke-miterlimit:10;" d="M 239.08025 20.680063 L 297.599781 20.680063 " transform="matrix(1,0,0,-1,72.826,58.766)"/>
<path style=" stroke:none;fill-rule:nonzero;fill:rgb(0%,0%,0%);fill-opacity:1;" d="M 380.03125 33.28125 C 381.527344 36.269531 385.371094 38.882812 390.351562 38.882812 C 391.402344 38.882812 391.402344 37.289062 390.351562 37.289062 C 385.371094 37.289062 382.238281 35.914062 380.746094 32.925781 C 380.511719 32.453125 379.796875 32.8125 380.03125 33.28125 "/>
<path style=" stroke:none;fill-rule:nonzero;fill:rgb(0%,0%,0%);fill-opacity:1;" d="M 459.191406 42.886719 C 457.695312 39.898438 453.851562 37.289062 448.871094 37.289062 C 447.816406 37.289062 447.816406 38.882812 448.871094 38.882812 C 453.851562 38.882812 456.980469 40.253906 458.476562 43.246094 C 458.710938 43.714844 459.425781 43.359375 459.191406 42.886719 "/>
<path style="fill:none;stroke-width:1.59404;stroke-linecap:butt;stroke-linejoin:miter;stroke:rgb(0%,0%,0%);stroke-opacity:1;stroke-miterlimit:10;" d="M 317.525562 20.680063 L 376.045094 20.680063 " transform="matrix(1,0,0,-1,72.826,58.766)"/>
<g style="fill:rgb(0%,0%,0%);fill-opacity:1;">
  <use xlink:href="#glyph2-1" x="336.827" y="21.542"/>
</g>
<g style="fill:rgb(0%,0%,0%);fill-opacity:1;">
  <use xlink:href="#glyph2-2" x="352.148742" y="21.542"/>
  <use xlink:href="#glyph2-3" x="358.74082" y="21.542"/>
  <use xlink:href="#glyph2-4" x="363.224008" y="21.542"/>
  <use xlink:href="#glyph2-5" x="369.50047" y="21.542"/>
</g>
<g style="fill:rgb(0%,0%,0%);fill-opacity:1;">
  <use xlink:href="#glyph2-4" x="382.2442" y="21.542"/>
  <use xlink:href="#glyph2-6" x="388.520662" y="21.542"/>
</g>
<g style="fill:rgb(0%,0%,0%);fill-opacity:1;">
  <use xlink:href="#glyph2-7" x="402.417826" y="21.542"/>
  <use xlink:href="#glyph2-10" x="415.867389" y="21.542"/>
</g>
</g>
</svg>
