<?xml version="1.0" encoding="UTF-8"?>
<svg xmlns="http://www.w3.org/2000/svg" xmlns:xlink="http://www.w3.org/1999/xlink" width="588.448pt" height="116.609pt" viewBox="0 0 588.448 116.609" version="1.1">
<defs>
<g>
<symbol overflow="visible" id="glyph0-0">
<path style="stroke:none;" d=""/>
</symbol>
<symbol overflow="visible" id="glyph0-1">
<path style="stroke:none;" d="M 5.28125 -3.1875 C 5.28125 -4.140625 5.265625 -6.53125 2.859375 -6.53125 C 0.453125 -6.53125 0.453125 -4.15625 0.453125 -3.1875 C 0.453125 -2.1875 0.453125 0.109375 2.859375 0.109375 C 5.25 0.109375 5.28125 -2.1875 5.28125 -3.1875 Z M 2.859375 -0.25 C 2.5 -0.25 1.9375 -0.46875 1.8125 -1.203125 C 1.71875 -1.71875 1.71875 -2.75 1.71875 -3.296875 C 1.71875 -4.015625 1.71875 -4.671875 1.796875 -5.1875 C 1.921875 -6.078125 2.625 -6.171875 2.859375 -6.171875 C 3.234375 -6.171875 3.640625 -5.984375 3.828125 -5.546875 C 4 -5.171875 4 -4.109375 4 -3.296875 C 4 -2.734375 4 -1.828125 3.921875 -1.3125 C 3.78125 -0.390625 3.15625 -0.25 2.859375 -0.25 Z M 2.859375 -0.25 "/>
</symbol>
<symbol overflow="visible" id="glyph0-2">
<path style="stroke:none;" d="M 5.15625 -2.21875 L 4.6875 -2.21875 C 4.65625 -2.015625 4.5625 -1.375 4.421875 -1.3125 C 4.3125 -1.25 3.5625 -1.25 3.40625 -1.25 L 1.9375 -1.25 C 2.40625 -1.640625 2.9375 -2.0625 3.375 -2.390625 C 4.515625 -3.234375 5.15625 -3.703125 5.15625 -4.640625 C 5.15625 -5.796875 4.109375 -6.53125 2.71875 -6.53125 C 1.5 -6.53125 0.5625 -5.90625 0.5625 -5.015625 C 0.5625 -4.421875 1.046875 -4.28125 1.28125 -4.28125 C 1.609375 -4.28125 2 -4.5 2 -5 C 2 -5.515625 1.578125 -5.671875 1.4375 -5.71875 C 1.71875 -5.953125 2.109375 -6.0625 2.46875 -6.0625 C 3.3125 -6.0625 3.78125 -5.390625 3.78125 -4.640625 C 3.78125 -3.953125 3.40625 -3.265625 2.703125 -2.5625 L 0.703125 -0.515625 C 0.5625 -0.40625 0.5625 -0.375 0.5625 -0.171875 L 0.5625 0 L 4.84375 0 Z M 5.15625 -2.21875 "/>
</symbol>
<symbol overflow="visible" id="glyph0-3">
<path style="stroke:none;" d="M 3.515625 -3.515625 C 4.203125 -3.71875 4.921875 -4.28125 4.921875 -5.140625 C 4.921875 -5.90625 4.171875 -6.53125 2.765625 -6.53125 C 1.578125 -6.53125 0.796875 -5.890625 0.796875 -5.09375 C 0.796875 -4.671875 1.109375 -4.390625 1.484375 -4.390625 C 1.9375 -4.390625 2.1875 -4.71875 2.1875 -5.078125 C 2.1875 -5.65625 1.640625 -5.765625 1.609375 -5.78125 C 1.953125 -6.0625 2.390625 -6.140625 2.703125 -6.140625 C 3.53125 -6.140625 3.5625 -5.5 3.5625 -5.171875 C 3.5625 -5.046875 3.546875 -3.734375 2.515625 -3.671875 C 2.109375 -3.65625 2.078125 -3.65625 2.03125 -3.640625 C 1.9375 -3.625 1.90625 -3.53125 1.90625 -3.46875 C 1.90625 -3.296875 2.015625 -3.296875 2.1875 -3.296875 L 2.625 -3.296875 C 3.71875 -3.296875 3.71875 -2.3125 3.71875 -1.796875 C 3.71875 -1.328125 3.71875 -0.3125 2.6875 -0.3125 C 2.421875 -0.3125 1.90625 -0.359375 1.421875 -0.65625 C 1.75 -0.75 2 -1 2 -1.40625 C 2 -1.859375 1.6875 -2.15625 1.25 -2.15625 C 0.828125 -2.15625 0.484375 -1.890625 0.484375 -1.390625 C 0.484375 -0.484375 1.453125 0.109375 2.734375 0.109375 C 4.515625 0.109375 5.25 -0.890625 5.25 -1.796875 C 5.25 -2.34375 4.953125 -3.203125 3.515625 -3.515625 Z M 3.515625 -3.515625 "/>
</symbol>
<symbol overflow="visible" id="glyph0-4">
<path style="stroke:none;" d="M 6.421875 -6.78125 L 0.390625 -6.78125 L 0.390625 -6.3125 L 1.46875 -6.3125 L 1.46875 -0.46875 L 0.390625 -0.46875 L 0.390625 0 C 0.765625 -0.03125 1.78125 -0.03125 2.21875 -0.03125 C 2.703125 -0.03125 3.78125 -0.03125 4.234375 0 L 4.234375 -0.46875 L 2.875 -0.46875 L 2.875 -3.15625 L 3.375 -3.15625 C 4.34375 -3.15625 4.421875 -2.734375 4.421875 -2 L 4.890625 -2 L 4.890625 -4.796875 L 4.421875 -4.796875 C 4.421875 -4.0625 4.34375 -3.625 3.375 -3.625 L 2.875 -3.625 L 2.875 -6.3125 L 4.28125 -6.3125 C 5.875 -6.3125 6.109375 -5.546875 6.265625 -4.375 L 6.734375 -4.375 Z M 6.421875 -6.78125 "/>
</symbol>
<symbol overflow="visible" id="glyph0-5">
<path style="stroke:none;" d="M 7.640625 -6.671875 C 7.640625 -6.859375 7.640625 -6.953125 7.453125 -6.953125 C 7.359375 -6.953125 7.34375 -6.921875 7.265625 -6.859375 L 6.609375 -6.265625 C 5.984375 -6.765625 5.328125 -6.953125 4.640625 -6.953125 C 2.15625 -6.953125 0.640625 -5.46875 0.640625 -3.421875 C 0.640625 -1.375 2.15625 0.109375 4.640625 0.109375 C 6.515625 0.109375 7.640625 -1.109375 7.640625 -2.265625 C 7.640625 -2.46875 7.5625 -2.46875 7.390625 -2.46875 C 7.265625 -2.46875 7.171875 -2.46875 7.171875 -2.296875 C 7.09375 -0.96875 5.890625 -0.359375 4.890625 -0.359375 C 4.109375 -0.359375 3.265625 -0.59375 2.75 -1.203125 C 2.28125 -1.78125 2.15625 -2.515625 2.15625 -3.421875 C 2.15625 -3.984375 2.1875 -5.046875 2.828125 -5.71875 C 3.46875 -6.375 4.34375 -6.484375 4.859375 -6.484375 C 5.9375 -6.484375 6.875 -5.71875 7.09375 -4.453125 C 7.125 -4.265625 7.140625 -4.25 7.359375 -4.25 C 7.625 -4.25 7.640625 -4.265625 7.640625 -4.53125 Z M 7.640625 -6.671875 "/>
</symbol>
<symbol overflow="visible" id="glyph1-0">
<path style="stroke:none;" d=""/>
</symbol>
<symbol overflow="visible" id="glyph1-1">
<path style="stroke:none;" d="M 2.484375 -2.6875 C 2.484375 -3.078125 2.5625 -4.984375 3.96875 -4.984375 C 3.796875 -4.859375 3.71875 -4.65625 3.71875 -4.4375 C 3.71875 -3.9375 4.109375 -3.734375 4.40625 -3.734375 C 4.703125 -3.734375 5.109375 -3.9375 5.109375 -4.4375 C 5.109375 -5.046875 4.484375 -5.375 3.90625 -5.375 C 2.96875 -5.375 2.5625 -4.546875 2.390625 -4.046875 L 2.375 -4.046875 L 2.375 -5.375 L 0.421875 -5.28125 L 0.421875 -4.765625 C 1.15625 -4.765625 1.25 -4.765625 1.25 -4.296875 L 1.25 -0.515625 L 0.421875 -0.515625 L 0.421875 0 C 0.6875 -0.03125 1.59375 -0.03125 1.921875 -0.03125 C 2.265625 -0.03125 3.234375 -0.03125 3.53125 0 L 3.53125 -0.515625 L 2.484375 -0.515625 Z M 2.484375 -2.6875 "/>
</symbol>
<symbol overflow="visible" id="glyph1-2">
<path style="stroke:none;" d="M 5.40625 -2.640625 C 5.671875 -2.640625 5.75 -2.640625 5.75 -2.9375 C 5.75 -3.296875 5.671875 -4.203125 5.109375 -4.75 C 4.609375 -5.265625 3.9375 -5.421875 3.25 -5.421875 C 1.390625 -5.421875 0.375 -4.203125 0.375 -2.6875 C 0.375 -1.015625 1.609375 0.078125 3.40625 0.078125 C 5.21875 0.078125 5.75 -1.1875 5.75 -1.40625 C 5.75 -1.578125 5.5625 -1.578125 5.5 -1.578125 C 5.3125 -1.578125 5.296875 -1.546875 5.21875 -1.390625 C 4.90625 -0.609375 4.125 -0.359375 3.546875 -0.359375 C 1.8125 -0.359375 1.8125 -1.96875 1.8125 -2.640625 Z M 1.8125 -2.984375 C 1.828125 -3.484375 1.84375 -3.9375 2.09375 -4.375 C 2.3125 -4.75 2.734375 -5.015625 3.25 -5.015625 C 4.53125 -5.015625 4.640625 -3.578125 4.65625 -2.984375 Z M 1.8125 -2.984375 "/>
</symbol>
<symbol overflow="visible" id="glyph1-3">
<path style="stroke:none;" d="M 5.5 -3.578125 C 5.5 -4.671875 4.625 -5.421875 2.9375 -5.421875 C 2.265625 -5.421875 0.859375 -5.359375 0.859375 -4.34375 C 0.859375 -3.84375 1.25 -3.640625 1.5625 -3.640625 C 1.921875 -3.640625 2.265625 -3.890625 2.265625 -4.34375 C 2.265625 -4.5625 2.1875 -4.78125 1.984375 -4.90625 C 2.375 -5.015625 2.671875 -5.015625 2.890625 -5.015625 C 3.703125 -5.015625 4.203125 -4.5625 4.203125 -3.578125 L 4.203125 -3.109375 C 2.3125 -3.109375 0.40625 -2.578125 0.40625 -1.25 C 0.40625 -0.171875 1.796875 0.078125 2.625 0.078125 C 3.53125 0.078125 4.125 -0.4375 4.359375 -0.953125 C 4.359375 -0.515625 4.359375 0 5.5625 0 L 6.1875 0 C 6.4375 0 6.53125 0 6.53125 -0.265625 C 6.53125 -0.515625 6.421875 -0.515625 6.25 -0.515625 C 5.5 -0.53125 5.5 -0.71875 5.5 -0.984375 Z M 4.203125 -1.65625 C 4.203125 -0.53125 3.1875 -0.328125 2.8125 -0.328125 C 2.21875 -0.328125 1.734375 -0.71875 1.734375 -1.265625 C 1.734375 -2.359375 3.03125 -2.71875 4.203125 -2.78125 Z M 4.203125 -1.65625 "/>
</symbol>
<symbol overflow="visible" id="glyph1-4">
<path style="stroke:none;" d="M 4.140625 -8.203125 L 4.140625 -7.6875 C 4.890625 -7.6875 4.96875 -7.6875 4.96875 -7.21875 L 4.96875 -4.8125 C 4.703125 -5.03125 4.1875 -5.375 3.359375 -5.375 C 1.65625 -5.375 0.453125 -4.328125 0.453125 -2.65625 C 0.453125 -0.9375 1.640625 0.078125 3.234375 0.078125 C 3.890625 0.078125 4.453125 -0.15625 4.90625 -0.546875 L 4.90625 0.078125 L 7.046875 0 L 7.046875 -0.515625 C 6.296875 -0.515625 6.21875 -0.515625 6.21875 -0.984375 L 6.21875 -8.296875 Z M 4.90625 -1.203125 C 4.40625 -0.484375 3.796875 -0.328125 3.375 -0.328125 C 1.890625 -0.328125 1.890625 -1.84375 1.890625 -2.625 C 1.890625 -3.1875 1.890625 -3.796875 2.15625 -4.25 C 2.515625 -4.90625 3.234375 -4.984375 3.5 -4.984375 C 4 -4.984375 4.515625 -4.765625 4.90625 -4.25 Z M 4.90625 -1.203125 "/>
</symbol>
<symbol overflow="visible" id="glyph1-5">
<path style="stroke:none;" d="M 2.515625 -4.796875 L 4.25 -4.796875 L 4.25 -5.3125 L 2.515625 -5.3125 L 2.515625 -7.59375 L 2.015625 -7.59375 C 2.015625 -6.40625 1.4375 -5.21875 0.25 -5.1875 L 0.25 -4.796875 L 1.21875 -4.796875 L 1.21875 -1.46875 C 1.21875 -0.203125 2.203125 0.078125 3.0625 0.078125 C 3.9375 0.078125 4.46875 -0.59375 4.46875 -1.484375 L 4.46875 -2.109375 L 3.96875 -2.109375 L 3.96875 -1.5 C 3.96875 -0.703125 3.609375 -0.359375 3.234375 -0.359375 C 2.515625 -0.359375 2.515625 -1.15625 2.515625 -1.4375 Z M 2.515625 -4.796875 "/>
</symbol>
<symbol overflow="visible" id="glyph1-6">
<path style="stroke:none;" d="M 4.03125 -2.953125 L 5.421875 -4.546875 C 5.546875 -4.703125 5.65625 -4.796875 6.640625 -4.796875 L 6.640625 -5.3125 C 5.96875 -5.28125 5.953125 -5.28125 5.546875 -5.28125 C 5.203125 -5.28125 4.6875 -5.28125 4.34375 -5.3125 L 4.34375 -4.796875 C 4.578125 -4.796875 4.828125 -4.734375 4.828125 -4.65625 C 4.828125 -4.625 4.765625 -4.546875 4.75 -4.515625 L 3.703125 -3.34375 L 2.515625 -4.796875 L 3.03125 -4.796875 L 3.03125 -5.3125 C 2.75 -5.28125 1.9375 -5.28125 1.609375 -5.28125 C 1.25 -5.28125 0.609375 -5.28125 0.28125 -5.3125 L 0.28125 -4.796875 L 1.125 -4.796875 L 2.984375 -2.515625 L 1.4375 -0.765625 C 1.296875 -0.59375 1.203125 -0.515625 0.21875 -0.515625 L 0.21875 0 C 0.9375 -0.03125 0.953125 -0.03125 1.328125 -0.03125 C 1.671875 -0.03125 2.171875 -0.03125 2.515625 0 L 2.515625 -0.515625 C 2.28125 -0.515625 2.03125 -0.578125 2.03125 -0.65625 C 2.03125 -0.671875 2.03125 -0.6875 2.109375 -0.78125 L 3.3125 -2.125 L 4.640625 -0.515625 L 4.140625 -0.515625 L 4.140625 0 C 4.421875 -0.03125 5.21875 -0.03125 5.5625 -0.03125 C 5.921875 -0.03125 6.546875 -0.03125 6.890625 0 L 6.890625 -0.515625 L 6.046875 -0.515625 Z M 4.03125 -2.953125 "/>
</symbol>
<symbol overflow="visible" id="glyph1-7">
<path style="stroke:none;" d="M 6.34375 -3.65625 C 6.34375 -4.796875 5.859375 -5.375 4.546875 -5.375 C 3.328125 -5.375 2.75 -4.53125 2.578125 -4.171875 L 2.5625 -4.171875 L 2.5625 -8.296875 L 0.5 -8.203125 L 0.5 -7.6875 C 1.25 -7.6875 1.328125 -7.6875 1.328125 -7.21875 L 1.328125 -0.515625 L 0.5 -0.515625 L 0.5 0 C 0.78125 -0.03125 1.640625 -0.03125 1.96875 -0.03125 C 2.3125 -0.03125 3.171875 -0.03125 3.453125 0 L 3.453125 -0.515625 L 2.625 -0.515625 L 2.625 -3.0625 C 2.625 -4.34375 3.578125 -4.984375 4.34375 -4.984375 C 4.796875 -4.984375 5.046875 -4.703125 5.046875 -3.796875 L 5.046875 -0.515625 L 4.21875 -0.515625 L 4.21875 0 C 4.5 -0.03125 5.359375 -0.03125 5.6875 -0.03125 C 6.03125 -0.03125 6.890625 -0.03125 7.171875 0 L 7.171875 -0.515625 L 6.34375 -0.515625 Z M 6.34375 -3.65625 "/>
</symbol>
<symbol overflow="visible" id="glyph1-8">
<path style="stroke:none;" d="M 2.671875 -7.453125 C 2.671875 -7.9375 2.265625 -8.3125 1.8125 -8.3125 C 1.3125 -8.3125 0.9375 -7.90625 0.9375 -7.453125 C 0.9375 -7 1.3125 -6.59375 1.8125 -6.59375 C 2.265625 -6.59375 2.671875 -6.953125 2.671875 -7.453125 Z M 0.5625 -5.28125 L 0.5625 -4.765625 C 1.265625 -4.765625 1.34375 -4.765625 1.34375 -4.296875 L 1.34375 -0.515625 L 0.53125 -0.515625 L 0.53125 0 C 0.796875 -0.03125 1.625 -0.03125 1.953125 -0.03125 C 2.28125 -0.03125 3.046875 -0.03125 3.328125 0 L 3.328125 -0.515625 L 2.59375 -0.515625 L 2.59375 -5.375 Z M 0.5625 -5.28125 "/>
</symbol>
<symbol overflow="visible" id="glyph1-9">
<path style="stroke:none;" d="M 2.59375 -8.296875 L 0.53125 -8.203125 L 0.53125 -7.6875 C 1.265625 -7.6875 1.34375 -7.6875 1.34375 -7.21875 L 1.34375 -0.515625 L 0.53125 -0.515625 L 0.53125 0 C 0.796875 -0.03125 1.65625 -0.03125 1.96875 -0.03125 C 2.296875 -0.03125 3.140625 -0.03125 3.421875 0 L 3.421875 -0.515625 L 2.59375 -0.515625 Z M 2.59375 -8.296875 "/>
</symbol>
</g>
<clipPath id="clip1">
  <path d="M 346 51 L 459 51 L 459 116.609375 L 346 116.609375 Z M 346 51 "/>
</clipPath>
<clipPath id="clip2">
  <path d="M 420 51 L 533 51 L 533 116.609375 L 420 116.609375 Z M 420 51 "/>
</clipPath>
</defs>
<g id="surface1">
<path style="fill-rule:nonzero;fill:rgb(79.998779%,79.998779%,79.998779%);fill-opacity:1;stroke-width:1.59404;stroke-linecap:butt;stroke-linejoin:miter;stroke:rgb(0%,0%,0%);stroke-opacity:1;stroke-miterlimit:10;" d="M -9.922375 -9.920594 L 9.921375 -9.920594 L 9.921375 9.923156 L -9.922375 9.923156 Z M -9.922375 -9.920594 " transform="matrix(1,0,0,-1,36.313,16.388)"/>
<path style="fill-rule:nonzero;fill:rgb(79.998779%,79.998779%,79.998779%);fill-opacity:1;stroke-width:1.59404;stroke-linecap:butt;stroke-linejoin:miter;stroke:rgb(0%,0%,0%);stroke-opacity:1;stroke-miterlimit:10;" d="M 9.921375 -9.920594 L 29.765125 -9.920594 L 29.765125 9.923156 L 9.921375 9.923156 Z M 9.921375 -9.920594 " transform="matrix(1,0,0,-1,36.313,16.388)"/>
<path style="fill-rule:nonzero;fill:rgb(79.998779%,79.998779%,79.998779%);fill-opacity:1;stroke-width:1.59404;stroke-linecap:butt;stroke-linejoin:miter;stroke:rgb(0%,0%,0%);stroke-opacity:1;stroke-miterlimit:10;" d="M 29.765125 -9.920594 L 49.604969 -9.920594 L 49.604969 9.923156 L 29.765125 9.923156 Z M 29.765125 -9.920594 " transform="matrix(1,0,0,-1,36.313,16.388)"/>
<path style="fill-rule:nonzero;fill:rgb(79.998779%,79.998779%,79.998779%);fill-opacity:1;stroke-width:1.59404;stroke-linecap:butt;stroke-linejoin:miter;stroke:rgb(0%,0%,0%);stroke-opacity:1;stroke-miterlimit:10;" d="M 49.608875 -9.920594 L 69.448719 -9.920594 L 69.448719 9.923156 L 49.608875 9.923156 Z M 49.608875 -9.920594 " transform="matrix(1,0,0,-1,36.313,16.388)"/>
<path style="fill-rule:nonzero;fill:rgb(79.998779%,79.998779%,79.998779%);fill-opacity:1;stroke-width:1.59404;stroke-linecap:butt;stroke-linejoin:miter;stroke:rgb(0%,0%,0%);stroke-opacity:1;stroke-miterlimit:10;" d="M 69.448719 -9.920594 L 89.292469 -9.920594 L 89.292469 9.923156 L 69.448719 9.923156 Z M 69.448719 -9.920594 " transform="matrix(1,0,0,-1,36.313,16.388)"/>
<path style="fill-rule:nonzero;fill:rgb(79.998779%,79.998779%,79.998779%);fill-opacity:1;stroke-width:1.59404;stroke-linecap:butt;stroke-linejoin:miter;stroke:rgb(0%,0%,0%);stroke-opacity:1;stroke-miterlimit:10;" d="M 89.292469 -9.920594 L 109.136219 -9.920594 L 109.136219 9.923156 L 89.292469 9.923156 Z M 89.292469 -9.920594 " transform="matrix(1,0,0,-1,36.313,16.388)"/>
<path style="fill-rule:nonzero;fill:rgb(79.998779%,79.998779%,79.998779%);fill-opacity:1;stroke-width:1.59404;stroke-linecap:butt;stroke-linejoin:miter;stroke:rgb(0%,0%,0%);stroke-opacity:1;stroke-miterlimit:10;" d="M 109.136219 -9.920594 L 128.976063 -9.920594 L 128.976063 9.923156 L 109.136219 9.923156 Z M 109.136219 -9.920594 " transform="matrix(1,0,0,-1,36.313,16.388)"/>
<path style="fill-rule:nonzero;fill:rgb(79.998779%,79.998779%,79.998779%);fill-opacity:1;stroke-width:1.59404;stroke-linecap:butt;stroke-linejoin:miter;stroke:rgb(0%,0%,0%);stroke-opacity:1;stroke-miterlimit:10;" d="M 128.979969 -9.920594 L 148.819813 -9.920594 L 148.819813 9.923156 L 128.979969 9.923156 Z M 128.979969 -9.920594 " transform="matrix(1,0,0,-1,36.313,16.388)"/>
<path style="fill-rule:nonzero;fill:rgb(79.998779%,79.998779%,79.998779%);fill-opacity:1;stroke-width:1.59404;stroke-linecap:butt;stroke-linejoin:miter;stroke:rgb(0%,0%,0%);stroke-opacity:1;stroke-miterlimit:10;" d="M 148.819813 -9.920594 L 168.663563 -9.920594 L 168.663563 9.923156 L 148.819813 9.923156 Z M 148.819813 -9.920594 " transform="matrix(1,0,0,-1,36.313,16.388)"/>
<path style="fill-rule:nonzero;fill:rgb(79.998779%,79.998779%,79.998779%);fill-opacity:1;stroke-width:1.59404;stroke-linecap:butt;stroke-linejoin:miter;stroke:rgb(0%,0%,0%);stroke-opacity:1;stroke-miterlimit:10;" d="M 168.663563 -9.920594 L 188.507313 -9.920594 L 188.507313 9.923156 L 168.663563 9.923156 Z M 168.663563 -9.920594 " transform="matrix(1,0,0,-1,36.313,16.388)"/>
<path style="fill-rule:nonzero;fill:rgb(79.998779%,79.998779%,79.998779%);fill-opacity:1;stroke-width:1.59404;stroke-linecap:butt;stroke-linejoin:miter;stroke:rgb(0%,0%,0%);stroke-opacity:1;stroke-miterlimit:10;" d="M 188.507313 -9.920594 L 208.347156 -9.920594 L 208.347156 9.923156 L 188.507313 9.923156 Z M 188.507313 -9.920594 " transform="matrix(1,0,0,-1,36.313,16.388)"/>
<path style="fill-rule:nonzero;fill:rgb(79.998779%,79.998779%,79.998779%);fill-opacity:1;stroke-width:1.59404;stroke-linecap:butt;stroke-linejoin:miter;stroke:rgb(0%,0%,0%);stroke-opacity:1;stroke-miterlimit:10;" d="M 208.351063 -9.920594 L 228.190906 -9.920594 L 228.190906 9.923156 L 208.351063 9.923156 Z M 208.351063 -9.920594 " transform="matrix(1,0,0,-1,36.313,16.388)"/>
<path style="fill-rule:nonzero;fill:rgb(79.998779%,79.998779%,79.998779%);fill-opacity:1;stroke-width:1.59404;stroke-linecap:butt;stroke-linejoin:miter;stroke:rgb(0%,0%,0%);stroke-opacity:1;stroke-miterlimit:10;" d="M 228.190906 -9.920594 L 248.034656 -9.920594 L 248.034656 9.923156 L 228.190906 9.923156 Z M 228.190906 -9.920594 " transform="matrix(1,0,0,-1,36.313,16.388)"/>
<path style="fill-rule:nonzero;fill:rgb(79.998779%,79.998779%,79.998779%);fill-opacity:1;stroke-width:1.59404;stroke-linecap:butt;stroke-linejoin:miter;stroke:rgb(0%,0%,0%);stroke-opacity:1;stroke-miterlimit:10;" d="M 248.034656 -9.920594 L 267.878406 -9.920594 L 267.878406 9.923156 L 248.034656 9.923156 Z M 248.034656 -9.920594 " transform="matrix(1,0,0,-1,36.313,16.388)"/>
<path style="fill-rule:nonzero;fill:rgb(79.998779%,79.998779%,79.998779%);fill-opacity:1;stroke-width:1.59404;stroke-linecap:butt;stroke-linejoin:miter;stroke:rgb(0%,0%,0%);stroke-opacity:1;stroke-miterlimit:10;" d="M 267.878406 -9.920594 L 287.722156 -9.920594 L 287.722156 9.923156 L 267.878406 9.923156 Z M 267.878406 -9.920594 " transform="matrix(1,0,0,-1,36.313,16.388)"/>
<path style="fill-rule:nonzero;fill:rgb(79.998779%,79.998779%,79.998779%);fill-opacity:1;stroke-width:1.59404;stroke-linecap:butt;stroke-linejoin:miter;stroke:rgb(0%,0%,0%);stroke-opacity:1;stroke-miterlimit:10;" d="M 287.722156 -9.920594 L 307.562 -9.920594 L 307.562 9.923156 L 287.722156 9.923156 Z M 287.722156 -9.920594 " transform="matrix(1,0,0,-1,36.313,16.388)"/>
<path style="fill-rule:nonzero;fill:rgb(79.998779%,79.998779%,79.998779%);fill-opacity:1;stroke-width:1.59404;stroke-linecap:butt;stroke-linejoin:miter;stroke:rgb(0%,0%,0%);stroke-opacity:1;stroke-miterlimit:10;" d="M 307.562 -9.920594 L 327.40575 -9.920594 L 327.40575 9.923156 L 307.562 9.923156 Z M 307.562 -9.920594 " transform="matrix(1,0,0,-1,36.313,16.388)"/>
<path style="fill-rule:nonzero;fill:rgb(79.998779%,79.998779%,79.998779%);fill-opacity:1;stroke-width:1.59404;stroke-linecap:butt;stroke-linejoin:miter;stroke:rgb(0%,0%,0%);stroke-opacity:1;stroke-miterlimit:10;" d="M 327.40575 -9.920594 L 347.2495 -9.920594 L 347.2495 9.923156 L 327.40575 9.923156 Z M 327.40575 -9.920594 " transform="matrix(1,0,0,-1,36.313,16.388)"/>
<path style="fill-rule:nonzero;fill:rgb(79.998779%,79.998779%,79.998779%);fill-opacity:1;stroke-width:1.59404;stroke-linecap:butt;stroke-linejoin:miter;stroke:rgb(0%,0%,0%);stroke-opacity:1;stroke-miterlimit:10;" d="M 347.2495 -9.920594 L 367.09325 -9.920594 L 367.09325 9.923156 L 347.2495 9.923156 Z M 347.2495 -9.920594 " transform="matrix(1,0,0,-1,36.313,16.388)"/>
<path style="fill-rule:nonzero;fill:rgb(79.214478%,85.488892%,96.470642%);fill-opacity:1;stroke-width:1.59404;stroke-linecap:butt;stroke-linejoin:miter;stroke:rgb(0%,0%,0%);stroke-opacity:1;stroke-miterlimit:10;" d="M 367.09325 -9.920594 L 386.933094 -9.920594 L 386.933094 9.923156 L 367.09325 9.923156 Z M 367.09325 -9.920594 " transform="matrix(1,0,0,-1,36.313,16.388)"/>
<g style="fill:rgb(0%,0%,0%);fill-opacity:1;">
  <use xlink:href="#glyph0-1" x="407.592" y="18.779"/>
  <use xlink:href="#glyph0-1" x="413.320495" y="18.779"/>
</g>
<path style="fill-rule:nonzero;fill:rgb(98.823547%,95.684814%,86.66687%);fill-opacity:1;stroke-width:1.59404;stroke-linecap:butt;stroke-linejoin:miter;stroke:rgb(0%,0%,0%);stroke-opacity:1;stroke-miterlimit:10;" d="M 386.933094 -9.920594 L 406.776844 -9.920594 L 406.776844 9.923156 L 386.933094 9.923156 Z M 386.933094 -9.920594 " transform="matrix(1,0,0,-1,36.313,16.388)"/>
<g style="fill:rgb(0%,0%,0%);fill-opacity:1;">
  <use xlink:href="#glyph0-1" x="427.435" y="18.779"/>
  <use xlink:href="#glyph0-2" x="433.163495" y="18.779"/>
</g>
<path style="fill-rule:nonzero;fill:rgb(98.823547%,95.684814%,86.66687%);fill-opacity:1;stroke-width:1.59404;stroke-linecap:butt;stroke-linejoin:miter;stroke:rgb(0%,0%,0%);stroke-opacity:1;stroke-miterlimit:10;" d="M 406.776844 -9.920594 L 426.620594 -9.920594 L 426.620594 9.923156 L 406.776844 9.923156 Z M 406.776844 -9.920594 " transform="matrix(1,0,0,-1,36.313,16.388)"/>
<g style="fill:rgb(0%,0%,0%);fill-opacity:1;">
  <use xlink:href="#glyph0-3" x="446.537" y="18.779"/>
  <use xlink:href="#glyph0-4" x="452.265495" y="18.779"/>
</g>
<path style="fill-rule:nonzero;fill:rgb(98.823547%,95.684814%,86.66687%);fill-opacity:1;stroke-width:1.59404;stroke-linecap:butt;stroke-linejoin:miter;stroke:rgb(0%,0%,0%);stroke-opacity:1;stroke-miterlimit:10;" d="M 425.636219 -9.920594 L 447.444813 -9.920594 L 447.444813 9.923156 L 425.636219 9.923156 Z M 425.636219 -9.920594 " transform="matrix(1,0,0,-1,36.313,16.388)"/>
<g style="fill:rgb(0%,0%,0%);fill-opacity:1;">
  <use xlink:href="#glyph0-4" x="465.266" y="18.779"/>
</g>
<g style="fill:rgb(0%,0%,0%);fill-opacity:1;">
  <use xlink:href="#glyph0-5" x="472.156134" y="18.779"/>
</g>
<path style="fill-rule:nonzero;fill:rgb(79.998779%,79.998779%,79.998779%);fill-opacity:1;stroke-width:1.59404;stroke-linecap:butt;stroke-linejoin:miter;stroke:rgb(0%,0%,0%);stroke-opacity:1;stroke-miterlimit:10;" d="M 446.464344 -9.920594 L 466.304188 -9.920594 L 466.304188 9.923156 L 446.464344 9.923156 Z M 446.464344 -9.920594 " transform="matrix(1,0,0,-1,36.313,16.388)"/>
<path style="fill-rule:nonzero;fill:rgb(79.998779%,79.998779%,79.998779%);fill-opacity:1;stroke-width:1.59404;stroke-linecap:butt;stroke-linejoin:miter;stroke:rgb(0%,0%,0%);stroke-opacity:1;stroke-miterlimit:10;" d="M 466.304188 -9.920594 L 486.147938 -9.920594 L 486.147938 9.923156 L 466.304188 9.923156 Z M 466.304188 -9.920594 " transform="matrix(1,0,0,-1,36.313,16.388)"/>
<path style="fill-rule:nonzero;fill:rgb(79.998779%,79.998779%,79.998779%);fill-opacity:1;stroke-width:1.59404;stroke-linecap:butt;stroke-linejoin:miter;stroke:rgb(0%,0%,0%);stroke-opacity:1;stroke-miterlimit:10;" d="M 486.147938 -9.920594 L 505.991688 -9.920594 L 505.991688 9.923156 L 486.147938 9.923156 Z M 486.147938 -9.920594 " transform="matrix(1,0,0,-1,36.313,16.388)"/>
<path style="fill-rule:nonzero;fill:rgb(79.998779%,79.998779%,79.998779%);fill-opacity:1;stroke-width:1.59404;stroke-linecap:butt;stroke-linejoin:miter;stroke:rgb(0%,0%,0%);stroke-opacity:1;stroke-miterlimit:10;" d="M 505.991688 -9.920594 L 525.835438 -9.920594 L 525.835438 9.923156 L 505.991688 9.923156 Z M 505.991688 -9.920594 " transform="matrix(1,0,0,-1,36.313,16.388)"/>
<path style="fill-rule:nonzero;fill:rgb(79.998779%,79.998779%,79.998779%);fill-opacity:1;stroke-width:1.59404;stroke-linecap:butt;stroke-linejoin:miter;stroke:rgb(0%,0%,0%);stroke-opacity:1;stroke-miterlimit:10;" d="M 525.835438 -9.920594 L 545.675281 -9.920594 L 545.675281 9.923156 L 525.835438 9.923156 Z M 525.835438 -9.920594 " transform="matrix(1,0,0,-1,36.313,16.388)"/>
<g clip-path="url(#clip1)" clip-rule="nonzero">
<path style="fill:none;stroke-width:1.59404;stroke-linecap:butt;stroke-linejoin:miter;stroke:rgb(0%,0%,0%);stroke-opacity:1;stroke-miterlimit:10;" d="M 399.675281 -63.20575 L 396.819813 -60.346375 L 393.960438 -57.490906 L 338.628406 -57.490906 L 335.769031 -60.346375 L 332.913563 -63.20575 L 332.913563 -88.041688 L 335.769031 -90.901063 L 338.628406 -93.756531 L 393.960438 -93.756531 L 396.819813 -90.901063 L 399.675281 -88.041688 Z M 399.675281 -63.20575 " transform="matrix(1,0,0,-1,36.313,16.388)"/>
</g>
<g style="fill:rgb(0%,0%,0%);fill-opacity:1;">
  <use xlink:href="#glyph1-1" x="381.377" y="88.424"/>
  <use xlink:href="#glyph1-2" x="386.870414" y="88.424"/>
  <use xlink:href="#glyph1-3" x="393.007019" y="88.424"/>
  <use xlink:href="#glyph1-4" x="399.545317" y="88.424"/>
</g>
<g style="fill:rgb(0%,0%,0%);fill-opacity:1;">
  <use xlink:href="#glyph1-5" x="411.500517" y="88.424"/>
  <use xlink:href="#glyph1-6" x="416.730917" y="88.424"/>
</g>
<g style="fill:rgb(0%,0%,0%);fill-opacity:1;">
  <use xlink:href="#glyph1-7" x="388.793" y="100.379"/>
  <use xlink:href="#glyph1-2" x="396.265" y="100.379"/>
  <use xlink:href="#glyph1-3" x="402.401604" y="100.379"/>
  <use xlink:href="#glyph1-4" x="408.939903" y="100.379"/>
</g>
<g clip-path="url(#clip2)" clip-rule="nonzero">
<path style="fill:none;stroke-width:1.59404;stroke-linecap:butt;stroke-linejoin:miter;stroke:rgb(0%,0%,0%);stroke-opacity:1;stroke-miterlimit:10;" d="M 473.702625 -63.20575 L 467.987781 -57.490906 L 412.651844 -57.490906 L 406.937 -63.20575 L 406.937 -88.041688 L 412.651844 -93.756531 L 467.987781 -93.756531 L 473.702625 -88.041688 Z M 473.702625 -63.20575 " transform="matrix(1,0,0,-1,36.313,16.388)"/>
</g>
<g style="fill:rgb(0%,0%,0%);fill-opacity:1;">
  <use xlink:href="#glyph1-1" x="455.402" y="88.424"/>
  <use xlink:href="#glyph1-2" x="460.895414" y="88.424"/>
  <use xlink:href="#glyph1-3" x="467.032019" y="88.424"/>
  <use xlink:href="#glyph1-4" x="473.570317" y="88.424"/>
</g>
<g style="fill:rgb(0%,0%,0%);fill-opacity:1;">
  <use xlink:href="#glyph1-5" x="485.525517" y="88.424"/>
  <use xlink:href="#glyph1-6" x="490.755917" y="88.424"/>
</g>
<g style="fill:rgb(0%,0%,0%);fill-opacity:1;">
  <use xlink:href="#glyph1-5" x="467.007" y="100.379"/>
  <use xlink:href="#glyph1-3" x="472.2374" y="100.379"/>
  <use xlink:href="#glyph1-8" x="478.775699" y="100.379"/>
  <use xlink:href="#glyph1-9" x="482.511699" y="100.379"/>
</g>
<path style="fill:none;stroke-width:1.59404;stroke-linecap:butt;stroke-linejoin:miter;stroke:rgb(0%,0%,0%);stroke-opacity:1;stroke-miterlimit:10;" d="M 366.292469 -56.694031 L 366.292469 -24.096375 " transform="matrix(1,0,0,-1,36.313,16.388)"/>
<path style="fill-rule:nonzero;fill:rgb(0%,0%,0%);fill-opacity:1;stroke-width:1.59404;stroke-linecap:butt;stroke-linejoin:miter;stroke:rgb(0%,0%,0%);stroke-opacity:1;stroke-miterlimit:10;" d="M 7.346041 0.00186125 C 6.443697 0.134674 2.478854 0.912017 -0.001615 1.751861 L -0.001615 -1.752045 C 2.478854 -0.908295 6.443697 -0.134858 7.346041 0.00186125 Z M 7.346041 0.00186125 " transform="matrix(0,-1,-1,0,402.60733,40.48276)"/>
<path style="fill:none;stroke-width:1.59404;stroke-linecap:butt;stroke-linejoin:miter;stroke:rgb(0%,0%,0%);stroke-opacity:1;stroke-miterlimit:10;" d="M 440.319813 -56.694031 L 377.65575 -17.776063 " transform="matrix(1,0,0,-1,36.313,16.388)"/>
<path style="fill-rule:nonzero;fill:rgb(0%,0%,0%);fill-opacity:1;stroke-width:1.59404;stroke-linecap:butt;stroke-linejoin:miter;stroke:rgb(0%,0%,0%);stroke-opacity:1;stroke-miterlimit:10;" d="M 7.344945 0.000759536 C 6.44305 0.134998 2.480044 0.911054 -0.00120752 1.752053 L -0.000390936 -1.751463 C 2.479841 -0.91006 6.441864 -0.137048 7.344945 0.000759536 Z M 7.344945 0.000759536 " transform="matrix(-0.84947,-0.52757,-0.52757,0.84947,413.97018,34.16339)"/>
</g>
</svg>
