<?xml version="1.0" encoding="UTF-8"?>
<svg xmlns="http://www.w3.org/2000/svg" xmlns:xlink="http://www.w3.org/1999/xlink" width="852.867pt" height="378.32pt" viewBox="0 0 852.867 378.32" version="1.1">
<defs>
<g>
<symbol overflow="visible" id="glyph0-0">
<path style="stroke:none;" d=""/>
</symbol>
<symbol overflow="visible" id="glyph0-1">
<path style="stroke:none;" d="M 7.609375 -4.390625 C 7.609375 -5.75 7.03125 -6.453125 5.453125 -6.453125 C 4.421875 -6.453125 3.53125 -5.953125 3.046875 -4.875 L 3.03125 -4.875 L 3.03125 -6.453125 L 0.609375 -6.34375 L 0.609375 -5.71875 C 1.484375 -5.71875 1.59375 -5.71875 1.59375 -5.15625 L 1.59375 -0.609375 L 0.609375 -0.609375 L 0.609375 0 C 0.9375 -0.03125 1.96875 -0.03125 2.359375 -0.03125 C 2.765625 -0.03125 3.8125 -0.03125 4.140625 0 L 4.140625 -0.609375 L 3.15625 -0.609375 L 3.15625 -3.671875 C 3.15625 -5.21875 4.296875 -5.984375 5.21875 -5.984375 C 5.75 -5.984375 6.046875 -5.640625 6.046875 -4.546875 L 6.046875 -0.609375 L 5.0625 -0.609375 L 5.0625 0 C 5.390625 -0.03125 6.421875 -0.03125 6.828125 -0.03125 C 7.234375 -0.03125 8.28125 -0.03125 8.609375 0 L 8.609375 -0.609375 L 7.609375 -0.609375 Z M 7.609375 -4.390625 "/>
</symbol>
<symbol overflow="visible" id="glyph0-2">
<path style="stroke:none;" d="M 5.0625 -6.34375 L 5.0625 -5.71875 C 5.953125 -5.71875 6.046875 -5.71875 6.046875 -5.15625 L 6.046875 -2.359375 C 6.046875 -1.265625 5.40625 -0.390625 4.28125 -0.390625 C 3.21875 -0.390625 3.15625 -0.75 3.15625 -1.53125 L 3.15625 -6.453125 L 0.609375 -6.34375 L 0.609375 -5.71875 C 1.484375 -5.71875 1.59375 -5.71875 1.59375 -5.15625 L 1.59375 -1.765625 C 1.59375 -0.328125 2.546875 0.09375 4.09375 0.09375 C 4.4375 0.09375 5.5 0.09375 6.109375 -1.078125 L 6.125 -1.078125 L 6.125 0.09375 L 8.609375 0 L 8.609375 -0.609375 C 7.71875 -0.609375 7.609375 -0.609375 7.609375 -1.171875 L 7.609375 -6.453125 Z M 5.0625 -6.34375 "/>
</symbol>
<symbol overflow="visible" id="glyph0-3">
<path style="stroke:none;" d="M 7.609375 -3.140625 C 7.609375 -5.078125 6.28125 -6.5 4.03125 -6.5 C 1.6875 -6.5 0.4375 -5 0.4375 -3.140625 C 0.4375 -1.265625 1.765625 0.09375 4.015625 0.09375 C 6.359375 0.09375 7.609375 -1.328125 7.609375 -3.140625 Z M 4.03125 -0.4375 C 2.171875 -0.4375 2.171875 -2.109375 2.171875 -3.28125 C 2.171875 -3.953125 2.171875 -4.671875 2.4375 -5.1875 C 2.75 -5.765625 3.40625 -6.03125 4.015625 -6.03125 C 4.828125 -6.03125 5.34375 -5.640625 5.59375 -5.234375 C 5.875 -4.71875 5.875 -3.96875 5.875 -3.28125 C 5.875 -2.09375 5.875 -0.4375 4.03125 -0.4375 Z M 4.03125 -0.4375 "/>
</symbol>
<symbol overflow="visible" id="glyph0-4">
<path style="stroke:none;" d="M 5.40625 -6.125 C 5.40625 -6.390625 5.40625 -6.5 5.1875 -6.5 C 5.109375 -6.5 5.078125 -6.5 4.859375 -6.375 C 4.8125 -6.328125 4.640625 -6.21875 4.578125 -6.1875 C 4.171875 -6.40625 3.640625 -6.5 3.125 -6.5 C 2.703125 -6.5 0.546875 -6.5 0.546875 -4.640625 C 0.546875 -3.125 2.328125 -2.8125 2.765625 -2.734375 C 3.15625 -2.671875 3.625 -2.578125 3.6875 -2.578125 C 4.265625 -2.453125 4.828125 -2.09375 4.828125 -1.484375 C 4.828125 -0.390625 3.53125 -0.390625 3.234375 -0.390625 C 2.5 -0.390625 1.59375 -0.609375 1.1875 -2.015625 C 1.109375 -2.296875 1.09375 -2.3125 0.84375 -2.3125 C 0.546875 -2.3125 0.546875 -2.265625 0.546875 -1.9375 L 0.546875 -0.28125 C 0.546875 -0.015625 0.546875 0.09375 0.765625 0.09375 C 0.859375 0.09375 0.890625 0.09375 1.171875 -0.140625 L 1.546875 -0.421875 C 2.1875 0.09375 2.96875 0.09375 3.234375 0.09375 C 4.015625 0.09375 5.8125 -0.09375 5.8125 -2 C 5.8125 -2.6875 5.4375 -3.15625 5.15625 -3.40625 C 4.5625 -3.90625 4.078125 -3.984375 3.296875 -4.125 C 2.375 -4.28125 1.515625 -4.453125 1.515625 -5.140625 C 1.515625 -6.0625 2.796875 -6.0625 3.09375 -6.0625 C 4.6875 -6.0625 4.78125 -5.0625 4.8125 -4.703125 C 4.8125 -4.515625 4.9375 -4.515625 5.109375 -4.515625 C 5.40625 -4.515625 5.40625 -4.5625 5.40625 -4.890625 Z M 5.40625 -6.125 "/>
</symbol>
<symbol overflow="visible" id="glyph0-5">
<path style="stroke:none;" d="M 4.984375 -9.84375 L 4.984375 -9.21875 C 5.859375 -9.21875 5.96875 -9.21875 5.96875 -8.65625 L 5.96875 -5.765625 C 5.65625 -6.03125 5.015625 -6.453125 4.03125 -6.453125 C 2 -6.453125 0.546875 -5.1875 0.546875 -3.1875 C 0.546875 -1.140625 1.96875 0.09375 3.875 0.09375 C 4.65625 0.09375 5.328125 -0.1875 5.890625 -0.65625 L 5.890625 0.09375 L 8.453125 0 L 8.453125 -0.609375 C 7.5625 -0.609375 7.453125 -0.609375 7.453125 -1.171875 L 7.453125 -9.953125 Z M 5.890625 -1.453125 C 5.296875 -0.578125 4.5625 -0.390625 4.046875 -0.390625 C 2.265625 -0.390625 2.265625 -2.203125 2.265625 -3.15625 C 2.265625 -3.828125 2.265625 -4.546875 2.578125 -5.09375 C 3.03125 -5.890625 3.875 -5.984375 4.203125 -5.984375 C 4.796875 -5.984375 5.421875 -5.71875 5.890625 -5.09375 Z M 5.890625 -1.453125 "/>
</symbol>
<symbol overflow="visible" id="glyph0-6">
<path style="stroke:none;" d="M 3.203125 -8.9375 C 3.203125 -9.53125 2.71875 -9.96875 2.171875 -9.96875 C 1.578125 -9.96875 1.140625 -9.484375 1.140625 -8.9375 C 1.140625 -8.390625 1.578125 -7.90625 2.171875 -7.90625 C 2.71875 -7.90625 3.203125 -8.34375 3.203125 -8.9375 Z M 0.671875 -6.34375 L 0.671875 -5.71875 C 1.515625 -5.71875 1.625 -5.71875 1.625 -5.15625 L 1.625 -0.609375 L 0.625 -0.609375 L 0.625 0 C 0.96875 -0.03125 1.953125 -0.03125 2.34375 -0.03125 C 2.734375 -0.03125 3.65625 -0.03125 4 0 L 4 -0.609375 L 3.109375 -0.609375 L 3.109375 -6.453125 Z M 0.671875 -6.34375 "/>
</symbol>
<symbol overflow="visible" id="glyph0-7">
<path style="stroke:none;" d="M 6.71875 -1.671875 C 6.71875 -1.84375 6.5625 -1.84375 6.40625 -1.84375 C 6.1875 -1.84375 6.171875 -1.84375 6.09375 -1.65625 C 6 -1.390625 5.609375 -0.4375 4.28125 -0.4375 C 2.265625 -0.4375 2.265625 -2.609375 2.265625 -3.25 C 2.265625 -4.109375 2.28125 -5.984375 4.15625 -5.984375 C 4.265625 -5.984375 5.109375 -5.953125 5.109375 -5.875 C 5.109375 -5.859375 5.09375 -5.859375 5.0625 -5.84375 C 5.015625 -5.796875 4.828125 -5.578125 4.828125 -5.21875 C 4.828125 -4.625 5.328125 -4.375 5.6875 -4.375 C 5.984375 -4.375 6.53125 -4.5625 6.53125 -5.234375 C 6.53125 -6.40625 4.875 -6.5 4.109375 -6.5 C 1.546875 -6.5 0.546875 -4.828125 0.546875 -3.1875 C 0.546875 -1.234375 1.90625 0.09375 4.015625 0.09375 C 6.265625 0.09375 6.71875 -1.578125 6.71875 -1.671875 Z M 6.71875 -1.671875 "/>
</symbol>
<symbol overflow="visible" id="glyph0-8">
<path style="stroke:none;" d="M 3.03125 -5.75 L 5.09375 -5.75 L 5.09375 -6.375 L 3.03125 -6.375 L 3.03125 -9.109375 L 2.421875 -9.109375 C 2.40625 -7.6875 1.71875 -6.265625 0.296875 -6.21875 L 0.296875 -5.75 L 1.46875 -5.75 L 1.46875 -1.765625 C 1.46875 -0.25 2.640625 0.09375 3.671875 0.09375 C 4.734375 0.09375 5.359375 -0.71875 5.359375 -1.78125 L 5.359375 -2.53125 L 4.765625 -2.53125 L 4.765625 -1.796875 C 4.765625 -0.84375 4.328125 -0.4375 3.890625 -0.4375 C 3.03125 -0.4375 3.03125 -1.390625 3.03125 -1.71875 Z M 3.03125 -5.75 "/>
</symbol>
<symbol overflow="visible" id="glyph0-9">
<path style="stroke:none;" d="M 7.09375 -5.421875 C 7.203125 -5.640625 7.265625 -5.75 8.15625 -5.75 L 8.15625 -6.375 C 7.640625 -6.34375 7.609375 -6.34375 7.03125 -6.34375 C 6.640625 -6.34375 6.609375 -6.34375 5.796875 -6.375 L 5.796875 -5.75 C 6.1875 -5.75 6.5 -5.6875 6.5 -5.578125 C 6.5 -5.5625 6.5 -5.546875 6.421875 -5.40625 L 4.75 -1.71875 L 2.890625 -5.75 L 3.6875 -5.75 L 3.6875 -6.375 C 3.359375 -6.34375 2.359375 -6.34375 1.96875 -6.34375 C 1.546875 -6.34375 0.71875 -6.34375 0.34375 -6.375 L 0.34375 -5.75 L 1.25 -5.75 L 3.765625 -0.265625 C 3.90625 0 3.9375 0.078125 4.265625 0.078125 C 4.484375 0.078125 4.609375 0.046875 4.734375 -0.25 Z M 7.09375 -5.421875 "/>
</symbol>
<symbol overflow="visible" id="glyph0-10">
<path style="stroke:none;" d="M 6.484375 -3.171875 C 6.8125 -3.171875 6.90625 -3.171875 6.90625 -3.53125 C 6.90625 -3.953125 6.796875 -5.03125 6.140625 -5.703125 C 5.53125 -6.3125 4.734375 -6.5 3.90625 -6.5 C 1.65625 -6.5 0.4375 -5.03125 0.4375 -3.234375 C 0.4375 -1.21875 1.921875 0.09375 4.09375 0.09375 C 6.25 0.09375 6.90625 -1.4375 6.90625 -1.671875 C 6.90625 -1.890625 6.6875 -1.890625 6.59375 -1.890625 C 6.375 -1.890625 6.359375 -1.84375 6.265625 -1.65625 C 5.890625 -0.734375 4.953125 -0.4375 4.265625 -0.4375 C 2.1875 -0.4375 2.171875 -2.359375 2.171875 -3.171875 Z M 2.171875 -3.578125 C 2.1875 -4.171875 2.203125 -4.734375 2.515625 -5.25 C 2.78125 -5.703125 3.28125 -6.03125 3.90625 -6.03125 C 5.4375 -6.03125 5.5625 -4.296875 5.578125 -3.578125 Z M 2.171875 -3.578125 "/>
</symbol>
<symbol overflow="visible" id="glyph0-11">
<path style="stroke:none;" d="M 10.328125 -5.40625 C 10.421875 -5.65625 10.46875 -5.75 11.296875 -5.75 L 11.296875 -6.375 C 10.890625 -6.34375 10.703125 -6.34375 10.1875 -6.34375 C 9.59375 -6.34375 9.40625 -6.34375 8.890625 -6.375 L 8.890625 -5.75 C 9.015625 -5.75 9.71875 -5.75 9.71875 -5.5625 C 9.71875 -5.546875 9.71875 -5.53125 9.671875 -5.390625 L 8.15625 -1.65625 L 6.515625 -5.75 L 7.328125 -5.75 L 7.328125 -6.375 C 6.984375 -6.34375 6.140625 -6.34375 5.75 -6.34375 C 5.015625 -6.34375 4.984375 -6.34375 4.28125 -6.375 L 4.28125 -5.75 L 5.125 -5.75 C 5.15625 -5.640625 5.234375 -5.453125 5.296875 -5.328125 C 5.328125 -5.234375 5.484375 -4.890625 5.484375 -4.8125 C 5.484375 -4.796875 5.4375 -4.6875 5.421875 -4.640625 L 4.328125 -1.9375 L 2.78125 -5.75 L 3.59375 -5.75 L 3.59375 -6.375 C 3.265625 -6.34375 2.296875 -6.34375 1.90625 -6.34375 C 1.453125 -6.34375 0.765625 -6.34375 0.328125 -6.375 L 0.328125 -5.75 L 1.171875 -5.75 L 3.375 -0.28125 C 3.46875 -0.03125 3.53125 0.078125 3.84375 0.078125 C 4 0.078125 4.171875 0.078125 4.28125 -0.21875 L 5.8125 -4.015625 L 7.328125 -0.25 C 7.453125 0.078125 7.609375 0.078125 7.78125 0.078125 C 8.109375 0.078125 8.140625 -0.015625 8.25 -0.265625 Z M 10.328125 -5.40625 "/>
</symbol>
<symbol overflow="visible" id="glyph0-12">
<path style="stroke:none;" d="M 3.109375 -5.75 L 4.75 -5.75 L 4.75 -6.375 L 3.046875 -6.375 L 3.046875 -7.84375 C 3.046875 -9.34375 3.984375 -9.5625 4.453125 -9.5625 C 4.625 -9.5625 4.640625 -9.546875 4.734375 -9.53125 C 4.515625 -9.375 4.390625 -9.140625 4.390625 -8.828125 C 4.390625 -8.265625 4.84375 -8 5.21875 -8 C 5.53125 -8 6.046875 -8.21875 6.046875 -8.84375 C 6.046875 -9.4375 5.53125 -10.046875 4.515625 -10.046875 C 3.21875 -10.046875 1.625 -9.5 1.625 -7.828125 L 1.625 -6.375 L 0.5625 -6.375 L 0.5625 -5.75 L 1.625 -5.75 L 1.625 -0.609375 L 0.625 -0.609375 L 0.625 0 C 0.96875 -0.03125 2.03125 -0.03125 2.4375 -0.03125 C 2.859375 -0.03125 4.015625 -0.03125 4.359375 0 L 4.359375 -0.609375 L 3.109375 -0.609375 Z M 3.109375 -5.75 "/>
</symbol>
<symbol overflow="visible" id="glyph0-13">
<path style="stroke:none;" d="M 7.609375 -4.390625 C 7.609375 -5.75 7.03125 -6.453125 5.453125 -6.453125 C 4 -6.453125 3.296875 -5.4375 3.09375 -5 L 3.078125 -5 L 3.078125 -9.953125 L 0.609375 -9.84375 L 0.609375 -9.21875 C 1.484375 -9.21875 1.59375 -9.21875 1.59375 -8.65625 L 1.59375 -0.609375 L 0.609375 -0.609375 L 0.609375 0 C 0.9375 -0.03125 1.96875 -0.03125 2.359375 -0.03125 C 2.765625 -0.03125 3.8125 -0.03125 4.140625 0 L 4.140625 -0.609375 L 3.15625 -0.609375 L 3.15625 -3.671875 C 3.15625 -5.21875 4.296875 -5.984375 5.21875 -5.984375 C 5.75 -5.984375 6.046875 -5.640625 6.046875 -4.546875 L 6.046875 -0.609375 L 5.0625 -0.609375 L 5.0625 0 C 5.390625 -0.03125 6.421875 -0.03125 6.828125 -0.03125 C 7.234375 -0.03125 8.28125 -0.03125 8.609375 0 L 8.609375 -0.609375 L 7.609375 -0.609375 Z M 7.609375 -4.390625 "/>
</symbol>
<symbol overflow="visible" id="glyph0-14">
<path style="stroke:none;" d="M 4.046875 2.171875 L 3.0625 2.171875 L 3.0625 -0.59375 C 3.40625 -0.265625 4.046875 0.09375 4.90625 0.09375 C 6.875 0.09375 8.40625 -1.109375 8.40625 -3.203125 C 8.40625 -5.171875 7.078125 -6.453125 5.140625 -6.453125 C 4.28125 -6.453125 3.5625 -6.171875 2.984375 -5.703125 L 2.984375 -6.453125 L 0.5 -6.34375 L 0.5 -5.71875 C 1.390625 -5.71875 1.484375 -5.71875 1.484375 -5.15625 L 1.484375 2.171875 L 0.5 2.171875 L 0.5 2.78125 C 0.828125 2.75 1.859375 2.75 2.265625 2.75 C 2.671875 2.75 3.71875 2.75 4.046875 2.78125 Z M 3.0625 -5.015625 C 3.578125 -5.703125 4.34375 -5.9375 4.90625 -5.9375 C 5.84375 -5.9375 6.6875 -5.09375 6.6875 -3.203125 C 6.6875 -1.125 5.65625 -0.390625 4.734375 -0.390625 C 4.109375 -0.390625 3.5 -0.703125 3.0625 -1.375 Z M 3.0625 -5.015625 "/>
</symbol>
<symbol overflow="visible" id="glyph0-15">
<path style="stroke:none;" d="M 6.59375 -4.28125 C 6.59375 -5.609375 5.546875 -6.5 3.53125 -6.5 C 2.71875 -6.5 1.03125 -6.421875 1.03125 -5.21875 C 1.03125 -4.625 1.484375 -4.359375 1.875 -4.359375 C 2.3125 -4.359375 2.71875 -4.65625 2.71875 -5.203125 C 2.71875 -5.484375 2.625 -5.734375 2.375 -5.890625 C 2.859375 -6.03125 3.203125 -6.03125 3.46875 -6.03125 C 4.453125 -6.03125 5.03125 -5.484375 5.03125 -4.296875 L 5.03125 -3.734375 C 2.765625 -3.734375 0.484375 -3.09375 0.484375 -1.5 C 0.484375 -0.203125 2.15625 0.09375 3.140625 0.09375 C 4.25 0.09375 4.953125 -0.515625 5.234375 -1.140625 C 5.234375 -0.609375 5.234375 0 6.6875 0 L 7.421875 0 C 7.71875 0 7.828125 0 7.828125 -0.3125 C 7.828125 -0.609375 7.703125 -0.609375 7.5 -0.609375 C 6.59375 -0.625 6.59375 -0.859375 6.59375 -1.1875 Z M 5.03125 -2 C 5.03125 -0.640625 3.828125 -0.390625 3.375 -0.390625 C 2.671875 -0.390625 2.078125 -0.859375 2.078125 -1.515625 C 2.078125 -2.828125 3.625 -3.265625 5.03125 -3.34375 Z M 5.03125 -2 "/>
</symbol>
<symbol overflow="visible" id="glyph0-16">
<path style="stroke:none;" d="M 7.09375 -5.4375 C 7.1875 -5.640625 7.25 -5.75 8.15625 -5.75 L 8.15625 -6.375 C 7.671875 -6.34375 7.609375 -6.34375 7.03125 -6.34375 C 6.640625 -6.34375 6.609375 -6.34375 5.796875 -6.375 L 5.796875 -5.75 C 5.8125 -5.75 6.484375 -5.75 6.484375 -5.5625 C 6.484375 -5.515625 6.4375 -5.4375 6.421875 -5.390625 L 4.75 -1.78125 L 2.90625 -5.75 L 3.703125 -5.75 L 3.703125 -6.375 C 3.359375 -6.34375 2.375 -6.34375 1.984375 -6.34375 C 1.5625 -6.34375 0.71875 -6.34375 0.34375 -6.375 L 0.34375 -5.75 L 1.265625 -5.75 L 3.921875 0 C 3.84375 0.171875 3.640625 0.59375 3.578125 0.765625 C 3.265625 1.40625 2.8125 2.390625 1.8125 2.390625 C 1.75 2.390625 1.578125 2.390625 1.421875 2.3125 C 1.453125 2.296875 1.875 2.125 1.875 1.578125 C 1.875 1.109375 1.53125 0.796875 1.109375 0.796875 C 0.65625 0.796875 0.3125 1.109375 0.3125 1.59375 C 0.3125 2.265625 0.953125 2.875 1.8125 2.875 C 2.984375 2.875 3.765625 1.8125 4.046875 1.171875 Z M 7.09375 -5.4375 "/>
</symbol>
<symbol overflow="visible" id="glyph0-17">
<path style="stroke:none;" d="M 3.109375 -9.953125 L 0.625 -9.84375 L 0.625 -9.21875 C 1.515625 -9.21875 1.625 -9.21875 1.625 -8.65625 L 1.625 -0.609375 L 0.625 -0.609375 L 0.625 0 C 0.96875 -0.03125 1.984375 -0.03125 2.359375 -0.03125 C 2.75 -0.03125 3.765625 -0.03125 4.109375 0 L 4.109375 -0.609375 L 3.109375 -0.609375 Z M 3.109375 -9.953125 "/>
</symbol>
<symbol overflow="visible" id="glyph0-18">
<path style="stroke:none;" d="M 4.984375 -6.421875 L 4.984375 -6.375 L 2.90625 -6.375 L 2.90625 -7.796875 C 2.90625 -9.421875 4.609375 -9.5625 5.171875 -9.5625 C 5.328125 -9.5625 5.859375 -9.5625 6.28125 -9.28125 C 5.84375 -9.140625 5.65625 -8.796875 5.65625 -8.421875 C 5.65625 -7.890625 6.03125 -7.546875 6.53125 -7.546875 C 7 -7.546875 7.40625 -7.875 7.40625 -8.421875 C 7.40625 -9.203125 6.75 -10.046875 5.3125 -10.046875 C 3.671875 -10.046875 1.484375 -9.546875 1.484375 -7.8125 L 1.484375 -6.375 L 0.4375 -6.375 L 0.4375 -5.75 L 1.484375 -5.75 L 1.484375 -0.609375 L 0.5 -0.609375 L 0.5 0 C 0.828125 -0.03125 1.84375 -0.03125 2.234375 -0.03125 C 2.625 -0.03125 3.640625 -0.03125 3.96875 0 L 3.96875 -0.609375 L 2.984375 -0.609375 L 2.984375 -5.75 L 5.515625 -5.75 C 5.875 -5.75 5.96875 -5.734375 5.96875 -5.234375 L 5.96875 -0.609375 L 4.984375 -0.609375 L 4.984375 0 C 5.3125 -0.03125 6.328125 -0.03125 6.71875 -0.03125 C 7.09375 -0.03125 8.125 -0.03125 8.453125 0 L 8.453125 -0.609375 L 7.453125 -0.609375 L 7.453125 -6.5 Z M 4.984375 -6.421875 "/>
</symbol>
<symbol overflow="visible" id="glyph0-19">
<path style="stroke:none;" d="M 2.984375 -3.234375 C 2.984375 -3.703125 3.078125 -5.984375 4.765625 -5.984375 C 4.5625 -5.828125 4.453125 -5.578125 4.453125 -5.328125 C 4.453125 -4.734375 4.9375 -4.484375 5.296875 -4.484375 C 5.65625 -4.484375 6.125 -4.734375 6.125 -5.328125 C 6.125 -6.046875 5.375 -6.453125 4.6875 -6.453125 C 3.5625 -6.453125 3.0625 -5.46875 2.875 -4.859375 L 2.859375 -4.859375 L 2.859375 -6.453125 L 0.5 -6.34375 L 0.5 -5.71875 C 1.390625 -5.71875 1.484375 -5.71875 1.484375 -5.15625 L 1.484375 -0.609375 L 0.5 -0.609375 L 0.5 0 C 0.828125 -0.03125 1.90625 -0.03125 2.3125 -0.03125 C 2.71875 -0.03125 3.890625 -0.03125 4.234375 0 L 4.234375 -0.609375 L 2.984375 -0.609375 Z M 2.984375 -3.234375 "/>
</symbol>
<symbol overflow="visible" id="glyph0-20">
<path style="stroke:none;" d="M 1.859375 -2.609375 C 2.546875 -2.234375 3.359375 -2.234375 3.578125 -2.234375 C 5.546875 -2.234375 6.34375 -3.34375 6.34375 -4.34375 C 6.34375 -5.078125 5.921875 -5.59375 5.75 -5.734375 C 6.171875 -5.96875 6.515625 -6.03125 6.75 -6.046875 C 6.71875 -5.984375 6.671875 -5.921875 6.671875 -5.734375 C 6.671875 -5.4375 6.875 -5.15625 7.25 -5.15625 C 7.609375 -5.15625 7.8125 -5.4375 7.8125 -5.734375 C 7.8125 -6.078125 7.5625 -6.546875 6.953125 -6.546875 C 6.34375 -6.546875 5.75 -6.234375 5.453125 -5.984375 C 4.859375 -6.328125 4.296875 -6.453125 3.578125 -6.453125 C 1.59375 -6.453125 0.796875 -5.34375 0.796875 -4.34375 C 0.796875 -3.90625 0.953125 -3.3125 1.546875 -2.828125 C 1.3125 -2.546875 1.046875 -2.046875 1.046875 -1.53125 C 1.046875 -0.921875 1.375 -0.390625 1.671875 -0.15625 C 1.328125 -0.078125 0.4375 0.265625 0.4375 1.078125 C 0.4375 1.921875 1.375 2.890625 4.015625 2.890625 C 6.390625 2.890625 7.609375 2.109375 7.609375 1.03125 C 7.609375 -0.234375 6.765625 -0.640625 6.40625 -0.8125 C 5.71875 -1.15625 4.8125 -1.15625 3.546875 -1.15625 C 3.1875 -1.15625 2.546875 -1.15625 2.484375 -1.171875 C 1.859375 -1.28125 1.6875 -1.828125 1.6875 -2.09375 C 1.6875 -2.203125 1.703125 -2.421875 1.859375 -2.609375 Z M 3.578125 -2.703125 C 2.328125 -2.703125 2.328125 -3.6875 2.328125 -4.34375 C 2.328125 -5 2.328125 -6 3.578125 -6 C 4.8125 -6 4.8125 -5 4.8125 -4.34375 C 4.8125 -3.6875 4.8125 -2.703125 3.578125 -2.703125 Z M 4.375 0.15625 C 5.421875 0.15625 6.421875 0.34375 6.421875 1.09375 C 6.421875 1.59375 5.921875 2.421875 4.03125 2.421875 C 2.140625 2.421875 1.625 1.625 1.625 1.078125 C 1.625 0.15625 2.53125 0.15625 2.734375 0.15625 Z M 4.375 0.15625 "/>
</symbol>
<symbol overflow="visible" id="glyph0-21">
<path style="stroke:none;" d="M 12.109375 -4.390625 C 12.109375 -5.703125 11.546875 -6.453125 9.9375 -6.453125 C 8.484375 -6.453125 7.8125 -5.484375 7.59375 -5.015625 C 7.359375 -6.234375 6.390625 -6.453125 5.46875 -6.453125 C 4.09375 -6.453125 3.34375 -5.5625 3.046875 -4.875 L 3.03125 -4.875 L 3.03125 -6.453125 L 0.609375 -6.34375 L 0.609375 -5.71875 C 1.484375 -5.71875 1.59375 -5.71875 1.59375 -5.15625 L 1.59375 -0.609375 L 0.609375 -0.609375 L 0.609375 0 C 0.9375 -0.03125 1.96875 -0.03125 2.359375 -0.03125 C 2.765625 -0.03125 3.8125 -0.03125 4.140625 0 L 4.140625 -0.609375 L 3.15625 -0.609375 L 3.15625 -3.671875 C 3.15625 -5.234375 4.3125 -5.984375 5.21875 -5.984375 C 5.75 -5.984375 6.0625 -5.671875 6.0625 -4.546875 L 6.0625 -0.609375 L 5.078125 -0.609375 L 5.078125 0 C 5.40625 -0.03125 6.4375 -0.03125 6.84375 -0.03125 C 7.25 -0.03125 8.296875 -0.03125 8.625 0 L 8.625 -0.609375 L 7.625 -0.609375 L 7.625 -3.671875 C 7.625 -5.234375 8.796875 -5.984375 9.703125 -5.984375 C 10.234375 -5.984375 10.546875 -5.671875 10.546875 -4.546875 L 10.546875 -0.609375 L 9.546875 -0.609375 L 9.546875 0 C 9.890625 -0.03125 10.921875 -0.03125 11.3125 -0.03125 C 11.71875 -0.03125 12.765625 -0.03125 13.09375 0 L 13.09375 -0.609375 L 12.109375 -0.609375 Z M 12.109375 -4.390625 "/>
</symbol>
</g>
<clipPath id="clip1">
  <path d="M 427 52 L 852.867188 52 L 852.867188 320 L 427 320 Z M 427 52 "/>
</clipPath>
</defs>
<g id="surface1">
<path style="fill-rule:nonzero;fill:rgb(100%,100%,100%);fill-opacity:1;stroke-width:1.59404;stroke-linecap:butt;stroke-linejoin:miter;stroke:rgb(0%,0%,0%);stroke-opacity:1;stroke-miterlimit:10;" d="M -12.755437 242.363531 L 12.756281 242.363531 L 12.756281 267.879156 L -12.755437 267.879156 Z M -12.755437 242.363531 " transform="matrix(1,0,0,-1,41.982,316.719)"/>
<g style="fill:rgb(0%,0%,0%);fill-opacity:1;">
  <use xlink:href="#glyph0-1" x="37.499" y="65.188"/>
</g>
<path style="fill-rule:nonzero;fill:rgb(100%,100%,100%);fill-opacity:1;stroke-width:1.59404;stroke-linecap:butt;stroke-linejoin:miter;stroke:rgb(0%,0%,0%);stroke-opacity:1;stroke-miterlimit:10;" d="M 12.756281 242.363531 L 38.268 242.363531 L 38.268 267.879156 L 12.756281 267.879156 Z M 12.756281 242.363531 " transform="matrix(1,0,0,-1,41.982,316.719)"/>
<g style="fill:rgb(0%,0%,0%);fill-opacity:1;">
  <use xlink:href="#glyph0-2" x="63.011" y="65.188"/>
</g>
<path style="fill-rule:nonzero;fill:rgb(100%,100%,100%);fill-opacity:1;stroke-width:1.59404;stroke-linecap:butt;stroke-linejoin:miter;stroke:rgb(0%,0%,0%);stroke-opacity:1;stroke-miterlimit:10;" d="M 38.268 242.363531 L 63.779719 242.363531 L 63.779719 267.879156 L 38.268 267.879156 Z M 38.268 242.363531 " transform="matrix(1,0,0,-1,41.982,316.719)"/>
<g style="fill:rgb(0%,0%,0%);fill-opacity:1;">
  <use xlink:href="#glyph0-3" x="88.971" y="65.188"/>
</g>
<path style="fill-rule:nonzero;fill:rgb(100%,100%,100%);fill-opacity:1;stroke-width:1.59404;stroke-linecap:butt;stroke-linejoin:miter;stroke:rgb(0%,0%,0%);stroke-opacity:1;stroke-miterlimit:10;" d="M 63.779719 242.363531 L 89.291438 242.363531 L 89.291438 267.879156 L 63.779719 267.879156 Z M 63.779719 242.363531 " transform="matrix(1,0,0,-1,41.982,316.719)"/>
<g style="fill:rgb(0%,0%,0%);fill-opacity:1;">
  <use xlink:href="#glyph0-2" x="114.034" y="65.188"/>
</g>
<path style="fill-rule:nonzero;fill:rgb(100%,100%,100%);fill-opacity:1;stroke-width:1.59404;stroke-linecap:butt;stroke-linejoin:miter;stroke:rgb(0%,0%,0%);stroke-opacity:1;stroke-miterlimit:10;" d="M 89.291438 242.363531 L 114.803156 242.363531 L 114.803156 267.879156 L 89.291438 267.879156 Z M 89.291438 242.363531 " transform="matrix(1,0,0,-1,41.982,316.719)"/>
<g style="fill:rgb(0%,0%,0%);fill-opacity:1;">
  <use xlink:href="#glyph0-4" x="140.846" y="65.188"/>
</g>
<path style="fill-rule:nonzero;fill:rgb(79.998779%,79.998779%,79.998779%);fill-opacity:1;stroke-width:1.59404;stroke-linecap:butt;stroke-linejoin:miter;stroke:rgb(0%,0%,0%);stroke-opacity:1;stroke-miterlimit:10;" d="M 114.803156 242.363531 L 140.314875 242.363531 L 140.314875 267.879156 L 114.803156 267.879156 Z M 114.803156 242.363531 " transform="matrix(1,0,0,-1,41.982,316.719)"/>
<path style="fill-rule:nonzero;fill:rgb(79.998779%,79.998779%,79.998779%);fill-opacity:1;stroke-width:1.59404;stroke-linecap:butt;stroke-linejoin:miter;stroke:rgb(0%,0%,0%);stroke-opacity:1;stroke-miterlimit:10;" d="M 140.314875 242.363531 L 165.8305 242.363531 L 165.8305 267.879156 L 140.314875 267.879156 Z M 140.314875 242.363531 " transform="matrix(1,0,0,-1,41.982,316.719)"/>
<path style="fill-rule:nonzero;fill:rgb(79.998779%,79.998779%,79.998779%);fill-opacity:1;stroke-width:1.59404;stroke-linecap:butt;stroke-linejoin:miter;stroke:rgb(0%,0%,0%);stroke-opacity:1;stroke-miterlimit:10;" d="M 165.8305 242.363531 L 191.342219 242.363531 L 191.342219 267.879156 L 165.8305 267.879156 Z M 165.8305 242.363531 " transform="matrix(1,0,0,-1,41.982,316.719)"/>
<path style="fill-rule:nonzero;fill:rgb(100%,100%,100%);fill-opacity:1;stroke-width:1.59404;stroke-linecap:butt;stroke-linejoin:miter;stroke:rgb(0%,0%,0%);stroke-opacity:1;stroke-miterlimit:10;" d="M 191.342219 242.363531 L 216.853938 242.363531 L 216.853938 267.879156 L 191.342219 267.879156 Z M 191.342219 242.363531 " transform="matrix(1,0,0,-1,41.982,316.719)"/>
<g style="fill:rgb(0%,0%,0%);fill-opacity:1;">
  <use xlink:href="#glyph0-5" x="241.593" y="65.187"/>
</g>
<path style="fill-rule:nonzero;fill:rgb(100%,100%,100%);fill-opacity:1;stroke-width:1.59404;stroke-linecap:butt;stroke-linejoin:miter;stroke:rgb(0%,0%,0%);stroke-opacity:1;stroke-miterlimit:10;" d="M 216.853938 242.363531 L 242.365656 242.363531 L 242.365656 267.879156 L 216.853938 267.879156 Z M 216.853938 242.363531 " transform="matrix(1,0,0,-1,41.982,316.719)"/>
<g style="fill:rgb(0%,0%,0%);fill-opacity:1;">
  <use xlink:href="#glyph0-6" x="269.347" y="65.187"/>
</g>
<path style="fill-rule:nonzero;fill:rgb(100%,100%,100%);fill-opacity:1;stroke-width:1.59404;stroke-linecap:butt;stroke-linejoin:miter;stroke:rgb(0%,0%,0%);stroke-opacity:1;stroke-miterlimit:10;" d="M 242.365656 242.363531 L 267.877375 242.363531 L 267.877375 267.879156 L 242.365656 267.879156 Z M 242.365656 242.363531 " transform="matrix(1,0,0,-1,41.982,316.719)"/>
<g style="fill:rgb(0%,0%,0%);fill-opacity:1;">
  <use xlink:href="#glyph0-4" x="293.917" y="65.187"/>
</g>
<path style="fill-rule:nonzero;fill:rgb(100%,100%,100%);fill-opacity:1;stroke-width:1.59404;stroke-linecap:butt;stroke-linejoin:miter;stroke:rgb(0%,0%,0%);stroke-opacity:1;stroke-miterlimit:10;" d="M 267.877375 242.363531 L 293.389094 242.363531 L 293.389094 267.879156 L 267.877375 267.879156 Z M 267.877375 242.363531 " transform="matrix(1,0,0,-1,41.982,316.719)"/>
<g style="fill:rgb(0%,0%,0%);fill-opacity:1;">
  <use xlink:href="#glyph0-7" x="319.025" y="65.187"/>
</g>
<path style="fill-rule:nonzero;fill:rgb(100%,100%,100%);fill-opacity:1;stroke-width:1.59404;stroke-linecap:butt;stroke-linejoin:miter;stroke:rgb(0%,0%,0%);stroke-opacity:1;stroke-miterlimit:10;" d="M 293.389094 242.363531 L 318.900813 242.363531 L 318.900813 267.879156 L 293.389094 267.879156 Z M 293.389094 242.363531 " transform="matrix(1,0,0,-1,41.982,316.719)"/>
<g style="fill:rgb(0%,0%,0%);fill-opacity:1;">
  <use xlink:href="#glyph0-3" x="344.089" y="65.187"/>
</g>
<path style="fill-rule:nonzero;fill:rgb(100%,100%,100%);fill-opacity:1;stroke-width:1.59404;stroke-linecap:butt;stroke-linejoin:miter;stroke:rgb(0%,0%,0%);stroke-opacity:1;stroke-miterlimit:10;" d="M 318.900813 242.363531 L 344.412531 242.363531 L 344.412531 267.879156 L 318.900813 267.879156 Z M 318.900813 242.363531 " transform="matrix(1,0,0,-1,41.982,316.719)"/>
<g style="fill:rgb(0%,0%,0%);fill-opacity:1;">
  <use xlink:href="#glyph0-1" x="369.152" y="65.187"/>
</g>
<path style="fill-rule:nonzero;fill:rgb(100%,100%,100%);fill-opacity:1;stroke-width:1.59404;stroke-linecap:butt;stroke-linejoin:miter;stroke:rgb(0%,0%,0%);stroke-opacity:1;stroke-miterlimit:10;" d="M 344.412531 242.363531 L 369.92425 242.363531 L 369.92425 267.879156 L 344.412531 267.879156 Z M 344.412531 242.363531 " transform="matrix(1,0,0,-1,41.982,316.719)"/>
<g style="fill:rgb(0%,0%,0%);fill-opacity:1;">
  <use xlink:href="#glyph0-8" x="396.009" y="65.187"/>
</g>
<path style="fill-rule:nonzero;fill:rgb(100%,100%,100%);fill-opacity:1;stroke-width:1.59404;stroke-linecap:butt;stroke-linejoin:miter;stroke:rgb(0%,0%,0%);stroke-opacity:1;stroke-miterlimit:10;" d="M 369.92425 242.363531 L 395.439875 242.363531 L 395.439875 267.879156 L 369.92425 267.879156 Z M 369.92425 242.363531 " transform="matrix(1,0,0,-1,41.982,316.719)"/>
<g style="fill:rgb(0%,0%,0%);fill-opacity:1;">
  <use xlink:href="#glyph0-6" x="422.418" y="65.187"/>
</g>
<path style="fill-rule:nonzero;fill:rgb(100%,100%,100%);fill-opacity:1;stroke-width:1.59404;stroke-linecap:butt;stroke-linejoin:miter;stroke:rgb(0%,0%,0%);stroke-opacity:1;stroke-miterlimit:10;" d="M 395.439875 242.363531 L 420.951594 242.363531 L 420.951594 267.879156 L 395.439875 267.879156 Z M 395.439875 242.363531 " transform="matrix(1,0,0,-1,41.982,316.719)"/>
<g style="fill:rgb(0%,0%,0%);fill-opacity:1;">
  <use xlink:href="#glyph0-1" x="445.688" y="65.187"/>
</g>
<path style="fill-rule:nonzero;fill:rgb(100%,100%,100%);fill-opacity:1;stroke-width:1.59404;stroke-linecap:butt;stroke-linejoin:miter;stroke:rgb(0%,0%,0%);stroke-opacity:1;stroke-miterlimit:10;" d="M 420.951594 242.363531 L 446.463313 242.363531 L 446.463313 267.879156 L 420.951594 267.879156 Z M 420.951594 242.363531 " transform="matrix(1,0,0,-1,41.982,316.719)"/>
<g style="fill:rgb(0%,0%,0%);fill-opacity:1;">
  <use xlink:href="#glyph0-2" x="471.2" y="65.187"/>
</g>
<path style="fill-rule:nonzero;fill:rgb(100%,100%,100%);fill-opacity:1;stroke-width:1.59404;stroke-linecap:butt;stroke-linejoin:miter;stroke:rgb(0%,0%,0%);stroke-opacity:1;stroke-miterlimit:10;" d="M 446.463313 242.363531 L 471.975031 242.363531 L 471.975031 267.879156 L 446.463313 267.879156 Z M 446.463313 242.363531 " transform="matrix(1,0,0,-1,41.982,316.719)"/>
<g style="fill:rgb(0%,0%,0%);fill-opacity:1;">
  <use xlink:href="#glyph0-3" x="497.16" y="65.187"/>
</g>
<path style="fill-rule:nonzero;fill:rgb(100%,100%,100%);fill-opacity:1;stroke-width:1.59404;stroke-linecap:butt;stroke-linejoin:miter;stroke:rgb(0%,0%,0%);stroke-opacity:1;stroke-miterlimit:10;" d="M 471.975031 242.363531 L 497.48675 242.363531 L 497.48675 267.879156 L 471.975031 267.879156 Z M 471.975031 242.363531 " transform="matrix(1,0,0,-1,41.982,316.719)"/>
<g style="fill:rgb(0%,0%,0%);fill-opacity:1;">
  <use xlink:href="#glyph0-2" x="522.223" y="65.187"/>
</g>
<path style="fill-rule:nonzero;fill:rgb(100%,100%,100%);fill-opacity:1;stroke-width:1.59404;stroke-linecap:butt;stroke-linejoin:miter;stroke:rgb(0%,0%,0%);stroke-opacity:1;stroke-miterlimit:10;" d="M 497.48675 242.363531 L 522.998469 242.363531 L 522.998469 267.879156 L 497.48675 267.879156 Z M 497.48675 242.363531 " transform="matrix(1,0,0,-1,41.982,316.719)"/>
<g style="fill:rgb(0%,0%,0%);fill-opacity:1;">
  <use xlink:href="#glyph0-4" x="549.035" y="65.187"/>
</g>
<path style="fill-rule:nonzero;fill:rgb(79.998779%,79.998779%,79.998779%);fill-opacity:1;stroke-width:1.59404;stroke-linecap:butt;stroke-linejoin:miter;stroke:rgb(0%,0%,0%);stroke-opacity:1;stroke-miterlimit:10;" d="M 522.998469 242.363531 L 548.510188 242.363531 L 548.510188 267.879156 L 522.998469 267.879156 Z M 522.998469 242.363531 " transform="matrix(1,0,0,-1,41.982,316.719)"/>
<path style="fill-rule:nonzero;fill:rgb(79.998779%,79.998779%,79.998779%);fill-opacity:1;stroke-width:1.59404;stroke-linecap:butt;stroke-linejoin:miter;stroke:rgb(0%,0%,0%);stroke-opacity:1;stroke-miterlimit:10;" d="M 548.510188 242.363531 L 574.021906 242.363531 L 574.021906 267.879156 L 548.510188 267.879156 Z M 548.510188 242.363531 " transform="matrix(1,0,0,-1,41.982,316.719)"/>
<path style="fill-rule:nonzero;fill:rgb(79.998779%,79.998779%,79.998779%);fill-opacity:1;stroke-width:1.59404;stroke-linecap:butt;stroke-linejoin:miter;stroke:rgb(0%,0%,0%);stroke-opacity:1;stroke-miterlimit:10;" d="M 574.021906 242.363531 L 599.533625 242.363531 L 599.533625 267.879156 L 574.021906 267.879156 Z M 574.021906 242.363531 " transform="matrix(1,0,0,-1,41.982,316.719)"/>
<path style="fill-rule:nonzero;fill:rgb(100%,100%,100%);fill-opacity:1;stroke-width:1.59404;stroke-linecap:butt;stroke-linejoin:miter;stroke:rgb(0%,0%,0%);stroke-opacity:1;stroke-miterlimit:10;" d="M 599.533625 242.363531 L 625.04925 242.363531 L 625.04925 267.879156 L 599.533625 267.879156 Z M 599.533625 242.363531 " transform="matrix(1,0,0,-1,41.982,316.719)"/>
<g style="fill:rgb(0%,0%,0%);fill-opacity:1;">
  <use xlink:href="#glyph0-5" x="649.782" y="65.187"/>
</g>
<path style="fill-rule:nonzero;fill:rgb(100%,100%,100%);fill-opacity:1;stroke-width:1.59404;stroke-linecap:butt;stroke-linejoin:miter;stroke:rgb(0%,0%,0%);stroke-opacity:1;stroke-miterlimit:10;" d="M 625.04925 242.363531 L 650.560969 242.363531 L 650.560969 267.879156 L 625.04925 267.879156 Z M 625.04925 242.363531 " transform="matrix(1,0,0,-1,41.982,316.719)"/>
<g style="fill:rgb(0%,0%,0%);fill-opacity:1;">
  <use xlink:href="#glyph0-6" x="677.536" y="65.187"/>
</g>
<path style="fill-rule:nonzero;fill:rgb(100%,100%,100%);fill-opacity:1;stroke-width:1.59404;stroke-linecap:butt;stroke-linejoin:miter;stroke:rgb(0%,0%,0%);stroke-opacity:1;stroke-miterlimit:10;" d="M 650.560969 242.363531 L 676.072688 242.363531 L 676.072688 267.879156 L 650.560969 267.879156 Z M 650.560969 242.363531 " transform="matrix(1,0,0,-1,41.982,316.719)"/>
<g style="fill:rgb(0%,0%,0%);fill-opacity:1;">
  <use xlink:href="#glyph0-4" x="702.106" y="65.187"/>
</g>
<path style="fill-rule:nonzero;fill:rgb(100%,100%,100%);fill-opacity:1;stroke-width:1.59404;stroke-linecap:butt;stroke-linejoin:miter;stroke:rgb(0%,0%,0%);stroke-opacity:1;stroke-miterlimit:10;" d="M 676.072688 242.363531 L 701.584406 242.363531 L 701.584406 267.879156 L 676.072688 267.879156 Z M 676.072688 242.363531 " transform="matrix(1,0,0,-1,41.982,316.719)"/>
<g style="fill:rgb(0%,0%,0%);fill-opacity:1;">
  <use xlink:href="#glyph0-7" x="727.214" y="65.187"/>
</g>
<path style="fill-rule:nonzero;fill:rgb(100%,100%,100%);fill-opacity:1;stroke-width:1.59404;stroke-linecap:butt;stroke-linejoin:miter;stroke:rgb(0%,0%,0%);stroke-opacity:1;stroke-miterlimit:10;" d="M 701.584406 242.363531 L 727.096125 242.363531 L 727.096125 267.879156 L 701.584406 267.879156 Z M 701.584406 242.363531 " transform="matrix(1,0,0,-1,41.982,316.719)"/>
<g style="fill:rgb(0%,0%,0%);fill-opacity:1;">
  <use xlink:href="#glyph0-3" x="752.278" y="65.187"/>
</g>
<path style="fill-rule:nonzero;fill:rgb(100%,100%,100%);fill-opacity:1;stroke-width:1.59404;stroke-linecap:butt;stroke-linejoin:miter;stroke:rgb(0%,0%,0%);stroke-opacity:1;stroke-miterlimit:10;" d="M 727.096125 242.363531 L 752.607844 242.363531 L 752.607844 267.879156 L 727.096125 267.879156 Z M 727.096125 242.363531 " transform="matrix(1,0,0,-1,41.982,316.719)"/>
<g style="fill:rgb(0%,0%,0%);fill-opacity:1;">
  <use xlink:href="#glyph0-1" x="777.341" y="65.187"/>
</g>
<path style="fill-rule:nonzero;fill:rgb(100%,100%,100%);fill-opacity:1;stroke-width:1.59404;stroke-linecap:butt;stroke-linejoin:miter;stroke:rgb(0%,0%,0%);stroke-opacity:1;stroke-miterlimit:10;" d="M 752.607844 242.363531 L 778.119563 242.363531 L 778.119563 267.879156 L 752.607844 267.879156 Z M 752.607844 242.363531 " transform="matrix(1,0,0,-1,41.982,316.719)"/>
<g style="fill:rgb(0%,0%,0%);fill-opacity:1;">
  <use xlink:href="#glyph0-8" x="804.198" y="65.187"/>
</g>
<path style="fill-rule:nonzero;fill:rgb(100%,100%,100%);fill-opacity:1;stroke-width:1.59404;stroke-linecap:butt;stroke-linejoin:miter;stroke:rgb(0%,0%,0%);stroke-opacity:1;stroke-miterlimit:10;" d="M 778.119563 242.363531 L 803.631281 242.363531 L 803.631281 267.879156 L 778.119563 267.879156 Z M 778.119563 242.363531 " transform="matrix(1,0,0,-1,41.982,316.719)"/>
<g style="fill:rgb(0%,0%,0%);fill-opacity:1;">
  <use xlink:href="#glyph0-6" x="830.607" y="65.187"/>
</g>
<path style=" stroke:none;fill-rule:nonzero;fill:rgb(0%,0%,0%);fill-opacity:1;" d="M 235.0625 43.242188 C 236.558594 40.253906 239.6875 38.878906 244.667969 38.878906 C 245.722656 38.878906 245.722656 37.285156 244.667969 37.285156 C 239.6875 37.285156 235.84375 39.894531 234.347656 42.886719 C 234.113281 43.355469 234.828125 43.710938 235.0625 43.242188 "/>
<path style=" stroke:none;fill-rule:nonzero;fill:rgb(0%,0%,0%);fill-opacity:1;" d="M 398.796875 32.921875 C 397.300781 35.910156 394.171875 37.285156 389.1875 37.285156 C 388.136719 37.285156 388.136719 38.878906 389.1875 38.878906 C 394.171875 38.878906 398.015625 36.265625 399.507812 33.277344 C 399.742188 32.808594 399.03125 32.453125 398.796875 32.921875 "/>
<path style="fill:none;stroke-width:1.59404;stroke-linecap:butt;stroke-linejoin:miter;stroke:rgb(0%,0%,0%);stroke-opacity:1;stroke-miterlimit:10;" d="M 202.685969 278.636969 L 347.2055 278.636969 " transform="matrix(1,0,0,-1,41.982,316.719)"/>
<path style=" stroke:none;fill-rule:nonzero;fill:rgb(0%,0%,0%);fill-opacity:1;" d="M 398.796875 33.277344 C 400.289062 36.265625 404.132812 38.878906 409.113281 38.878906 C 410.167969 38.878906 410.167969 37.285156 409.113281 37.285156 C 404.132812 37.285156 401.003906 35.910156 399.507812 32.921875 C 399.273438 32.453125 398.558594 32.808594 398.796875 33.277344 "/>
<path style=" stroke:none;fill-rule:nonzero;fill:rgb(0%,0%,0%);fill-opacity:1;" d="M 563.953125 42.886719 C 562.460938 39.894531 558.617188 37.285156 553.636719 37.285156 C 552.582031 37.285156 552.582031 38.878906 553.636719 38.878906 C 558.617188 38.878906 561.746094 40.253906 563.242188 43.242188 C 563.476562 43.710938 564.191406 43.355469 563.953125 42.886719 "/>
<path style="fill:none;stroke-width:1.59404;stroke-linecap:butt;stroke-linejoin:miter;stroke:rgb(0%,0%,0%);stroke-opacity:1;stroke-miterlimit:10;" d="M 367.131281 278.636969 L 511.654719 278.636969 " transform="matrix(1,0,0,-1,41.982,316.719)"/>
<g style="fill:rgb(0%,0%,0%);fill-opacity:1;">
  <use xlink:href="#glyph0-7" x="289.746" y="21.543"/>
  <use xlink:href="#glyph0-3" x="296.9191" y="21.543"/>
  <use xlink:href="#glyph0-1" x="304.988837" y="21.543"/>
</g>
<g style="fill:rgb(0%,0%,0%);fill-opacity:1;">
  <use xlink:href="#glyph0-8" x="313.51048" y="21.543"/>
  <use xlink:href="#glyph0-6" x="319.786943" y="21.543"/>
  <use xlink:href="#glyph0-1" x="324.27013" y="21.543"/>
</g>
<g style="fill:rgb(0%,0%,0%);fill-opacity:1;">
  <use xlink:href="#glyph0-2" x="332.791773" y="21.543"/>
  <use xlink:href="#glyph0-3" x="341.758148" y="21.543"/>
  <use xlink:href="#glyph0-2" x="349.827886" y="21.543"/>
  <use xlink:href="#glyph0-4" x="358.794261" y="21.543"/>
</g>
<g style="fill:rgb(0%,0%,0%);fill-opacity:1;">
  <use xlink:href="#glyph0-9" x="370.526583" y="21.543"/>
</g>
<g style="fill:rgb(0%,0%,0%);fill-opacity:1;">
  <use xlink:href="#glyph0-6" x="379.058268" y="21.543"/>
  <use xlink:href="#glyph0-10" x="383.541456" y="21.543"/>
  <use xlink:href="#glyph0-11" x="390.90536" y="21.543"/>
</g>
<g style="fill:rgb(0%,0%,0%);fill-opacity:1;">
  <use xlink:href="#glyph0-3" x="407.941473" y="21.543"/>
  <use xlink:href="#glyph0-12" x="416.01121" y="21.543"/>
</g>
<g style="fill:rgb(0%,0%,0%);fill-opacity:1;">
  <use xlink:href="#glyph0-8" x="426.321824" y="21.543"/>
  <use xlink:href="#glyph0-13" x="432.598286" y="21.543"/>
  <use xlink:href="#glyph0-10" x="441.564661" y="21.543"/>
</g>
<g style="fill:rgb(0%,0%,0%);fill-opacity:1;">
  <use xlink:href="#glyph0-14" x="454.308391" y="21.543"/>
  <use xlink:href="#glyph0-15" x="463.274766" y="21.543"/>
</g>
<g style="fill:rgb(0%,0%,0%);fill-opacity:1;">
  <use xlink:href="#glyph0-16" x="470.661624" y="21.543"/>
  <use xlink:href="#glyph0-17" x="479.178963" y="21.543"/>
  <use xlink:href="#glyph0-3" x="483.662151" y="21.543"/>
  <use xlink:href="#glyph0-15" x="491.731888" y="21.543"/>
  <use xlink:href="#glyph0-5" x="499.577825" y="21.543"/>
</g>
<path style=" stroke:none;fill-rule:nonzero;fill:rgb(0%,0%,0%);fill-opacity:1;" d="M 30.253906 80.308594 C 31.746094 83.300781 35.589844 85.910156 40.570312 85.910156 C 41.625 85.910156 41.625 84.316406 40.570312 84.316406 C 35.589844 84.316406 32.460938 82.941406 30.964844 79.953125 C 30.730469 79.484375 30.015625 79.839844 30.253906 80.308594 "/>
<path style=" stroke:none;fill-rule:nonzero;fill:rgb(0%,0%,0%);fill-opacity:1;" d="M 233.679688 89.917969 C 232.183594 86.929688 228.339844 84.316406 223.359375 84.316406 C 222.308594 84.316406 222.308594 85.910156 223.359375 85.910156 C 228.339844 85.910156 231.472656 87.285156 232.964844 90.273438 C 233.203125 90.742188 233.914062 90.386719 233.679688 89.917969 "/>
<path style="fill:none;stroke-width:1.59404;stroke-linecap:butt;stroke-linejoin:miter;stroke:rgb(0%,0%,0%);stroke-opacity:1;stroke-miterlimit:10;" d="M -1.411687 231.605719 L 181.377375 231.605719 " transform="matrix(1,0,0,-1,41.982,316.719)"/>
<path style=" stroke:none;fill-rule:nonzero;fill:rgb(0%,0%,0%);fill-opacity:1;" d="M 233.679688 90.273438 C 235.175781 87.285156 238.304688 85.910156 243.285156 85.910156 C 244.335938 85.910156 244.335938 84.316406 243.285156 84.316406 C 238.304688 84.316406 234.460938 86.929688 232.964844 89.917969 C 232.730469 90.386719 233.445312 90.742188 233.679688 90.273438 "/>
<path style=" stroke:none;fill-rule:nonzero;fill:rgb(0%,0%,0%);fill-opacity:1;" d="M 435.679688 79.953125 C 434.1875 82.941406 431.054688 84.316406 426.074219 84.316406 C 425.023438 84.316406 425.023438 85.910156 426.074219 85.910156 C 431.054688 85.910156 434.898438 83.300781 436.394531 80.308594 C 436.628906 79.839844 435.917969 79.484375 435.679688 79.953125 "/>
<path style="fill:none;stroke-width:1.59404;stroke-linecap:butt;stroke-linejoin:miter;stroke:rgb(0%,0%,0%);stroke-opacity:1;stroke-miterlimit:10;" d="M 201.303156 231.605719 L 384.092219 231.605719 " transform="matrix(1,0,0,-1,41.982,316.719)"/>
<g style="fill:rgb(0%,0%,0%);fill-opacity:1;">
  <use xlink:href="#glyph0-8" x="147.449" y="108.832"/>
  <use xlink:href="#glyph0-13" x="153.725463" y="108.832"/>
  <use xlink:href="#glyph0-10" x="162.691838" y="108.832"/>
</g>
<g style="fill:rgb(0%,0%,0%);fill-opacity:1;">
  <use xlink:href="#glyph0-18" x="175.435567" y="108.832"/>
  <use xlink:href="#glyph0-19" x="184.401942" y="108.832"/>
  <use xlink:href="#glyph0-4" x="190.994021" y="108.832"/>
  <use xlink:href="#glyph0-8" x="197.360864" y="108.832"/>
</g>
<g style="fill:rgb(0%,0%,0%);fill-opacity:1;">
  <use xlink:href="#glyph0-9" x="209.017152" y="108.832"/>
  <use xlink:href="#glyph0-6" x="217.534491" y="108.832"/>
  <use xlink:href="#glyph0-19" x="222.017678" y="108.832"/>
  <use xlink:href="#glyph0-8" x="228.609757" y="108.832"/>
  <use xlink:href="#glyph0-2" x="234.88622" y="108.832"/>
  <use xlink:href="#glyph0-15" x="243.852595" y="108.832"/>
  <use xlink:href="#glyph0-17" x="251.698532" y="108.832"/>
</g>
<g style="fill:rgb(0%,0%,0%);fill-opacity:1;">
  <use xlink:href="#glyph0-14" x="261.561544" y="108.832"/>
  <use xlink:href="#glyph0-15" x="270.527919" y="108.832"/>
  <use xlink:href="#glyph0-20" x="278.373856" y="108.832"/>
  <use xlink:href="#glyph0-10" x="286.443593" y="108.832"/>
</g>
<g style="fill:rgb(0%,0%,0%);fill-opacity:1;">
  <use xlink:href="#glyph0-4" x="299.187323" y="108.832"/>
  <use xlink:href="#glyph0-10" x="305.554166" y="108.832"/>
  <use xlink:href="#glyph0-8" x="312.918071" y="108.832"/>
</g>
<path style=" stroke:none;fill-rule:nonzero;fill:rgb(0%,0%,0%);fill-opacity:1;" d="M 438.445312 80.308594 C 439.941406 83.300781 443.785156 85.910156 448.765625 85.910156 C 449.816406 85.910156 449.816406 84.316406 448.765625 84.316406 C 443.785156 84.316406 440.652344 82.941406 439.160156 79.953125 C 438.925781 79.484375 438.210938 79.839844 438.445312 80.308594 "/>
<path style=" stroke:none;fill-rule:nonzero;fill:rgb(0%,0%,0%);fill-opacity:1;" d="M 641.875 89.917969 C 640.378906 86.929688 636.535156 84.316406 631.554688 84.316406 C 630.503906 84.316406 630.503906 85.910156 631.554688 85.910156 C 636.535156 85.910156 639.667969 87.285156 641.160156 90.273438 C 641.394531 90.742188 642.109375 90.386719 641.875 89.917969 "/>
<path style="fill:none;stroke-width:1.59404;stroke-linecap:butt;stroke-linejoin:miter;stroke:rgb(0%,0%,0%);stroke-opacity:1;stroke-miterlimit:10;" d="M 406.783625 231.605719 L 589.572688 231.605719 " transform="matrix(1,0,0,-1,41.982,316.719)"/>
<path style=" stroke:none;fill-rule:nonzero;fill:rgb(0%,0%,0%);fill-opacity:1;" d="M 641.875 90.273438 C 643.367188 87.285156 646.5 85.910156 651.480469 85.910156 C 652.53125 85.910156 652.53125 84.316406 651.480469 84.316406 C 646.5 84.316406 642.65625 86.929688 641.160156 89.917969 C 640.925781 90.386719 641.636719 90.742188 641.875 90.273438 "/>
<path style=" stroke:none;fill-rule:nonzero;fill:rgb(0%,0%,0%);fill-opacity:1;" d="M 843.875 79.953125 C 842.378906 82.941406 839.25 84.316406 834.269531 84.316406 C 833.214844 84.316406 833.214844 85.910156 834.269531 85.910156 C 839.25 85.910156 843.09375 83.300781 844.589844 80.308594 C 844.824219 79.839844 844.109375 79.484375 843.875 79.953125 "/>
<path style="fill:none;stroke-width:1.59404;stroke-linecap:butt;stroke-linejoin:miter;stroke:rgb(0%,0%,0%);stroke-opacity:1;stroke-miterlimit:10;" d="M 609.498469 231.605719 L 792.287531 231.605719 " transform="matrix(1,0,0,-1,41.982,316.719)"/>
<g style="fill:rgb(0%,0%,0%);fill-opacity:1;">
  <use xlink:href="#glyph0-8" x="546.285" y="108.832"/>
  <use xlink:href="#glyph0-13" x="552.561463" y="108.832"/>
  <use xlink:href="#glyph0-10" x="561.527838" y="108.832"/>
</g>
<g style="fill:rgb(0%,0%,0%);fill-opacity:1;">
  <use xlink:href="#glyph0-4" x="574.271567" y="108.832"/>
  <use xlink:href="#glyph0-10" x="580.638411" y="108.832"/>
  <use xlink:href="#glyph0-7" x="588.002315" y="108.832"/>
  <use xlink:href="#glyph0-3" x="595.175415" y="108.832"/>
  <use xlink:href="#glyph0-1" x="603.245152" y="108.832"/>
  <use xlink:href="#glyph0-5" x="612.211527" y="108.832"/>
</g>
<g style="fill:rgb(0%,0%,0%);fill-opacity:1;">
  <use xlink:href="#glyph0-9" x="626.557727" y="108.832"/>
  <use xlink:href="#glyph0-6" x="635.075066" y="108.832"/>
  <use xlink:href="#glyph0-19" x="639.558254" y="108.832"/>
  <use xlink:href="#glyph0-8" x="646.150333" y="108.832"/>
  <use xlink:href="#glyph0-2" x="652.426795" y="108.832"/>
  <use xlink:href="#glyph0-15" x="661.39317" y="108.832"/>
  <use xlink:href="#glyph0-17" x="669.239107" y="108.832"/>
</g>
<g style="fill:rgb(0%,0%,0%);fill-opacity:1;">
  <use xlink:href="#glyph0-14" x="679.10212" y="108.832"/>
  <use xlink:href="#glyph0-15" x="688.068495" y="108.832"/>
  <use xlink:href="#glyph0-20" x="695.914431" y="108.832"/>
  <use xlink:href="#glyph0-10" x="703.984169" y="108.832"/>
</g>
<g style="fill:rgb(0%,0%,0%);fill-opacity:1;">
  <use xlink:href="#glyph0-4" x="716.727898" y="108.832"/>
  <use xlink:href="#glyph0-10" x="723.094742" y="108.832"/>
  <use xlink:href="#glyph0-8" x="730.458646" y="108.832"/>
</g>
<g style="fill:rgb(0%,0%,0%);fill-opacity:1;">
  <use xlink:href="#glyph0-21" x="543.483" y="126.765"/>
  <use xlink:href="#glyph0-15" x="556.932563" y="126.765"/>
  <use xlink:href="#glyph0-14" x="564.778499" y="126.765"/>
  <use xlink:href="#glyph0-14" x="573.744874" y="126.765"/>
</g>
<g style="fill:rgb(0%,0%,0%);fill-opacity:1;">
  <use xlink:href="#glyph0-10" x="583.155981" y="126.765"/>
  <use xlink:href="#glyph0-5" x="590.519886" y="126.765"/>
</g>
<g style="fill:rgb(0%,0%,0%);fill-opacity:1;">
  <use xlink:href="#glyph0-8" x="604.866086" y="126.765"/>
  <use xlink:href="#glyph0-3" x="611.142548" y="126.765"/>
</g>
<g style="fill:rgb(0%,0%,0%);fill-opacity:1;">
  <use xlink:href="#glyph0-8" x="624.592111" y="126.765"/>
  <use xlink:href="#glyph0-13" x="630.868573" y="126.765"/>
  <use xlink:href="#glyph0-10" x="639.834948" y="126.765"/>
</g>
<g style="fill:rgb(0%,0%,0%);fill-opacity:1;">
  <use xlink:href="#glyph0-4" x="652.578678" y="126.765"/>
  <use xlink:href="#glyph0-15" x="658.945521" y="126.765"/>
  <use xlink:href="#glyph0-21" x="666.791458" y="126.765"/>
  <use xlink:href="#glyph0-10" x="680.241021" y="126.765"/>
</g>
<g style="fill:rgb(0%,0%,0%);fill-opacity:1;">
  <use xlink:href="#glyph0-12" x="692.98475" y="126.765"/>
  <use xlink:href="#glyph0-19" x="697.915539" y="126.765"/>
  <use xlink:href="#glyph0-15" x="704.507618" y="126.765"/>
  <use xlink:href="#glyph0-21" x="712.353555" y="126.765"/>
  <use xlink:href="#glyph0-10" x="725.803117" y="126.765"/>
  <use xlink:href="#glyph0-4" x="733.167022" y="126.765"/>
</g>
<path style="fill-rule:nonzero;fill:rgb(100%,100%,100%);fill-opacity:1;stroke-width:1.59404;stroke-linecap:butt;stroke-linejoin:miter;stroke:rgb(0%,0%,0%);stroke-opacity:1;stroke-miterlimit:10;" d="M -12.755437 -12.757563 L 12.756281 -12.757563 L 12.756281 12.754156 L -12.755437 12.754156 Z M -12.755437 -12.757563 " transform="matrix(1,0,0,-1,41.982,316.719)"/>
<g style="fill:rgb(0%,0%,0%);fill-opacity:1;">
  <use xlink:href="#glyph0-1" x="37.499" y="320.305"/>
</g>
<path style="fill-rule:nonzero;fill:rgb(100%,100%,100%);fill-opacity:1;stroke-width:1.59404;stroke-linecap:butt;stroke-linejoin:miter;stroke:rgb(0%,0%,0%);stroke-opacity:1;stroke-miterlimit:10;" d="M 12.756281 -12.757563 L 38.268 -12.757563 L 38.268 12.754156 L 12.756281 12.754156 Z M 12.756281 -12.757563 " transform="matrix(1,0,0,-1,41.982,316.719)"/>
<g style="fill:rgb(0%,0%,0%);fill-opacity:1;">
  <use xlink:href="#glyph0-2" x="63.011" y="320.305"/>
</g>
<path style="fill-rule:nonzero;fill:rgb(100%,100%,100%);fill-opacity:1;stroke-width:1.59404;stroke-linecap:butt;stroke-linejoin:miter;stroke:rgb(0%,0%,0%);stroke-opacity:1;stroke-miterlimit:10;" d="M 38.268 -12.757563 L 63.779719 -12.757563 L 63.779719 12.754156 L 38.268 12.754156 Z M 38.268 -12.757563 " transform="matrix(1,0,0,-1,41.982,316.719)"/>
<g style="fill:rgb(0%,0%,0%);fill-opacity:1;">
  <use xlink:href="#glyph0-3" x="88.971" y="320.305"/>
</g>
<path style="fill-rule:nonzero;fill:rgb(100%,100%,100%);fill-opacity:1;stroke-width:1.59404;stroke-linecap:butt;stroke-linejoin:miter;stroke:rgb(0%,0%,0%);stroke-opacity:1;stroke-miterlimit:10;" d="M 63.779719 -12.757563 L 89.291438 -12.757563 L 89.291438 12.754156 L 63.779719 12.754156 Z M 63.779719 -12.757563 " transform="matrix(1,0,0,-1,41.982,316.719)"/>
<g style="fill:rgb(0%,0%,0%);fill-opacity:1;">
  <use xlink:href="#glyph0-2" x="114.034" y="320.305"/>
</g>
<path style="fill-rule:nonzero;fill:rgb(100%,100%,100%);fill-opacity:1;stroke-width:1.59404;stroke-linecap:butt;stroke-linejoin:miter;stroke:rgb(0%,0%,0%);stroke-opacity:1;stroke-miterlimit:10;" d="M 89.291438 -12.757563 L 114.803156 -12.757563 L 114.803156 12.754156 L 89.291438 12.754156 Z M 89.291438 -12.757563 " transform="matrix(1,0,0,-1,41.982,316.719)"/>
<g style="fill:rgb(0%,0%,0%);fill-opacity:1;">
  <use xlink:href="#glyph0-4" x="140.846" y="320.305"/>
</g>
<path style="fill-rule:nonzero;fill:rgb(79.998779%,79.998779%,79.998779%);fill-opacity:1;stroke-width:1.59404;stroke-linecap:butt;stroke-linejoin:miter;stroke:rgb(0%,0%,0%);stroke-opacity:1;stroke-miterlimit:10;" d="M 114.803156 -12.757563 L 140.314875 -12.757563 L 140.314875 12.754156 L 114.803156 12.754156 Z M 114.803156 -12.757563 " transform="matrix(1,0,0,-1,41.982,316.719)"/>
<path style="fill-rule:nonzero;fill:rgb(79.998779%,79.998779%,79.998779%);fill-opacity:1;stroke-width:1.59404;stroke-linecap:butt;stroke-linejoin:miter;stroke:rgb(0%,0%,0%);stroke-opacity:1;stroke-miterlimit:10;" d="M 140.314875 -12.757563 L 165.8305 -12.757563 L 165.8305 12.754156 L 140.314875 12.754156 Z M 140.314875 -12.757563 " transform="matrix(1,0,0,-1,41.982,316.719)"/>
<path style="fill-rule:nonzero;fill:rgb(79.998779%,79.998779%,79.998779%);fill-opacity:1;stroke-width:1.59404;stroke-linecap:butt;stroke-linejoin:miter;stroke:rgb(0%,0%,0%);stroke-opacity:1;stroke-miterlimit:10;" d="M 165.8305 -12.757563 L 191.342219 -12.757563 L 191.342219 12.754156 L 165.8305 12.754156 Z M 165.8305 -12.757563 " transform="matrix(1,0,0,-1,41.982,316.719)"/>
<path style="fill-rule:nonzero;fill:rgb(100%,100%,100%);fill-opacity:1;stroke-width:1.59404;stroke-linecap:butt;stroke-linejoin:miter;stroke:rgb(0%,0%,0%);stroke-opacity:1;stroke-miterlimit:10;" d="M 191.342219 -12.757563 L 216.853938 -12.757563 L 216.853938 12.754156 L 191.342219 12.754156 Z M 191.342219 -12.757563 " transform="matrix(1,0,0,-1,41.982,316.719)"/>
<g style="fill:rgb(0%,0%,0%);fill-opacity:1;">
  <use xlink:href="#glyph0-5" x="241.593" y="320.305"/>
</g>
<path style="fill-rule:nonzero;fill:rgb(100%,100%,100%);fill-opacity:1;stroke-width:1.59404;stroke-linecap:butt;stroke-linejoin:miter;stroke:rgb(0%,0%,0%);stroke-opacity:1;stroke-miterlimit:10;" d="M 216.853938 -12.757563 L 242.365656 -12.757563 L 242.365656 12.754156 L 216.853938 12.754156 Z M 216.853938 -12.757563 " transform="matrix(1,0,0,-1,41.982,316.719)"/>
<g style="fill:rgb(0%,0%,0%);fill-opacity:1;">
  <use xlink:href="#glyph0-6" x="269.347" y="320.305"/>
</g>
<path style="fill-rule:nonzero;fill:rgb(100%,100%,100%);fill-opacity:1;stroke-width:1.59404;stroke-linecap:butt;stroke-linejoin:miter;stroke:rgb(0%,0%,0%);stroke-opacity:1;stroke-miterlimit:10;" d="M 242.365656 -12.757563 L 267.877375 -12.757563 L 267.877375 12.754156 L 242.365656 12.754156 Z M 242.365656 -12.757563 " transform="matrix(1,0,0,-1,41.982,316.719)"/>
<g style="fill:rgb(0%,0%,0%);fill-opacity:1;">
  <use xlink:href="#glyph0-4" x="293.917" y="320.305"/>
</g>
<path style="fill-rule:nonzero;fill:rgb(100%,100%,100%);fill-opacity:1;stroke-width:1.59404;stroke-linecap:butt;stroke-linejoin:miter;stroke:rgb(0%,0%,0%);stroke-opacity:1;stroke-miterlimit:10;" d="M 267.877375 -12.757563 L 293.389094 -12.757563 L 293.389094 12.754156 L 267.877375 12.754156 Z M 267.877375 -12.757563 " transform="matrix(1,0,0,-1,41.982,316.719)"/>
<g style="fill:rgb(0%,0%,0%);fill-opacity:1;">
  <use xlink:href="#glyph0-7" x="319.025" y="320.305"/>
</g>
<path style="fill-rule:nonzero;fill:rgb(100%,100%,100%);fill-opacity:1;stroke-width:1.59404;stroke-linecap:butt;stroke-linejoin:miter;stroke:rgb(0%,0%,0%);stroke-opacity:1;stroke-miterlimit:10;" d="M 293.389094 -12.757563 L 318.900813 -12.757563 L 318.900813 12.754156 L 293.389094 12.754156 Z M 293.389094 -12.757563 " transform="matrix(1,0,0,-1,41.982,316.719)"/>
<g style="fill:rgb(0%,0%,0%);fill-opacity:1;">
  <use xlink:href="#glyph0-3" x="344.089" y="320.305"/>
</g>
<path style="fill-rule:nonzero;fill:rgb(100%,100%,100%);fill-opacity:1;stroke-width:1.59404;stroke-linecap:butt;stroke-linejoin:miter;stroke:rgb(0%,0%,0%);stroke-opacity:1;stroke-miterlimit:10;" d="M 318.900813 -12.757563 L 344.412531 -12.757563 L 344.412531 12.754156 L 318.900813 12.754156 Z M 318.900813 -12.757563 " transform="matrix(1,0,0,-1,41.982,316.719)"/>
<g style="fill:rgb(0%,0%,0%);fill-opacity:1;">
  <use xlink:href="#glyph0-1" x="369.152" y="320.305"/>
</g>
<path style="fill-rule:nonzero;fill:rgb(100%,100%,100%);fill-opacity:1;stroke-width:1.59404;stroke-linecap:butt;stroke-linejoin:miter;stroke:rgb(0%,0%,0%);stroke-opacity:1;stroke-miterlimit:10;" d="M 344.412531 -12.757563 L 369.92425 -12.757563 L 369.92425 12.754156 L 344.412531 12.754156 Z M 344.412531 -12.757563 " transform="matrix(1,0,0,-1,41.982,316.719)"/>
<g style="fill:rgb(0%,0%,0%);fill-opacity:1;">
  <use xlink:href="#glyph0-8" x="396.009" y="320.305"/>
</g>
<path style="fill-rule:nonzero;fill:rgb(100%,100%,100%);fill-opacity:1;stroke-width:1.59404;stroke-linecap:butt;stroke-linejoin:miter;stroke:rgb(0%,0%,0%);stroke-opacity:1;stroke-miterlimit:10;" d="M 369.92425 -12.757563 L 395.439875 -12.757563 L 395.439875 12.754156 L 369.92425 12.754156 Z M 369.92425 -12.757563 " transform="matrix(1,0,0,-1,41.982,316.719)"/>
<g style="fill:rgb(0%,0%,0%);fill-opacity:1;">
  <use xlink:href="#glyph0-6" x="422.418" y="320.305"/>
</g>
<path style=" stroke:none;fill-rule:nonzero;fill:rgb(0%,0%,0%);fill-opacity:1;" d="M 30.253906 335.433594 C 31.746094 338.421875 35.589844 341.03125 40.570312 341.03125 C 41.625 341.03125 41.625 339.4375 40.570312 339.4375 C 35.589844 339.4375 32.460938 338.0625 30.964844 335.074219 C 30.730469 334.605469 30.015625 334.960938 30.253906 335.433594 "/>
<path style=" stroke:none;fill-rule:nonzero;fill:rgb(0%,0%,0%);fill-opacity:1;" d="M 233.679688 345.039062 C 232.183594 342.050781 228.339844 339.4375 223.359375 339.4375 C 222.308594 339.4375 222.308594 341.03125 223.359375 341.03125 C 228.339844 341.03125 231.472656 342.40625 232.964844 345.394531 C 233.203125 345.863281 233.914062 345.507812 233.679688 345.039062 "/>
<path style="fill:none;stroke-width:1.59404;stroke-linecap:butt;stroke-linejoin:miter;stroke:rgb(0%,0%,0%);stroke-opacity:1;stroke-miterlimit:10;" d="M -1.411687 -23.515375 L 181.377375 -23.515375 " transform="matrix(1,0,0,-1,41.982,316.719)"/>
<path style=" stroke:none;fill-rule:nonzero;fill:rgb(0%,0%,0%);fill-opacity:1;" d="M 233.679688 345.394531 C 235.175781 342.40625 238.304688 341.03125 243.285156 341.03125 C 244.335938 341.03125 244.335938 339.4375 243.285156 339.4375 C 238.304688 339.4375 234.460938 342.050781 232.964844 345.039062 C 232.730469 345.507812 233.445312 345.863281 233.679688 345.394531 "/>
<path style=" stroke:none;fill-rule:nonzero;fill:rgb(0%,0%,0%);fill-opacity:1;" d="M 435.679688 335.074219 C 434.1875 338.0625 431.054688 339.4375 426.074219 339.4375 C 425.023438 339.4375 425.023438 341.03125 426.074219 341.03125 C 431.054688 341.03125 434.898438 338.421875 436.394531 335.433594 C 436.628906 334.960938 435.917969 334.605469 435.679688 335.074219 "/>
<path style="fill:none;stroke-width:1.59404;stroke-linecap:butt;stroke-linejoin:miter;stroke:rgb(0%,0%,0%);stroke-opacity:1;stroke-miterlimit:10;" d="M 201.303156 -23.515375 L 384.092219 -23.515375 " transform="matrix(1,0,0,-1,41.982,316.719)"/>
<g style="fill:rgb(0%,0%,0%);fill-opacity:1;">
  <use xlink:href="#glyph0-14" x="179.18" y="363.95"/>
  <use xlink:href="#glyph0-13" x="188.146375" y="363.95"/>
</g>
<g style="fill:rgb(0%,0%,0%);fill-opacity:1;">
  <use xlink:href="#glyph0-16" x="196.668018" y="363.95"/>
  <use xlink:href="#glyph0-4" x="205.185357" y="363.95"/>
  <use xlink:href="#glyph0-6" x="211.5522" y="363.95"/>
  <use xlink:href="#glyph0-7" x="216.035388" y="363.95"/>
  <use xlink:href="#glyph0-15" x="223.208488" y="363.95"/>
  <use xlink:href="#glyph0-17" x="231.054425" y="363.95"/>
</g>
<g style="fill:rgb(0%,0%,0%);fill-opacity:1;">
  <use xlink:href="#glyph0-12" x="240.917437" y="363.95"/>
  <use xlink:href="#glyph0-19" x="245.848226" y="363.95"/>
  <use xlink:href="#glyph0-15" x="252.440305" y="363.95"/>
  <use xlink:href="#glyph0-21" x="260.286242" y="363.95"/>
  <use xlink:href="#glyph0-10" x="273.735804" y="363.95"/>
  <use xlink:href="#glyph0-4" x="281.099709" y="363.95"/>
</g>
<path style="fill:none;stroke-width:1.59404;stroke-linecap:butt;stroke-linejoin:miter;stroke:rgb(0%,0%,0%);stroke-opacity:1;stroke-miterlimit:10;" d="M -13.552312 241.566656 L -13.552312 26.929937 " transform="matrix(1,0,0,-1,41.982,316.719)"/>
<path style="fill-rule:nonzero;fill:rgb(0%,0%,0%);fill-opacity:1;stroke-width:1.59404;stroke-linecap:butt;stroke-linejoin:miter;stroke:rgb(0%,0%,0%);stroke-opacity:1;stroke-miterlimit:10;" d="M 7.347159 0.0007575 C 6.444815 0.137476 2.479971 0.910914 -0.0004975 1.750757 L -0.0004975 -1.753149 C 2.479971 -0.909399 6.444815 -0.135961 7.347159 0.0007575 Z M 7.347159 0.0007575 " transform="matrix(0,1,1,0,28.42893,289.78956)"/>
<path style="fill:none;stroke-width:1.59404;stroke-linecap:butt;stroke-linejoin:miter;stroke:rgb(0%,0%,0%);stroke-opacity:1;stroke-miterlimit:10;" d="M 394.643 241.566656 L -1.876531 20.074469 " transform="matrix(1,0,0,-1,41.982,316.719)"/>
<path style="fill-rule:nonzero;fill:rgb(0%,0%,0%);fill-opacity:1;stroke-width:1.59404;stroke-linecap:butt;stroke-linejoin:miter;stroke:rgb(0%,0%,0%);stroke-opacity:1;stroke-miterlimit:10;" d="M 7.344925 0.00214957 C 6.445247 0.137803 2.47751 0.908932 -0.00044184 1.751716 L 0.00163582 -1.753029 C 2.478208 -0.908131 6.444991 -0.135002 7.344925 0.00214957 Z M 7.344925 0.00214957 " transform="matrix(-0.87299,0.48766,0.48766,0.87299,40.10631,296.64286)"/>
<path style="fill:none;stroke-width:1.59404;stroke-linecap:butt;stroke-linejoin:miter;stroke:rgb(0%,0%,0%);stroke-opacity:1;stroke-miterlimit:10;" d="M 396.23675 241.566656 L 396.23675 26.929937 " transform="matrix(1,0,0,-1,41.982,316.719)"/>
<path style="fill-rule:nonzero;fill:rgb(0%,0%,0%);fill-opacity:1;stroke-width:1.59404;stroke-linecap:butt;stroke-linejoin:miter;stroke:rgb(0%,0%,0%);stroke-opacity:1;stroke-miterlimit:10;" d="M 7.347159 0.00158 C 6.444815 0.138299 2.479971 0.911736 -0.0004975 1.75158 L -0.0004975 -1.752326 C 2.479971 -0.908576 6.444815 -0.135139 7.347159 0.00158 Z M 7.347159 0.00158 " transform="matrix(0,1,1,0,438.21717,289.78956)"/>
<g clip-path="url(#clip1)" clip-rule="nonzero">
<path style="fill:none;stroke-width:1.59404;stroke-linecap:butt;stroke-linejoin:miter;stroke:rgb(0%,0%,0%);stroke-opacity:1;stroke-miterlimit:10;" d="M 804.428156 241.566656 L 407.912531 20.074469 " transform="matrix(1,0,0,-1,41.982,316.719)"/>
</g>
<path style="fill-rule:nonzero;fill:rgb(0%,0%,0%);fill-opacity:1;stroke-width:1.59404;stroke-linecap:butt;stroke-linejoin:miter;stroke:rgb(0%,0%,0%);stroke-opacity:1;stroke-miterlimit:10;" d="M 7.347617 0.000645632 C 6.444529 0.138204 2.476792 0.909333 -0.00115993 1.752117 L 0.000917729 -1.752628 C 2.47749 -0.90773 6.444273 -0.134601 7.347617 0.000645632 Z M 7.347617 0.000645632 " transform="matrix(-0.87299,0.48766,0.48766,0.87299,449.89455,296.64286)"/>
</g>
</svg>
